﻿装備ID,図鑑番号,装備種,装備名,装備種1,装備種2,装備種3,装備種4,装備種5,装備種6,火力,雷装,対空,装甲,対潜,回避,索敵,運,命中,爆装,射程,スター,レア,廃棄燃料,廃棄弾薬,廃棄鋼材,廃棄ボーキ,図鑑文章,戦闘行動半径,配置コスト
1,1,小口径主砲,12cm単装砲,1,1,1,1,0,1,1,0,1,0,0,0,0,0,0,0,1,,1,0,1,1,0,旧型の小型砲です。<br>旧型駆逐艦に標準的主砲として搭載されました。<br>装填・操砲も人力ですが、シンプルな構造で経済性も高く、駆逐艦や海防艦等の主砲として、長く使われました。<br>対空射撃には不向きです。,0,0
2,2,小口径主砲,12.7cm連装砲,1,1,1,1,0,1,2,0,2,0,0,0,0,0,0,0,1,,1,0,1,2,0,艦隊型駆逐艦の主砲です。<br>防盾で全周を遮蔽、弾片や荒天対策を施しており、また動力操砲も採用した近代的な小型艦の主砲で、多くの主力駆逐艦に採用されました。<br>あまり仰角はとれず、対空射撃は少し苦手です。,0,0
3,3,小口径主砲,10cm連装高角砲,1,1,1,16,0,1,2,0,7,0,0,0,0,0,0,0,1,,2,0,1,3,0,防空型駆逐艦の主砲です。画期的な長砲身半自動装填砲を動力砲塔に備えた「長10cm」と呼ばれた新型の防空用高角砲で、「秋月」型駆逐艦に採用されました。複雑な構造のため量産には不向きでしたが、敵機の跳梁を抑える艦隊防空の切り札の一つです。,0,0
4,4,中口径主砲,14cm単装砲,1,1,2,2,0,1,2,0,0,0,0,0,0,0,1,0,2,,1,0,2,1,0,巡洋艦の主砲や戦艦の副砲として独自開発された中距離砲です。<br>やや旧式化していますが、列強の15cm砲とほぼ同等の射程と威力を持っています。<br>対艦対地専門で、対空射撃はできません。,0,0
5,5,中口径主砲,15.5cm三連装砲,1,1,2,2,0,1,7,0,4,0,0,0,0,0,1,0,2,,2,0,2,5,0,条約下で保有数に制限のあった重巡を、火力を増強した強力な軽巡で補うために開発されました。<br>初の三連装砲でしたが、射程・発射速度・運用性全てに高い評価を得ることになりました。<br>後に有名な「大和」型戦艦の副砲としても採用されています。<br>対空戦にも効果を発揮する傑作砲です。,0,0
6,6,中口径主砲,20.3cm連装砲,1,1,3,2,0,1,8,0,3,0,0,0,0,0,0,0,2,,2,0,3,4,0,重巡に搭載された主砲、それが20.3cm連装砲です。<br>条約上限一杯の8インチ（20.3cm）のこの砲は、中距離での砲撃戦はもちろん、夜戦のような近距離での殴り合いでも十分にその威力を発揮します。<br>限定的ですが、対空射撃も可能です。,0,0
7,7,大口径主砲,35.6cm連装砲,1,1,4,3,0,1,15,0,4,0,0,0,0,0,0,0,3,,1,0,10,15,0,標準的な戦艦の主砲です。<br>「金剛」型建造と同時期に英国に発注され、後に国産化、「伊勢」型までの標準的な戦艦主砲して運用されました。<br>遠距離からの堂々たる艦隊砲撃戦を実現します。,0,0
8,8,大口径主砲,41cm連装砲,1,1,4,3,0,1,20,0,4,0,0,0,0,0,0,0,3,,3,0,12,20,0,呉海軍工廠砲熕部で開発された初の純国産戦艦主砲です。<br>16インチ（40.6cm）を僅かに上回る、この41cm砲は「大和」型の46cm砲が登場するまで世界最大の戦艦砲でした。<br>これを搭載した「長門」「陸奥」は、当時世界列強の「ビック７」として、多くのファンに称えられていました。,0,0
9,9,大口径主砲,46cm三連装砲,1,1,4,3,0,1,26,0,5,0,0,0,0,0,0,0,4,,5,0,24,25,0,呉海軍工廠砲熕部が極秘開発した世界最大最強の戦艦主砲です。<br>敵戦艦に対してアウトレンジが可能な最大射程40kmを超える最新鋭のこの巨砲は、機密保持のため公式には16インチ砲とされていました。<br>「三式弾」を用いた強力な対空射撃も可能です。,0,0
10,10,副砲,12.7cm連装高角砲,1,2,6,16,0,1,2,0,4,0,0,0,0,0,1,0,1,,1,0,2,2,0,標準的な対空高角砲です。<br>量産に向いた構造で経済性も高く、戦艦や空母、巡洋艦などに広く搭載されました。<br>発射速度や旋回速度にやや難がありますが、重要な対空火器です。,0,0
11,11,副砲,15.2cm単装砲,1,2,6,4,0,1,2,0,0,0,0,0,0,0,1,0,2,,1,0,2,2,0,英国開発のものを国産化、「金剛」型戦艦や「扶桑」型戦艦の副砲として搭載されました。<br>「伊勢」型戦艦以降は改良軽量型14cm砲が搭載されるようになりました。<br>対空射撃は不可能で、後に近代化改修に伴い、対空火器増設や軽量化のため、表舞台から去っていきました。,0,0
12,12,副砲,15.5cm三連装副砲,1,2,6,4,0,1,7,0,3,0,0,0,0,0,2,0,2,,2,0,2,5,0,巡洋艦の主砲だったものを、戦艦の副砲として活用しました。<br>「大和」型に搭載され、対空戦も可能な、性能・運用性ともに優秀な戦艦副砲となりました。<br>砲塔部の装甲が薄いのが玉に瑕で、諸説ありますが「大和」型の唯一の弱点という指摘もありました。,0,0
13,13,魚雷,61cm三連装魚雷,2,3,7,5,0,1,0,5,0,0,0,0,0,0,0,0,1,,1,1,1,1,0,陳腐化した53cm魚雷の後継として開発された大型の61cm魚雷。<br>その三連装発射管は、駆逐艦の主力兵装として「睦月」型や「吹雪」型などに搭載されました。<br>魚雷戦や夜戦の主力兵装として活躍します。,0,0
14,14,魚雷,61cm四連装魚雷,2,3,7,5,0,1,0,7,0,0,0,0,0,0,0,0,1,,1,1,2,2,0,強力な61cm魚雷の四連装発射管です。<br>迅速に次弾を装填できる次発装填装置を搭載、夜戦等での反転再雷撃能力も増大しました。<br>「白露」型以降の艦隊型駆逐艦や、近代化改装後の主力重巡洋艦などに搭載されました。,0,0
15,15,魚雷,61cm四連装(酸素)魚雷,2,3,7,5,0,1,0,10,0,0,0,0,0,0,0,0,1,,2,2,2,2,0,大威力長射程を誇る、秘密兵器「九三式酸素魚雷」。<br>その必殺の酸素魚雷を四連装した水雷兵装の決定版が、この四連装【酸素魚雷】発射管です。<br>新型の主力駆逐艦や各巡洋艦などに搭載され、夜戦等で最大の雷装戦力を構成します。,0,0
16,16,艦上攻撃機,九七式艦攻,3,5,12,8,1,1,0,5,0,0,4,0,1,0,0,0,0,,1,1,1,0,2,当時の世界水準を遥かに上回る艦上攻撃機の傑作機。<br>優れた航続距離を誇り、速度や防弾装備は劣るものの、初期の機動部隊艦載機の主力攻撃機として大活躍しました。<br>「九七艦攻」と呼ばれ、雷撃・水平爆撃をこなす主力艦上攻撃機ですが、徐々に現役を退いていきます。,4,5
17,17,艦上攻撃機,天山,3,5,12,8,1,1,0,7,0,0,3,0,1,0,0,0,0,,2,2,4,0,4,旧式化した「九七艦攻」の後継機として開発された、新型の艦上攻撃機「天山」。<br>機動部隊に配備され、主に雷撃任務を担当します。<br>急降下爆撃機の「彗星」などと一緒に、ぜひ空母機動部隊で運用してくださいね。,5,6
18,18,艦上攻撃機,流星,3,5,12,8,2,1,0,10,2,0,4,0,1,0,0,0,0,,3,2,5,0,10,"艦攻と艦爆を統合した先進的な""急降下爆撃可能な雷撃機""、それが「流星」です。<br>発動機不調と重量過大に悩みながらも、開発に成功。高い性能を誇る最新鋭の艦上攻撃機です。<br>先進的な性能を体現した独特のフォルムも魅力的な本機、ぜひ、新型艦戦「烈風」と共に空母に積んであげてくださいね。",6,7
19,19,艦上戦闘機,九六式艦戦,3,5,8,6,3,1,0,0,2,0,0,0,0,0,0,0,0,,1,1,1,0,1,旧式の艦上戦闘機です。<br>零戦より前に実戦配備されていた旧型機ですが、優れた格闘戦能力を持っています。<br>武装や航続力、速度の点で既に二線級ではありますが、防空戦闘には活用可能です。,3,3
20,20,艦上戦闘機,零式艦戦21型,3,5,8,6,4,1,0,0,5,0,0,0,0,0,0,0,0,,1,1,1,0,2,「ゼロ戦」の名で知られる名機「零式艦上戦闘機」の初期型です。7.7mm機銃2門と自慢の20mm機銃2門を装備。<br>優れた格闘戦能力と長大な航続距離で、その圧倒的な力を見せつけました。<br>やがて敵が強力な新型機になってくると、火力と速度、防弾性などの弱点が露呈していきます。,7,4
21,21,艦上戦闘機,零式艦戦52型,3,5,8,6,5,1,0,0,6,0,0,0,0,0,0,0,0,,2,1,2,0,3,零戦の最終的な量産機となった改良型、「零式艦上戦闘機52型」です。<br>後継機の開発が遅れたため、零戦52型が後期の主力艦上戦闘機として奮戦することになりました。<br>「彗星」艦爆や「天山」艦攻と一緒に、機動部隊の主力として運用してくださいね。,6,5
22,22,艦上戦闘機,烈風,3,5,8,6,6,1,0,0,10,0,0,1,0,0,0,0,0,,4,2,2,0,9,名機「零戦」の後継機と開発された最新鋭艦上戦闘機「烈風」。<br>用兵側の発動機選定ミスや多忙な現場設計陣などの苦境を越えて、ついに完成した新型艦戦です。<br>ぜひ、「流星」艦爆と共に、次世代の機動部隊艦載機部隊を編制して、空を制してくださいね！,5,7
23,23,艦上爆撃機,九九式艦爆,3,5,10,7,7,1,0,0,0,0,3,0,0,0,0,5,0,,1,1,1,0,2,複葉の九六艦爆から一新、単葉の近代的な艦上爆撃機として登場しました。<br>「九九艦爆」と呼ばれ、「九七艦攻」と共に初期の機動部隊の攻撃隊戦力の中核を担います。<br>固定脚の低速機であるため、より高性能な高速艦爆「彗星」にその座を譲っていきました。,4,4
24,24,艦上爆撃機,彗星,3,5,10,7,8,1,0,0,0,0,3,0,0,0,0,8,0,,2,2,3,0,3,「九九艦爆」の後継として開発された高速性能を誇る艦上爆撃機「彗星」。<br>液冷発動機を装備。当時の一般的な戦闘機より速く、護衛の零戦すら振り切れる高速性とも言われます。<br>整備の難しい機体ですが、高速艦爆としての完成度は高く、ぜひ機動部隊の中核として運用してくださいね。,4,5
25,25,水上偵察機,零式水上偵察機,5,7,16,10,12,1,0,0,1,0,2,0,5,0,1,1,0,,1,1,1,0,2,「零水偵」とも呼ばれる標準的な水上偵察機です。<br>戦艦や巡洋艦、水上機母艦などに搭載され、索敵任務担当として艦隊の「目」の役目を務めます。<br>海戦は索敵が大事！　ぜひ、主力艦艇に搭載して、運用してくださいね。,7,5
26,26,水上爆撃機,瑞雲,5,43,17,10,12,1,0,0,2,0,4,0,6,0,1,4,0,,2,2,3,0,5,水上偵察機を発展させ、急降下爆撃可能な水偵として開発された「瑞雲」。<br>空戦フラップまで装備した高性能な多用途機で、水上機母艦や、航空巡洋艦などからの運用も可能です。<br>「伊勢」型を改装した「航空戦艦」で集中運用、水上打撃機動部隊を編制するのも楽しいですよ！,5,6
27,27,小型電探,13号対空電探,5,8,19,11,0,1,0,0,2,0,0,0,3,0,1,0,0,,2,0,0,10,10,艦載用対空電探です。<br>当初陸上用として開発されたものでしたが、小型軽量で艦載も可能だったため、「13号対空電探」として採用されました。<br>最終的に戦艦や空母まで、多くの艦艇に装備された傑作電探です。,0,0
28,28,小型電探,22号対水上電探,5,8,19,11,0,1,0,0,0,0,0,0,5,0,3,0,0,,2,0,0,15,15,初の実戦運用された対水上電探です。<br>当初動作不安定で実用に耐えませんでしたが、改良と調整により、徐々に効果を発揮していきます。<br>捜索以外にも限定的ながら射撃管制にも使用されました。,0,0
29,29,小型電探,33号対水上電探,5,8,19,11,0,1,0,0,0,0,0,0,7,0,5,0,0,,3,0,0,20,15,対水上射撃管制用に開発された小型対水上射撃用電探です。<br>22号を改修して精度を上げ、探知距離・精度ともに実用レベルで運用可能です。<br>雷撃管制用にも使用でき、砲雷撃戦の質を大きく向上させます。,0,0
30,30,大型電探,21号対空電探,5,8,20,11,0,1,0,0,4,0,0,0,4,0,2,0,0,,3,0,0,20,20,初の実用艦載電探です。<br>対空用ですが、対水上電探としても使用可能です。<br>13号電探と混載することも可能で、基本的にこの21号は大型艦に搭載されました。,0,0
31,31,大型電探,32号対水上電探,5,8,20,11,0,1,0,0,0,0,0,0,10,0,8,0,0,,4,0,0,20,25,高性能な大型対水上電探です。<br>遠距離射撃にも対応できる射撃管制が可能ですが、かなり大型で重量過大です。<br>これを搭載すると、そうとう目立ちます！,0,0
32,32,大型電探,14号対空電探,5,8,20,11,0,1,0,0,6,0,0,0,5,0,4,0,0,,5,0,0,25,25,高性能な大型対空電探です。<br>英軍のレーダーを参考に開発したため、他の対空電探より高い精度を発揮しました。<br>空中線が大型のため、基本的に戦艦や正規空母、重巡洋艦などの大型艦への装備が可能です。,0,0
33,33,機関部強化,改良型艦本式タービン,6,31,28,21,0,1,0,0,0,0,0,6,0,0,0,0,0,,1,10,0,10,0,改良型の新型タービン機関です。<br>従来型タービンの各部素材を見直し構造強化を行って、より高出力が可能となりました。<br>機動性が向上し、砲雷撃戦や、対空戦における回避率が向上します。,0,0
34,34,機関部強化,強化型艦本式缶,6,31,28,21,0,1,0,0,0,0,0,10,0,0,0,0,0,,2,10,0,20,0,新開発の高温高圧缶です。<br>従来の艦本式ロ号缶から換装するもので、駆逐艦「島風」で採用した高温高圧缶をベースに、実用性と量産性を高めたもの。<br>高出力と低燃費を実現し、回避率を大きく向上させます。また、改良型タービンとの併用でさらに高い推力を実現します。,0,0
35,35,対空強化弾,三式弾,4,28,29,12,0,1,0,0,5,0,0,0,0,0,0,0,0,,2,0,9,6,3,戦艦の主砲から放たれる対空用特殊砲弾。<br>榴散弾の一種で、大量の子弾が爆散、敵を編隊ごと一網打尽に殲滅することが可能。<br>戦艦主砲の射撃装置の問題で命中率が低いのが難点だが、艦隊の防空力を大きく高めます。<br>戦艦・航空戦艦・巡洋戦艦が使用可能。,0,0
36,36,対艦強化弾,九一式徹甲弾,4,25,30,13,0,1,8,0,0,0,0,0,0,0,1,0,0,,2,0,3,9,0,遠距離砲撃戦における秘密兵器「九一式徹甲弾」。<br>海中突入後急激に向きを変え、魚雷のように敵艦水線下に突き進み、喫水下を破砕する特殊徹甲弾です。<br>水中弾効果を高める形状設計のため、空気抵抗も減少して射程も延伸します。<br>戦艦・航空戦艦等が使用可能。,0,0
37,37,対空機銃,7.7mm機銃,4,6,32,15,0,1,0,0,2,0,0,1,0,0,0,0,0,,1,0,1,1,0,対空補助兵装です。<br>初期の対空兵器として初期の駆逐艦等に装備された小口径機銃です。<br>射程及び威力ともに能力不足で、12.7mm機銃や25mm機銃への更新が進んでいます。,0,0
38,38,対空機銃,12.7mm単装機銃,4,6,32,15,0,1,0,0,3,0,0,1,0,0,0,0,0,,1,0,1,1,0,対空機銃です。<br>対空兵装として、主に駆逐艦等に装備されました。<br>より強力な25mm機銃への更新が進んでいます。,0,0
39,39,対空機銃,25mm連装機銃,4,6,32,15,0,1,0,0,5,0,0,1,0,0,0,0,0,,1,0,2,1,0,標準的な対空機銃兵装です。<br>フランス製の25mm機関砲をベースに国産化した、25mm高角機銃の連装型です。<br>連装型は標準に対空装備でしたが、スペースや状況が許す限り、より強力な三連装型に更新されていきました。,0,0
40,40,対空機銃,25mm三連装機銃,4,6,32,15,0,1,0,0,6,0,0,1,0,0,0,0,0,,2,0,3,1,0,国産対空機銃兵装の強化バージョンです。<br>25mm高角機銃の三連装型ですが、一度に撃てるわけではなく、一門ずつ順番に撃って銃身の加熱を防ぎます。<br>従来の連装機銃や仮設の単装機銃を加え、この25mm三連装機銃が近接対空兵装の中核となりました。,0,0
41,41,特殊潜航艇,甲標的,2,4,33,5,0,1,0,12,0,0,0,0,0,0,0,0,0,,2,0,7,7,0,独自開発された「特殊潜航艇」です。<br>軽巡洋艦や甲標的母艦に改装した水上機母艦、そして潜水艦が搭載して運用します。<br>二発の魚雷を装備し、敵艦に肉薄して雷撃、艦隊決戦を補助する特殊兵器です。,0,0
42,42,応急修理要員,応急修理要員,6,30,34,14,0,1,0,0,0,0,0,0,0,0,0,0,0,,1,0,0,1,0,プロのダメコン（ダメージコントロール）集団。艦娘の戦闘による致命的な被害を最小限に抑えることによって、大切な艦娘を轟沈（ロスト）からお護りします！<br>艦隊決戦のリスクマネージメントに、ぜひどうぞ！<br>（発動すると消滅します）,0,0
43,43,応急修理要員,応急修理女神,6,30,34,14,0,1,0,0,0,0,0,0,0,0,0,0,0,,3,0,0,1,0,ダメコン（ダメージコントロール）集団の最上位バージョン。艦娘の戦闘による致命的な被害を最小限に抑えて、大切な艦娘を轟沈（ロスト）から護ると共に、発動すると、同艦娘の耐久力と燃料・弾薬などの補給物資を全回復してくれるという、まさに女神のようなオーバーテクノロジーな至高のダメコン！<br>（発動すると消滅します）,0,0
44,44,爆雷,九四式爆雷投射機,7,32,24,19,0,1,0,0,0,0,5,0,0,0,0,0,0,,1,0,2,1,1,対潜兵装です。<br>最も標準的な爆雷投射機です。駆逐艦・海防艦などの小型艦艇に対潜水艦用火力として装備されました。<br>若干旧式化しつつありますが、敵潜を発見さえできれば、その威力は十分です。,0,0
45,45,爆雷,三式爆雷投射機,7,32,24,19,0,1,0,0,0,0,8,0,0,0,0,0,0,,3,0,3,1,1,対潜兵装です。<br>九四式にかわる新型の爆雷投射機です。新鋭の海防艦などに装備されました。<br>大量装備すれば、発見さえできれば、敵潜水艦の面制圧も…きっと可能です。,0,0
46,46,ソナー,九三式水中聴音機,7,10,22,20,0,1,0,0,0,0,6,0,0,0,1,0,0,,1,0,0,1,1,対潜兵装です。<br>いわゆるパッシブソナーです。性能は残念ながら、あまり良くはありません。<br>でも、あるとないとでは大違い！対潜作戦のお供に、ぜひどうぞ！,0,0
47,47,ソナー,三式水中探信儀,7,10,22,20,0,1,0,0,0,0,10,0,0,0,2,0,0,,3,0,0,1,2,対潜兵装です。<br>いわゆるアクティブソナーです。性能は残念ながら、ものすごく高くはありません。<br>それでも、他兵装と組み合わせて、練度の高い駆逐艦で敵潜水艦隊を文字通り駆逐してください！,0,0
48,48,小口径主砲,12.7cm単装高角砲,1,1,1,16,0,1,1,0,3,0,0,0,0,0,0,0,1,,1,0,1,1,0,標準的な対空高角砲です。<br>量産に向いた構造で経済性も高く、後期の駆逐艦や海防艦、輸送船などにも搭載されました。<br>襲いかかる敵機に蟷螂の斧ですが対抗します。,0,0
49,49,対空機銃,25mm単装機銃,4,6,32,15,0,1,0,0,4,0,0,1,0,0,0,0,0,,2,0,1,1,0,標準的な対空機銃兵装です。<br>後期の艦艇のほとんど全てが装備した機銃です。命中しない…すぐ加熱する…等の評価もありますが、雲霞のように迫りくる敵機から味方艦艇を必死に守りました。銃身の過熱を防ぐため、連装、三連装タイプも生産＆配備されました。,0,0
50,50,中口径主砲,20.3cm(3号)連装砲,1,1,3,2,0,1,10,0,4,0,0,0,0,0,0,0,2,,4,0,3,4,0,20.3cm連装砲の改良型、それが同3号連装砲です。<br>元々優秀な重巡洋艦用主砲をさらに改良。55口径の極めて優れた重巡用主砲が完成しました。<br>優秀な砲ですが、経済性に難があり、少量の試作だけで量産はされていません。,0,0
51,51,対空機銃,12cm30連装噴進砲,4,29,32,15,0,1,0,0,8,0,0,0,0,0,0,0,0,,3,0,4,2,2,12cm30連装噴進砲は、艦載用対空ロケットランチャーです。<br>四式ロケット式焼霰弾(ロサ弾）を30連発で連続発射する脅威の弾幕は、肉薄する敵艦載機から味方艦を護ります。<br>ぜひ、改装した伊勢・日向に満載して、敵空母の猛攻を突破してください！,0,0
52,52,艦上攻撃機,流星改,3,5,12,8,2,1,0,13,2,0,3,0,2,0,0,0,0,,4,2,6,0,10,艦攻と艦爆を統合した先進的な急降下爆撃可能な雷撃機「流星」の性能向上型です。<br>美しいフォルムだけでなく、爆弾倉・主脚・主翼折り畳み機構も油圧操作式、20ｍｍ砲x2門と7.7ｍｍ機銃x2門、さらに13ｍｍ後方旋回銃x１門という世界最強武装を誇る艦上統合攻撃機「流星改」。提督の機動部隊でぜひ活躍させてくださいね。,6,8
53,53,艦上戦闘機,烈風改,3,5,8,6,6,1,0,0,12,0,0,2,0,0,0,0,0,,5,2,2,0,10,名機「零戦」の後継機として開発された最新鋭艦上戦闘機「烈風」。その性能向上型が「烈風改」です。<br>レシプロ艦上戦闘機として、究極の領域まで高められた秘めた戦闘能力を、提督の艦隊の防空や制空でぜひ発揮させてくださいね。最近、数十年の時を越えて、設計図が発見されたニュースもありました！,5,8
54,54,艦上偵察機,彩雲,5,7,14,9,9,1,0,0,0,0,0,0,9,0,2,0,0,,3,2,0,0,11,「我ニ追イツク敵機無シ」有名な無電を発した俊足の艦上偵察機「彩雲」。敵戦闘機の追随を許さない高速性能を誇る、高性能な艦上偵察機です。悪化した戦況の中、敵情偵察に海上へと飛び立ちました。<br>ぜひ、提督の機動部隊の正規空母、その第4航空隊に配備してみてくださいね。,8,9
55,55,艦上戦闘機,紫電改二,3,5,8,6,10,1,0,0,9,0,0,3,0,0,0,0,0,,3,2,2,0,7,本土防空の切り札、局地戦闘機「紫電改」の艦載機型です。<br>大馬力エンジンと空戦フラップの採用などによる優れた空戦能力で、開発・配備の遅れた烈風の穴を埋めるべく計画されました。空母信濃が就航した暁には、例え烈風や烈風改が揃っていても、あえて搭載してほしい幻の…そして実在した最期の艦上戦闘機です。,3,6
56,56,艦上戦闘機,震電改,3,5,8,6,11,1,0,0,15,0,0,0,0,0,0,0,0,,6,2,3,0,28,九州飛行機＆海軍航空技術廠が生み出した、先進的なエンテ型の試作戦闘機「震電」。<br>推進プロペラを後方に配置し、重火力を機体前部に集中させた後進翼の機体は、まさに未来と希望を感じさせるもの。<br>現実世界では、海上に飛び立つことのなかった機体ですが、「艦これ」では着艦フックと尾翼等を補強して登場です！,2,9
57,57,艦上爆撃機,彗星一二型甲,3,5,10,7,8,1,0,0,0,0,3,0,1,0,0,10,0,,3,2,3,0,4,「九九艦爆」の後継として開発された高速性能を誇る水冷エンジンの艦上爆撃機「彗星」。<br>彗星艦爆一二型甲は、エンジンをより強力なアツタ三二型に換装。そして後部機銃も13mmに火力強化しました。機動力と防御火力を向上させた本機で、あの有名な芙蓉部隊ばりの奮戦を！,5,6
58,58,魚雷,61cm五連装(酸素)魚雷,2,3,7,5,0,1,0,12,0,0,0,0,0,0,1,0,1,,3,2,3,2,0,大威力長射程を誇る、秘密兵器「九三式酸素魚雷」。<br>その必殺の酸素魚雷を、五連装にしてしまった水雷兵装のファイナルウェポンが、この五連装【酸素魚雷】発射管です。高速重雷装駆逐艦の「島風」に搭載されました。大井さんやスーパー北上さまも、こっちを見ています！,0,0
59,59,水上偵察機,零式水上観測機,5,7,16,10,12,1,0,0,2,0,4,0,6,0,2,1,0,,2,1,1,0,2,複葉でありながら、優れた運動性と高い空戦能力を持つ二座の水上偵察機です。主力艦隊の砲戦弾着観測と偵察のための機体ですが、その高い格闘戦闘力は、専門の水上戦闘機も顔負けの高性能ぶり。複葉機だけど近代的な、名作観測機なのです！,3,6
60,60,艦上爆撃機,零式艦戦62型(爆戦),3,5,10,7,5,1,0,0,4,0,3,0,0,0,0,4,0,,3,1,3,0,3,零式艦上戦闘機を艦上爆撃機仕様にした、通称「爆戦」です。<br>52型の胴体下に250kg爆弾懸吊架を増設しました。戦闘爆撃機型の機体で、爆撃後は制空戦闘機として空戦に参加できるマルチロールファイター。あの攻撃方法は採用しないで通常攻撃です！,4,5
61,61,艦上偵察機,二式艦上偵察機,5,7,14,9,8,1,0,0,1,0,0,0,7,0,3,0,0,,2,3,1,0,13,名機「彗星艦爆」の艦上偵察機型です。<br>偵察用カメラと増加燃料タンクを搭載して、艦隊の目として活躍可能です。ぜひ、彩雲と共に機動部隊で運用してね！,5,6
62,62,水上爆撃機,試製晴嵐,5,43,17,10,12,1,0,0,0,0,6,0,6,0,1,11,0,,5,4,5,0,20,カタパルト射出可能な高性能攻撃機「晴嵐」のプロトタイプです。<br>水上機搭載可能な潜水艦による戦略的な運用を目指して開発された、高い攻撃力を秘めたハイスペックな機体です。あの潜水艦が登場した際には、ぜひ搭載したいですね！,4,10
63,63,小口径主砲,12.7cm連装砲B型改二,1,1,1,1,0,1,3,0,2,0,0,0,0,0,0,0,1,,2,0,1,2,0,艦隊型駆逐艦の主砲のマイナーチェンジバージョンです。<br>基本形と同様、防盾で全周を遮蔽、弾片や荒天対策を施しており、また本バージョンでは仰角範囲等も改良されました。駆逐艦夕立等に搭載されたとも云われています。,0,0
64,64,艦上爆撃機,Ju87C改,3,5,10,7,22,1,0,0,0,0,5,0,0,0,1,9,0,,4,2,4,0,5,かの国の代表的な急降下爆撃機、その艦載機バージョン。<br>「スツーカ」という呼称が有名な、優れた急降下爆撃性能を誇る、逆ガル式翼が特徴的な機体です。急降下時の風切音がサイレンに似ていることから「悪魔のサイレン」とも呼ばれたそうです。,4,6
65,65,中口径主砲,15.2cm連装砲,1,1,2,2,0,1,4,0,3,0,0,0,0,0,3,0,2,,3,0,2,3,0,新型軽巡のために開発された新型の両用砲です。<br>対巡洋艦戦闘に重きをおいた新設計の軽巡主砲で、限定的ですが対空戦闘も可能です。阿賀野型軽巡シリーズに装備されました。,0,0
66,66,副砲,8cm高角砲,1,2,6,16,0,1,1,0,6,0,0,0,0,0,2,0,1,,4,0,1,2,0,新開発の長8cm高角砲です。<br>秋月型に装備された長10cm高角砲の小型軽量化を目指した対空用副砲バージョンです。微妙な出来という評価もありますが、後期の建造艦艇への装備が期待されていました。,0,0
67,67,潜水艦魚雷,53cm艦首(酸素)魚雷,2,3,42,5,0,1,0,13,0,0,0,0,0,0,2,0,1,,2,2,2,2,0,伊号潜水艦の艦首に装備する潜水艦の主兵装です。<br>水上艦艇に搭載するものよりやや直径の小さい、長射程高威力を誇る必殺の酸素魚雷です。大型艦艇に大ダメージを与えることも可能です。,0,0
68,68,上陸用舟艇,大発動艇,8,14,35,22,0,1,0,0,0,0,0,0,0,0,0,0,0,,1,1,1,0,1,大発動艇、略して「大発」。<br>輸送船からの揚陸作業や上陸戦に用いた、現代でいうところの「上陸用舟艇」です。海上のトラックのような「大発」は、大型輸送船や強襲揚陸艦などで運用可能です。,0,0
69,69,オートジャイロ,カ号観測機,3,15,36,23,0,1,0,0,0,0,9,0,0,0,1,0,0,,4,1,1,0,4,陸軍で開発、運用されていたオートジャイロ「カ号観測機」。<br>現代の艦載ヘリコプターの先祖ともいえる、回転翼の艦載対潜哨戒機です。全通甲板を持つ強襲揚陸艦や軽空母、航空甲板を持つ航空巡洋艦などで運用可能です。,0,0
70,70,対潜哨戒機,三式指揮連絡機(対潜),3,16,37,24,0,1,0,0,0,0,7,0,1,0,2,0,0,,2,1,1,0,2,陸軍で開発、対潜哨戒機としても運用されていた固定翼機です。<br>現代のSTOL(短距離離着陸機)のような性能を持ち、艦載対潜哨戒機として運用されました。全通甲板を持つ強襲揚陸艦や軽空母などで運用可能です。,0,0
71,71,副砲,10cm連装高角砲(砲架),1,2,6,16,0,1,1,0,7,0,0,0,0,0,1,0,1,,4,0,1,3,0,「長10cm」と呼ばれた長砲身の新型高性能防空用高角砲、その大型艦対空火器バージョンです。<br>複雑な構造のため量産には不向きでしたが、敵機の跳梁から大切な艦と艦隊を守る艦隊防空の切り札です。航空母艦や戦艦、巡洋艦などの大型艦の副砲として運用可能です。,0,0
72,72,追加装甲(中型),増設バルジ(中型艦),6,17,26,25,0,1,0,0,0,7,0,-2,0,0,0,0,0,,3,0,0,12,0,艦艇の防御力を強化する増加装甲の一種です。<br>重巡洋艦以上の中型艦艇の船体側面への増設が可能です。<br>(重巡・航空巡洋艦・軽空母・水上機母艦用),0,0
73,73,追加装甲(大型),増設バルジ(大型艦),6,17,27,25,0,1,0,0,0,9,0,-3,0,0,0,0,0,,3,0,0,30,0,艦艇の防御力を強化する増加装甲の一種です。<br>戦艦等の大型艦艇の船体側面への増設が可能です。<br>(戦艦・巡洋戦艦・航空戦艦・正規空母(含む装甲空母)用),0,0
74,74,探照灯,探照灯,8,18,38,26,0,1,0,0,0,0,0,0,2,0,0,0,0,,1,0,0,1,1,夜戦時照射用の探照灯です。<br>夜戦時に味方艦隊の射撃・雷撃を支援できますが、敵艦隊からの集中攻撃を浴びるリスクがあります。<br>(駆逐艦・軽巡洋艦・重巡洋艦・航空巡洋艦・水上機母艦・巡洋戦艦が装備可能です),0,0
75,75,簡易輸送部材,ドラム缶(輸送用),9,19,40,27,0,1,0,0,0,0,0,0,0,0,0,0,0,,1,0,0,1,0,"ドラム缶を繋いだ簡易輸送用部材です。""東京急行""などに用いられました。<br>駆逐艦の甲板などに搭載し、敵制海権内に進入、強行輸送を敢行します。<br>(駆逐艦・軽巡洋艦・航空巡洋艦・水上機母艦・揚陸艦で運用可能です)",0,0
76,76,大口径主砲,38cm SK C/34連装砲,1,1,4,3,0,2,16,0,1,0,0,0,0,0,1,0,3,,2,0,11,18,0,ビスマルク級戦艦に搭載された、かの国の戦艦主砲です。<br>主に電動を用いた砲塔旋回・揚弾・装填などが可能です。<br>短～中距離での砲撃戦を意識した戦艦主兵装です。,0,0
77,77,副砲,15cm SK C/28連装副砲,1,2,6,4,0,2,4,0,2,0,0,0,0,0,2,0,2,,1,0,2,4,0,ビスマルク級戦艦に搭載された、かの国の戦艦副砲です。<br>主に近距離へ接近する小艦艇に指向する射撃を担当します。艦の射撃指揮装置は充実していますが、本副砲は対空戦闘には不向きです。,0,0
78,78,小口径主砲,12.7cm SK C/34単装砲,1,1,1,1,0,2,2,0,0,0,0,0,0,0,1,0,1,,1,0,1,1,0,Z1型駆逐艦に搭載された、かの国の駆逐艦主砲です。<br>単装砲ではありますが、対艦・対地射撃では優れた火砲です。本兵装は残念ながら対空戦闘には不向きです。,0,0
79,79,水上爆撃機,瑞雲(六三四空),5,43,17,10,12,1,0,0,2,0,5,0,6,0,1,6,0,,3,2,3,0,5,急降下爆撃も可能な多用途水上偵察機「瑞雲」。<br>「伊勢」型航空戦艦等での艦隊運用を前提に編成・錬成した、六三四航空隊所属の瑞雲飛行隊です。,5,6
80,80,水上爆撃機,瑞雲12型,5,43,17,10,12,1,0,0,3,0,5,0,6,0,1,7,0,,4,2,3,0,6,急降下爆撃まで可能な多用途水上偵察機「瑞雲」。<br>空戦フラップ装備の高性能多用途機である本機のエンジンを、より強力な金星62型に換装した「瑞雲改良型」の新鋭機です。,5,7
81,81,水上爆撃機,瑞雲12型(六三四空),5,43,17,10,12,1,0,0,3,0,6,0,7,0,1,9,0,,5,2,3,0,6,高性能多用途水上偵察機「瑞雲」の改良型「瑞雲12型」。<br>同機によって編成された「伊勢」型航空戦艦などでの艦隊運用を担う六三四航空隊所属の「瑞雲12型」飛行隊です。,5,7
82,82,艦上攻撃機,九七式艦攻(九三一空),3,5,12,8,1,1,0,6,0,0,7,0,2,0,0,0,0,,3,2,3,0,4,初期の機動部隊を支えた主力攻撃機「九七艦攻」。<br>旧式化した同機を対潜哨戒機バージョンとして運用する九三一航空隊所属の「九七艦攻」装備飛行隊です。,4,5
83,83,艦上攻撃機,天山(九三一空),3,5,12,8,1,1,0,9,0,0,8,0,2,0,0,0,0,,4,2,4,0,5,登場の遅れた名艦上攻撃機「天山」。<br>この機体を用いて対潜哨戒・対潜制圧・対艦攻撃を担う九三一航空隊所属の「天山」装備飛行隊です。,5,6
84,84,対空機銃,2cm FlaK 38四連装機銃,4,6,32,15,0,2,0,0,7,0,0,0,0,0,1,0,0,,4,0,3,1,1,かの国からもたらされた四連装対空機銃です。<br>2cm Flakvierling38と呼ばれる優れた近接防空火器で、艦船だけでなく対空戦闘車両や防空陣地でも運用されました。,0,0
85,85,対空機銃,3.7cm FlaK M42機関砲,4,6,32,15,0,2,1,0,8,0,0,0,0,0,1,0,0,,4,0,3,1,1,かの国からもたらされた大口径二連装高射機関砲です。<br>主に陸戦で用いられましたが、Uボートや艦船などにも一部搭載・運用されました。高い近接防空火力を発揮します。,0,0
86,86,艦艇修理施設,艦艇修理施設,10,20,41,28,0,1,0,0,0,0,0,0,0,0,0,0,0,,4,10,5,20,10,工作艦に搭載される修理装備一式です。「明石」等の工作艦に搭載することで、入渠なしに艦艇の応急修理が可能です。<br>(小破程度の損害の艦を、この装備一式につき、+1隻の同時修理が可能です),0,0
87,87,機関部強化,新型高温高圧缶,6,31,28,21,0,1,0,0,0,0,0,13,0,0,0,0,0,,4,20,0,25,0,次世代駆逐艦などに搭載するための高温高圧缶です。<br>従来の艦本式ロ号缶と比べて、その性能は大きく向上しています。艦の回避率を大きく向上させると共に、将来的には新型タービンとの併用でさらに高い性能を発揮することが期待されます。,0,0
88,88,小型電探,22号対水上電探改四,5,8,19,11,0,1,0,0,0,0,2,0,5,0,8,0,0,,4,0,0,16,16,実戦運用された電探二号電波探信儀二型の改良型です。<br>新型受信機や様々な改良により、性能と安定性が向上、<br>実効力のあるレーダー射撃も可能となりました。,0,0
89,89,大型電探,21号対空電探改,5,8,20,11,0,1,0,0,5,0,0,1,6,0,3,0,0,,4,0,0,21,23,二式二号電波探信儀一型の改良型です。<br>様々な改良と調整によって、安定性が向上しました。<br>対空用ですが、対水上電探としても使用可能です。,0,0
90,90,中口径主砲,20.3cm(2号)連装砲,1,1,3,2,0,1,9,0,3,0,0,0,0,0,1,0,2,,3,0,3,4,0,20.3cm連装砲のマイナーバージョンアップ版、それが同2号連装砲です。<br>元々優秀な重巡洋艦用主砲を改良して、主に妙高型などに搭載されました。初期主砲搭載の他の重巡達も、近代化改装時に順次本砲に換装されていきました。,0,0
91,91,小口径主砲,12.7cm連装高角砲(後期型),1,1,1,16,0,1,2,0,5,0,1,1,0,0,1,0,1,,2,0,2,2,0,標準的な対空高角砲の後期改良型です。<br>量産に向いた構造で経済性も高く、量産両用砲として優れた性能を誇ります。課題のひとつである旋回速度等も改善された、頼りになる対空火器です。,0,0
92,92,対空機銃,毘式40mm連装機銃,4,6,32,15,0,1,0,0,6,0,0,1,0,0,0,0,0,,1,0,2,1,0,英国ヴィッカース社より導入した対空機銃です。<br>射撃時の音からポンポン砲とも呼ばれ、国内でライセンス生産もされました。徐々に後発の国産対空機銃に更新されていきました。,0,0
93,93,艦上攻撃機,九七式艦攻(友永隊),3,5,12,8,1,1,0,11,1,0,5,0,4,0,3,0,0,,5,1,1,0,2,優れた航続距離を誇り、速度や防弾装備は劣るものの、初期の機動部隊艦載機の主力攻撃機として大活躍した傑作艦上攻撃機「九七艦攻」。本部隊は、闘志と高い技量を兼ね備えた友永隊長の率いる九七艦攻隊です。,4,5
94,94,艦上攻撃機,天山一二型(友永隊),3,5,12,8,1,1,0,14,1,0,6,0,5,0,3,0,0,,6,2,4,0,4,旧式化した「九七艦攻」の後継機として開発された、新鋭艦上攻撃機「天山」。本部隊は、闘志溢れる空中指揮官が率いる、「天山」への機種転換が完了した熟練搭乗員で構成された精鋭艦攻隊です。,5,6
95,95,潜水艦魚雷,潜水艦53cm艦首魚雷(8門),2,3,42,5,0,1,0,16,0,0,0,0,0,0,3,0,1,,3,2,4,2,0,伊号潜水艦の艦首に装備する潜水艦専用兵装です。<br>水上艦艇に搭載するものよりやや直径の小さい、長射程高威力を誇る必殺の酸素魚雷発射管艦首8門です。高い魚雷火力を潜水艦に付与します。,0,0
96,96,艦上戦闘機,零式艦戦21型(熟練),3,5,8,6,4,1,0,0,8,0,0,2,1,0,2,0,0,,4,1,1,0,2,熟練搭乗員で構成された「零式艦上戦闘機」装備の艦戦隊です。7.7mm機銃2門と自慢の20mm機銃2門、優れた格闘戦能力と長大な航続距離。搭乗員達の高い技量もあって、初期段階では圧倒的な力を誇りました。艦隊の上空直援や攻撃隊の護衛で活躍します。,7,4
97,97,艦上爆撃機,九九式艦爆(熟練),3,5,10,7,7,1,0,0,1,0,4,0,2,0,2,7,0,,4,1,1,0,2,熟練搭乗員で構成された「九九艦爆」装備の艦爆隊です。<br>「九七艦攻」と共に初期機動部隊の打撃力の中核を担います。稼働率や信頼性は高いものの、やや設計の古い固定脚低速機であるため、より高性能な高速艦爆「彗星」にその座を譲っていきます。,4,4
98,98,艦上攻撃機,九七式艦攻(熟練),3,5,12,8,1,1,0,8,0,0,5,0,2,0,2,0,0,,4,1,1,0,2,熟練搭乗員で構成された「九七艦攻」装備の艦攻隊です。<br>速度や防弾装備は劣るものの優れた航続距離と熟練搭乗員の腕で、緒戦の機動部隊と共に大活躍を演じました。雷撃・水平爆撃をこなす主力艦上攻撃機ですが、徐々に現役を退いていきます。,4,5
99,99,艦上爆撃機,九九式艦爆(江草隊),3,5,10,7,7,1,0,0,0,0,5,0,3,0,4,10,0,,5,1,1,0,2,緒戦の空母機動部隊の打撃力の中核を担う「九九艦爆」。<br>やや設計の古い固定脚低速機ですが稼働率や信頼性は高く、特に高い練度を誇る江草隊長の率いる艦爆隊の急降下爆撃は、驚異的な命中率を誇ります。,4,4
100,100,艦上爆撃機,彗星(江草隊),3,5,10,7,8,1,0,0,1,0,5,0,4,0,4,13,0,,6,2,3,0,3,「九九艦爆」の後継機として開発された高速艦爆「彗星」。<br>液冷発動機装備のため運用のやや難しい機体でしたが、江草隊長の腕とその空中指揮、そして練度の高い母艦整備員によって支えられた精鋭「彗星」艦爆隊は、圧倒的な命中率を誇るその急降下爆撃で新生機動部隊の打撃力を担います。,5,5
101,101,照明弾,照明弾,11,21,43,29,0,1,0,0,0,0,0,0,0,0,0,0,0,,2,0,2,1,1,主砲等から発射される落下傘付の照明弾です。<br>夜戦時において敵艦隊付近を照明し、味方艦隊の夜間攻撃を支援します(敵艦隊の夜間特殊攻撃発生も少し抑えることが可能です)。,0,0
102,102,水上偵察機,九八式水上偵察機(夜偵),5,7,16,10,12,1,0,0,0,0,1,0,3,0,1,0,0,,4,2,1,0,4,水雷戦隊旗艦用に開発された水上夜間偵察機です。<br>長時間の滞空性能を持つ黒く塗装された機体に、夜間索敵能力に優れた搭乗員が乗りこみます(条件が整えば夜戦を支援する「夜間触接」が発生する可能性があります)。,6,8
103,103,大口径主砲,試製35.6cm三連装砲,1,1,4,3,0,1,18,0,5,0,0,0,0,0,2,0,3,,5,0,11,18,0,高速戦艦に搭載するための新開発の試製戦艦主砲です。<br>「金剛」型高速戦艦の代替新建造艦のために計画されていた三連装の35.6cm砲で、大口径主砲よりはコンパクトで軽く、もちろん従来の35.6cm砲より火力及び命中率が大きく向上しています。高速戦艦の改装時に、ぜひ運用をお試しください！,0,0
104,104,大口径主砲,35.6cm連装砲(ダズル迷彩),1,1,4,3,0,1,15,0,5,0,0,1,0,0,1,0,3,,4,0,10,15,0,金剛型高速戦艦「榛名」の前部主砲の最終形態です。<br>あまり効果がなかったといわれていますが、縦縞ゼブラ模様のダズル迷彩を施しています。三式弾を装填して敵機が跳梁する空を睨み、母港呉と動けない残存艦隊の防戦に努めました。,0,0
105,105,大口径主砲,試製41cm三連装砲,1,1,4,3,0,1,22,0,5,0,0,0,0,0,2,0,3,,5,0,14,22,0,呉海軍工廠砲熕部で試作された純国産戦艦主砲の三連装砲です。<br>16インチを僅かに上回る、この41cm砲は「大和」型の46cm砲が登場するまで世界最大の戦艦砲でした。これを搭載した長門型戦艦は、当時世界列強の「ビッグ７」水準を遥かに超えた高火力と高命中精度を実現します。,0,0
106,106,小型電探,13号対空電探改,5,8,19,11,0,1,0,0,4,0,0,1,4,0,2,0,0,,4,0,0,10,11,艦載用対空電探の改良調整版です。<br>比較的信頼性も高く、小型軽量で駆逐艦等への装備も可能だった「13号対空電探」に、技術者達がさらに改良を加えた対空電探です。水雷戦隊の眼として活躍します。,0,0
107,107,司令部施設,艦隊司令部施設,12,22,44,30,0,1,0,0,1,0,0,1,1,0,1,0,0,,6,1,1,1,1,洋上において艦隊を指揮する前線司令部です。<br>司令部施設を開設できるある一定以上の大きさの艦に設営可能です。同司令部を旗艦に設営した艦隊は「連合艦隊」として出撃している際に、随伴艦隊の健在な駆逐艦を「損害の大きい艦」の護衛につけて、戦場から退避させることが可能です。,0,0
108,108,航空要員,熟練艦載機整備員,13,23,45,31,0,1,10,0,1,0,0,0,1,0,1,0,3,,4,1,10,1,10,艦載機の整備の卓越した能力を発揮できる整備要員です。<br>艦載機を装備した航空母艦に導入することで、同空母から発進する攻撃隊の能力を高めることが可能です。第一次攻撃隊のパンチ力不足を感じたら、お試しください！,0,0
109,109,艦上戦闘機,零戦52型丙(六〇一空),3,5,8,6,5,1,0,0,9,0,0,1,0,0,1,0,0,,4,1,2,0,3,零戦の最終的な量産型「零式艦上戦闘機52丙型」です。<br>武装及び防御力が強化されました。その分、若干機動性は失われています。本航空隊は同機材を装備して、再建を目指す空母機動部隊の制空戦闘を担います。,6,5
110,110,艦上戦闘機,烈風(六〇一空),3,5,8,6,6,1,0,0,11,0,0,2,0,0,1,0,0,,5,2,2,0,9,「零戦」の後継機として開発された最新鋭艦上戦闘機「烈風」。<br>用兵側の発動機選定ミスや多忙な現場設計陣などの苦境を越えて、ついに完成した新型艦戦。本航空隊は同新鋭機材を定数受領して、再建を目指す空母機動部隊、その戦闘機部隊の中核を担います。,5,7
111,111,艦上爆撃機,彗星(六〇一空),3,5,10,7,8,1,0,0,0,0,4,0,1,0,1,11,0,,4,2,3,0,3,「九九艦爆」の後継機として開発された高速艦爆「彗星」。<br>液冷発動機装備のため運用のやや難しい機体ですが、整備体制を万全に、内地で訓練を重ねた六〇一空の精鋭が搭乗します。機動部隊決戦に向けて、錬成を重ねた六〇一空の精鋭艦爆隊です。,5,5
112,112,艦上攻撃機,天山(六〇一空),3,5,12,8,1,1,0,10,0,0,4,0,2,0,1,0,0,,4,2,4,0,4,旧式化した「九七艦攻」の後継機として開発された、新鋭艦上攻撃機「天山」。<br>本部隊は、同機を装備して内地で錬成を重ねた六〇一空による精鋭艦攻機隊です。新生空母機動部隊の打撃力を担います。,5,6
113,113,艦上攻撃機,流星(六〇一空),3,5,12,8,2,1,0,13,2,0,5,0,3,0,1,0,0,,5,2,5,0,10,"艦攻と艦爆を統合した先進的な""急降下爆撃可能な雷撃機""、それが「流星」です。<br>発動機不調と重量過大に悩みながらも、開発に成功。高い性能を誇る最新鋭の艦上攻撃機です。錬成を重ねた六〇一空が機種転換し、本機を装備します。整備の行き届いた流星を定数装備した、新生艦攻隊の主力です。",6,7
114,114,大口径主砲,38cm SK C/34連装砲改,1,1,4,3,0,2,17,0,2,0,0,0,0,0,3,0,3,,3,0,12,18,0,ビスマルク級戦艦に搭載された戦艦主砲の改修型です。<br>短～中距離での砲撃戦を意識した高速戦艦の主力兵装で、改修によってその命中精度などが大きく向上しています。,0,0
115,115,水上偵察機,Ar196改,5,7,16,10,22,2,0,0,1,0,5,0,5,0,2,1,0,,3,1,2,0,2,ビスマルク級などの主力艦艇に搭載された艦載水上偵察機です。<br>偵察、観測、哨戒、そして対潜水艦任務など、南大西洋で幅広く活躍した同機の改修型で、艦隊の眼の役割を担います。,3,5
116,116,対艦強化弾,一式徹甲弾,4,25,30,13,0,1,9,0,0,0,0,0,0,0,2,0,0,,4,0,4,9,0,遠距離砲撃戦における秘密兵器「九一式徹甲弾」の改良版です。<br>海中突入後魚雷のように敵艦水線下に突き進み、喫水下破砕を企図した特殊徹甲弾です。九一式より性能・生産性が向上しており、弾頭部には弾着観測用着色剤を充填していたと云われています。戦艦・航空戦艦・高速戦艦で使用可能です。,0,0
117,117,大口径主砲,試製46cm連装砲,1,1,4,3,0,1,23,0,4,0,0,0,0,0,1,0,4,,5,1,18,23,0,海軍工廠砲熕部が極秘開発した世界最大最強の戦艦主砲、その試作二連装砲です。<br>敵戦艦に対してアウトレンジが可能な最大射程40kmを超える巨砲ですが、大和型戦艦に搭載された同三連装主砲より軽量です。主力戦艦群への搭載と同主兵装としての運用が可能です。,0,0
118,118,水上偵察機,紫雲,5,7,16,10,12,1,0,0,0,0,2,0,8,0,1,1,0,,5,1,1,0,15,制空権を失った空でも強行偵察が可能な高性能水偵を目指して開発された、十四試高速水上偵察機「紫雲」です。火星エンジンと二重反転プロペラの採用、投下可能フロート機構などで高速高性能な次世代艦載水偵となるはずでしたが、計画通りの高性能を発揮することは叶いませんでした。就役直後の軽巡「大淀」などで、増加試作機が運用されています。,4,9
119,119,中口径主砲,14cm連装砲,1,1,2,2,0,1,3,0,0,0,0,0,0,0,2,0,2,,2,0,2,2,0,巡洋艦等の主砲として開発された中距離砲の連装型です。<br>練習巡洋艦「香取」や軽巡洋艦「夕張」などに搭載されました。対艦対地用の兵装です。,0,0
120,120,高射装置,91式高射装置,14,24,46,32,0,1,0,0,2,0,0,1,0,0,0,0,0,,2,0,1,0,1,高角砲の対空射撃用の高射装置です。<br>高射機と高射射撃盤を組み合わせ、高角砲の有効な対空射撃をサポートします。やや、旧式ではありますが、主力の戦艦や巡洋艦などに搭載されました。,0,0
121,121,高射装置,94式高射装置,14,24,46,32,0,1,0,0,3,0,0,1,0,0,0,0,0,,3,0,1,0,2,比較的新しい高角砲対空射撃用の高射装置です。<br>本高射機は測距儀がパッケージされており、高角砲の有効な対空射撃をサポートします。新造大型艦や、防空駆逐艦 「秋月」 型に搭載されました。,0,0
122,122,小口径主砲,10cm連装高角砲+高射装置,1,1,1,18,0,1,3,0,10,0,0,1,0,0,1,0,1,,4,0,2,3,2,「長10cm砲」といわれる10cm連装高角砲と「94式高射装置」の組み合わせによる、艦隊防空システムです。量産性が低く、また射撃装置は列強の最新鋭には劣りますが、優秀な長10cm砲と高射装置の組み合わせは艦隊の傘として十分に活躍します。,0,0
123,123,中口径主砲,20.3cm SK C/34連装砲,1,1,3,2,0,2,10,0,2,0,0,0,0,0,3,0,2,,4,0,4,5,0,かの国の重巡洋艦装備用に開発された連装砲です。<br>高い命中率と火力を誇る優秀な巡洋艦主兵装です。<br>中距離の砲撃戦で威力を発揮します。,0,0
124,124,大型電探,FuMO25 レーダー,5,8,20,11,0,2,3,0,7,0,0,0,9,0,10,0,0,,5,0,0,27,29,かの国で開発された艦載用レーダー(電探)です。<br>科学の国の電子兵装、残念ながら、我が連合艦隊に装備された電探よりスペックは高いです。<br>主に巡洋艦以上の大型艦艇に搭載されました。,0,0
125,125,魚雷,61cm三連装(酸素)魚雷,2,3,7,5,0,1,0,8,0,1,0,1,0,0,0,0,1,,3,2,2,1,0,陳腐化した53cm魚雷の後継として開発された大型の61cm魚雷。<br>その三連装発射管は、駆逐艦の主力兵装として特型駆逐艦「吹雪」型などに搭載されました。その改良型である本兵装は、装填魚雷を「九三式酸素魚雷」に換装しています。,0,0
126,126,対地装備,WG42 (Wurfgerät 42),15,26,47,33,0,2,1,0,0,-1,0,0,0,0,0,0,1,,5,1,4,2,1,かの国で開発された対地対艦攻撃用の艦載ロケットランチャー装備「WG42」です。<br>Uボートにも搭載され、実際に運用されました。命中精度には難がありますが、ごく浅い深度なら水面下から発射可能な、潜水艦発射対地ミサイルのご先祖様のような装備で、主に対地攻撃に有効です。,0,0
127,127,潜水艦魚雷,試製FaT仕様九五式酸素魚雷改,2,3,42,5,0,1,0,14,0,0,0,2,0,0,7,0,1,,6,2,2,1,1,かの国で開発されていた、ジャイロ機構によって自動変針と直線航行を繰り返し行い、面で敵艦を攻撃する「FaT航走パターン」仕様を実装した試製潜水艦搭載用酸素魚雷です。Uボートによってもたらされた技術を応用した、平面を制圧する航路を疾走する特殊な試作魚雷です。,0,0
128,128,大口径主砲,試製51cm連装砲,1,1,5,3,0,1,30,0,5,0,0,-1,0,0,1,0,4,,6,0,30,28,0,改「大和」型、そしてその拡大発展級である超「大和」型の主兵装として開発されている新型戦艦用大口径主砲です。<br>51cm砲が実現する群を抜いたその火力は、他の戦艦主砲の火力を圧倒します。46cm砲をも凌駕する大きさと重量なため、戦艦級の中でも限られた艦艇のみ、本兵装を装備することが可能です。,0,0
129,129,水上艦要員,熟練見張員,16,27,48,34,0,1,0,0,1,0,0,3,2,0,2,0,0,,4,1,0,0,0,水上戦闘艦に配備可能な熟練見張員です。<br>その鍛え抜かれた肉眼視力による偵察力・索敵力は状況によっては大きな威力を発揮し、敵艦隊のレーダー兵装が充実するまでは、特に夜戦などで水上艦隊の攻撃力を支えました。,0,0
130,130,副砲,12.7cm高角砲+高射装置,1,2,6,18,0,1,1,0,8,0,0,1,0,0,1,0,1,,4,0,2,3,2,巡洋艦以上の大型艦の標準的な対空兵装として搭載された12.7cm連装高角砲と「94式高射装置」の組み合わせによる、艦隊防空システムです。発射速度や砲の旋回速度にやや難がありますが、高角砲と高射装置の組み合わせは艦隊の傘として重要な兵装です。,0,0
131,131,対空機銃,25mm三連装機銃 集中配備,4,6,32,17,0,1,0,0,9,0,0,1,0,0,0,0,0,,4,0,5,2,1,増大する敵航空兵力の脅威に対抗するため、25mm高角機銃の三連装型を集中的に複数配備した、ハリネズミのような対空機銃兵装です。命中精度にも難があり、すぐに砲身が過熱してしまう25mm機銃ですが、集中運用することで個艦防空能力を高めます。,0,0
132,132,大型ソナー,零式水中聴音機,7,10,23,20,0,1,0,0,0,0,11,1,1,0,1,0,0,,4,0,0,3,3,大型艦用パッシブソナー兵装です。<br>九三式水中聴音機の補音機を増強した大型グレードアップバージョンで、大和型戦艦のバルバス・バウ付近にも装備されました。専門の人員も配置して水面下の音を収集、敵潜などの早期発見に努めます。,0,0
133,133,大口径主砲,381mm/50三連装砲,1,1,4,3,0,3,20,0,2,0,0,-1,0,0,-3,0,4,,5,0,16,21,0,パスタの国が生んだ三連装型の戦艦主砲です。<br>高射速の50口径、中近距離戦闘での火力は同クラス最強です。また、射程も大和型46cm砲と同等以上のカタログスペックを誇ります。ただし、砲の耐久性に難点があります。また散布界が広く、その命中率にも課題を残していました。,0,0
134,134,副砲,152mm/55三連装速射砲,1,2,6,4,0,3,8,0,2,1,0,0,0,0,1,0,2,,4,0,2,5,0,パスタの国が生んだ、伝統と信頼の高性能中口径の三連装速射砲です。<br>砲の旋回や俯仰、砲弾の揚弾及び装填は主に電力で稼働する最新型です。新型高速戦艦の副砲にも採用されました。,0,0
135,135,副砲,90mm/50単装高角砲,1,2,6,18,0,3,1,0,8,0,0,0,0,0,1,0,1,,4,0,1,3,0,パスタの国が生んだ、新型高速戦艦向けに開発された最新鋭の高角砲です。<br>単砲身ではありますが、発射速度も速く、バランスのよい優れた中距離対空火器です。,0,0
136,136,追加装甲(大型),プリエーゼ式水中防御隔壁,6,17,27,25,0,3,0,0,0,7,0,-1,0,0,0,0,0,,4,0,0,24,4,シリンダータイプの隔壁による、艦幅も重量も増やさずに水中防御を向上させる大型艦艇の防御隔壁です。タラントでの戦訓から評価が分かれますが、一定の防御効果は期待できるといわれています。<br>(戦艦・巡洋戦艦・航空戦艦・正規空母(含む装甲空母)用),0,0
137,137,大口径主砲,381mm/50三連装砲改,1,1,4,3,0,3,21,0,4,0,0,-1,0,0,-1,0,4,,6,0,16,22,1,パスタの国が生んだ三連装型の戦艦主砲です。<br>高射速の50口径、中近距離戦闘での火力は同クラス最強です。また、射程も大和型46cm砲と同等以上のカタログスペックを誇ります。砲の耐久性や命中率に課題を残していましたが、改修によってその命中精度などが向上しています。,0,0
138,138,大型飛行艇,二式大艇,17,33,49,35,17,1,0,0,0,0,1,0,12,0,1,0,0,,5,9,2,0,26,四発の大型飛行艇「二式大型飛行艇」、通称「二式大艇」です。<br>巨大な翼と船のような構造を持つ機体で、長距離偵察や司令部要員の移動等に用いられました。同時代の世界水準を大きく超えた傑作機で、今の時代もその後継は空に海に活躍しています。,20,25
139,139,中口径主砲,15.2cm連装砲改,1,1,2,2,0,1,5,0,3,0,0,0,0,0,4,0,2,,4,0,2,3,1,阿賀野型軽巡シリーズの主兵装として開発された両用砲の改良改修型です。<br>対巡洋艦戦闘に重きをおいた新設計の軽巡主砲で、限定的ですが対空戦闘も可能です。改修により精度が若干向上しました。軽巡にフィットした新型の主砲兵装です。,0,0
140,140,大型探照灯,96式150cm探照灯,8,18,39,26,0,1,0,0,1,0,0,0,3,0,0,0,0,,4,0,0,1,3,戦艦装備用の大型探照灯です。<br>夜戦時に敵に照射することで味方艦隊の攻撃を支援できますが、照射艦は敵艦隊からの集中攻撃を浴びるリスクがあります。<br>(戦艦級のみが装備可能です),0,0
141,141,大型電探,32号対水上電探改,5,8,20,11,0,1,0,0,0,0,0,0,11,0,9,0,0,,5,0,0,22,26,高性能な大型対水上電探の調整改良型です。<br>遠距離射撃にも対応できるレーダー射撃管制も可能ですが、かなり大型かつ重量のある電探で大型艦しか装備できません。また、精度の高い調整と運用には練度の高い操作員が必要です。,0,0
142,142,大型電探,15m二重測距儀+21号電探改二,5,8,21,11,0,1,1,0,8,1,0,1,7,0,9,0,0,,5,0,0,26,28,大和型戦艦のために開発された射撃&電探兵装です。<br>特注の大型光学15m二重測距儀と、その上に熟練した技術者が調整を重ねた精度の高い21号対空電探を配しています。大型かつ重量もあるため、戦艦の艦橋上部構造物のみに装備可能な光学及び電波兵装です。,0,0
143,143,艦上攻撃機,九七式艦攻(村田隊),3,5,12,8,1,1,0,12,1,0,5,0,4,0,2,0,0,,5,1,1,0,2,優れた航続距離を誇り、初期の機動部隊艦載機の主力攻撃機として大活躍した傑作艦上攻撃機「九七艦攻」。同機を装備した本部隊は、高い技量と豊かな指導力を兼ね備えた村田隊長の率いる精鋭九七艦攻隊です。,4,5
144,144,艦上攻撃機,天山一二型(村田隊),3,5,12,8,1,1,0,15,1,0,6,0,4,0,2,0,0,,6,2,4,0,4,旧式化した「九七艦攻」の後継機として開発された、新鋭艦上攻撃機「天山」。同機を装備した本部隊は、高技量と豊かな指導力を兼ね備えた歴戦の空中指揮官が率いる、「天山」への機種転換が完了した精鋭艦攻隊です。,5,6
145,145,戦闘糧食,戦闘糧食,18,34,50,36,0,1,0,0,0,0,0,0,0,0,0,0,0,,2,1,0,0,0,腹が減ってはなんとやら……戦闘前にしっかりと腹ごしらえをしておきましょう。<br>海の上で食べる握り飯の味は格別です！<br>（発動すると消滅します）,0,0
146,146,補給物資,洋上補給,19,35,51,37,0,1,0,0,0,-2,0,0,0,0,0,0,0,,3,30,30,0,0,戦闘航海中の洋上で燃料弾薬を補給することが可能です。これを保持した状態で燃料弾薬が欠乏すると戦闘航海中に「洋上補給」が発動し、燃料弾薬が洋上で「補給」されます。長期戦となる艦隊決戦のサポートにご活用ください。<br>（発動すると消滅します）,0,0
147,147,小口径主砲,120mm/50連装砲,1,1,1,1,0,1,3,0,2,0,0,0,0,0,1,0,1,,2,0,1,2,0,パスタの国が生んだ連装の小艦艇用主砲兵装です。<br>口径は同クラスの日本海軍の主力駆逐艦の主砲より小さいものの、優れた機構と高いポテンシャルをもった新型小口径火砲です。,0,0
148,148,艦上爆撃機,試製南山,3,5,10,7,18,1,0,0,1,0,4,0,2,0,0,11,0,,6,4,5,0,15,水上機搭載可能な潜水艦による戦略的な運用を目指して開発された、急降下爆撃可能なハイスペック艦載攻撃機「晴嵐」。その陸上運用機バージョン「南山」に着艦フックを付与した試作航空母艦運用型(爆装)です。テスト機なので、派手なカラーリングとなっています。,5,9
149,149,ソナー,四式水中聴音機,7,10,22,20,0,1,0,0,0,0,12,0,0,0,1,0,0,,5,0,0,1,3,小型艦艇にも装備可能な、新型パッシブソナー兵装です。<br>九三式水中聴音機に比べて、その対潜発見能力は格段に向上しました。数は少ないですが、大戦末期に建造された後期型の駆逐艦などの対潜兵装として装備されました。,0,0
150,150,戦闘糧食,秋刀魚の缶詰,18,34,50,36,0,1,0,0,0,0,0,0,0,0,0,0,0,,3,1,0,0,1,旬の水揚げされたばかりの新鮮な秋刀魚を使った蒲焼の缶詰です。脂が乗った秋刀魚を炭火焼で丁寧に仕上げたその味は、そのままでも美味しいですが、おにぎりと一緒に食すれば美味しさ倍増です。(戦闘糧食と一緒に発動すると効果倍増です。発動すると消滅します),0,0
151,151,艦上偵察機,試製景雲(艦偵型),5,7,15,9,8,1,2,0,0,0,0,0,11,0,2,0,0,,6,4,0,0,14,空技廠が開発した最新鋭の高々度試作偵察機「景雲」。同機に艦載用の改修を行った艦上偵察機バージョンです。様々な新機軸を盛り込んだユニークな機体の「景雲」は、開発中のターボジェットエンジン「ネ330」を搭載して、新鋭噴進式攻撃機化する計画もありました。<br>(本機は新鋭正規空母の一部のみ運用可能です),8,12
152,152,艦上戦闘機,零式艦戦52型(熟練),3,5,8,6,5,1,0,0,9,0,0,2,1,0,1,0,0,,4,1,2,0,3,熟練搭乗員で構成された「零式艦上戦闘機52型」装備の艦戦隊です。<br>零戦の最終的な量産機となった「52型」は、後継機の開発が遅れたため、後期の艦上戦闘機の主力として奮戦することになりました。熟練搭乗員の巧みな操縦技術で、機材の質的劣勢をカバーします。,6,5
153,153,艦上戦闘機,零戦52型丙(付岩井小隊),3,5,8,6,5,1,0,0,10,0,0,2,1,0,1,0,0,,5,1,2,0,4,巧みな操縦技術を持つ岩井小隊長を擁する「零式艦上戦闘機52型丙」装備の艦戦隊です。「52型丙」では、敵新型機に対抗するため、火力及び防御力が強化されました。その分機動性は若干低下していますが、熟練搭乗員の巧みな操縦技術でカバーします。,6,5
154,154,艦上爆撃機,零戦62型(爆戦/岩井隊),3,5,10,7,5,1,0,0,7,0,3,2,1,0,1,4,0,,6,1,3,0,4,遂に飛行隊を預かることになった「ゼロファイターゴッド」岩井隊長率いる、「零式艦上戦闘機62型」装備の爆戦隊です。整備の行き届いた「62型」を駆り、高機動戦闘爆撃機として敵艦に爆弾を叩き付け、しかるのち制空戦闘に参加します。,5,5
155,155,艦上戦闘機,零戦21型(付岩本小隊),3,5,8,6,4,1,0,0,9,0,0,3,1,0,1,0,0,,4,1,2,0,2,圧倒的な空戦技量を誇る岩本小隊長を擁する「零式艦上戦闘機21型」装備の艦戦隊です。零戦の優れた格闘戦能力と長大な航続距離、そして搭乗員の高い技量で圧倒的な強さを誇ります。開戦から珊瑚海海戦まで「瑞鶴」の上空を護りました。,7,4
156,156,艦上戦闘機,零戦52型甲(付岩本小隊),3,5,8,6,5,1,0,0,11,0,0,3,1,0,1,0,0,,5,1,2,0,4,圧倒的な空戦技量を誇るエース、岩本小隊長を擁する「零式艦上戦闘機52型」装備の艦戦隊です。卓越した空戦技量で零戦の後期改良型を駆る「零戦虎徹」は、機体の質的優位性が失われても果敢に敵機に挑み、撃墜を重ねていきました。,6,5
157,157,艦上戦闘機,零式艦戦53型(岩本隊),3,5,8,6,5,1,0,0,12,0,0,4,3,0,2,0,0,,6,1,2,0,5,遂に飛行隊を預かることになった「零戦虎徹」岩本隊長率いる、「零式艦上戦闘機53型」装備の艦戦隊です。「52型」のエンジンと生存性を強化した性能向上型である「零戦53型」を駆り、熟練搭乗員を率いて戦いの空に駆け上がります。,6,6
158,158,艦上戦闘機,Bf109T改,3,5,8,6,22,2,1,0,8,0,0,4,0,0,0,0,0,,3,1,2,0,6,かの国で開発/量産された主力戦闘機Bf109シリーズ。<br>メッサーシュミットの名でも知られる、ヨーロッパの空で活躍した名機。本機はそのE型をベースにした艦上機バージョンのさらなる改修機です。防空戦闘で大きな能力を発揮します。,2,6
159,159,艦上戦闘機,Fw190T改,3,5,8,6,22,2,2,0,10,0,0,2,0,0,0,0,0,,5,2,3,0,8,かの国で開発/量産された強力で信頼性の高い戦闘機Fw190シリーズ。タンク博士の設計により誕生し、フォッケウルフの名で親しまれた名機です。本機はその後期型を改修した艦上機バージョンです。高い制空戦闘能力を発揮します。,3,6
160,160,副砲,10.5cm SK C/33連装砲,1,2,6,16,0,2,3,0,6,0,0,1,0,0,2,0,1,,4,0,2,4,0,かの国で開発された艦艇防空用の連装高角砲です。大型艦艇などに防空火器として装備されました。建造と工事中止を繰り返したあの航空母艦にも、左右舷側と飛行甲板への背負い式装備が計画されていました。,0,0
161,161,大口径主砲,16inch三連装砲 Mk.7,1,1,4,3,0,4,24,0,3,1,0,0,0,0,4,0,3,,6,0,20,22,2,Iowa級戦艦の主兵装として米国で開発された新型三連装主砲です。前級に搭載された主砲の改良型で、長砲身化などの改良によって威力がより向上しています。発展途上ではありましたが、レーダー連動の砲射撃指揮装置によるレーダー射撃も可能です。,0,0
162,162,中口径主砲,203mm/53連装砲,1,1,3,2,0,3,9,0,1,0,0,0,0,0,-2,0,3,,4,0,4,4,0,パスタの国で生まれた中口径主砲です。昼間砲撃戦で優位を確保すべく誕生したザラ級重巡の主兵装として採用されました。最大仰角で射撃では戦艦並の長射程距離を誇りましたが、構造上の問題でその精度と命中率には課題を抱えています。,0,0
163,163,水上偵察機,Ro.43水偵,5,7,16,10,23,3,1,0,1,0,2,1,4,0,2,0,0,,4,1,1,0,2,パスタの国で開発/運用された運動性に優れた複葉複座の水上偵察機です。同国の中型以上の主力水上艦艇に搭載されました。低速機であるものの、信頼性と優れた操縦性を持った水偵として、艦隊の目や連絡を務めます。単座の戦闘機バージョンも存在しました。,3,4
164,164,水上戦闘機,Ro.44水上戦闘機,5,36,18,44,23,3,0,0,2,0,1,2,2,0,1,0,0,,4,1,1,0,2,パスタの国で運用された信頼性と運動性に優れた複葉複座の水偵Ro.43を単座に改修した水上戦闘機です。低速なため戦闘機としては限界がありますが、貴重な洋上防空戦力として期待されました。量産数は控えめです。,3,4
165,165,水上戦闘機,二式水戦改,5,36,18,44,13,1,0,0,3,0,1,2,1,0,1,0,0,,3,1,1,0,4,新型水上戦闘機の実戦投入までの繋ぎとして、零式艦上戦闘機をベースに急遽開発/実戦投入された水上戦闘機です。カタパルトによる艦上運用を考慮した機材ではありませんでしたが、本機は機体及びフロート強度を改良強化して投入です。,4,5
166,166,上陸用舟艇,大発動艇(八九式中戦車&陸戦隊),8,14,35,22,0,1,0,0,0,0,0,0,0,0,0,0,0,,3,1,2,4,1,大発動艇、略して「大発」。旧式ではありますが量産型「大発」に積載可能な「八九式中戦車」と、重火器で武装した陸戦隊を搭載した、上陸作戦用の強襲揚陸バージョン(試製噴進砲もif装備)です。輸送任務ではなく、敵地への上陸作戦等に適しています。,0,0
167,167,特型内火艇,特二式内火艇,20,37,52,38,0,1,0,0,0,0,0,0,0,0,0,0,0,,4,1,2,3,2,島嶼への上陸作戦のために開発された水陸両用「特二式内火艇」、通称「カミ車」です。前後に着脱式のフロートを備え、機甲戦力として敵地への上陸作戦が可能です。輸送時の水密化構造が採用されており、潜水艦での運用も可能でした。,0,0
168,168,陸上攻撃機,九六式陸攻,21,38,53,39,15,1,0,8,1,0,2,0,2,0,0,10,0,,2,7,4,0,12,陸上航空基地に展開、対艦攻撃などを主任務とした陸上攻撃機です。大きな航続距離を持ち、対艦はもちろん対地攻撃も可能な本機は、中攻とも呼ばれ、初期の海軍基地航空戦力の基幹兵力を構成しました。本機の後継機が、あの有名な「一式陸攻」です。,8,10
169,169,陸上攻撃機,一式陸攻,21,38,53,39,15,1,0,10,2,0,2,0,3,0,0,12,0,,3,8,5,0,13,陸上航空基地より発進、敵艦船への対艦攻撃及び敵飛行場等への対地攻撃などを行った海軍の主力陸上攻撃機です。戦場の制空権を失った大戦後期は大きな犠牲を払いましたが、本機「一式陸攻」は、まぎれもない海軍基地航空打撃力の中核として奮戦しました。,9,12
170,170,陸上攻撃機,一式陸攻(野中隊),21,38,53,39,15,1,0,12,3,0,2,0,4,0,1,13,0,,5,8,5,0,14,歴戦の中攻乗りの空中指揮官、野中飛行長の率いる精鋭「一式陸攻」隊です。<br>新鋭の「一式陸攻」を装備し、士気の高い「野中一家」の搭乗員たちと共に、通常攻撃で対艦・対地攻撃に出撃します。,9,12
171,171,水上偵察機,OS2U,5,7,16,10,24,4,0,0,1,0,1,1,6,0,2,1,0,,4,2,1,0,2,Vought社が開発した艦載観測機です。水上機タイプの本機は、米海軍の水上艦に搭載され、Iowa級をはじめ、戦艦や巡洋艦等の目として索敵等に運用されました。,3,6
172,172,副砲,5inch連装砲 Mk.28 mod.2,1,2,6,18,0,4,4,0,9,1,0,1,0,0,2,0,1,,5,0,3,4,2,米国で開発・運用された優秀な小口径両用砲の改良型です。<br>本装備は連装タイプの両用砲で、大型艦の対空火力としても運用されました。バランスに優れた新型両用砲です。,0,0
173,173,対空機銃,Bofors 40mm四連装機関砲,4,6,32,17,0,4,1,0,10,1,0,2,0,0,1,0,0,,5,0,6,1,3,北欧生まれの世界的ベストセラーの40mm対空機関砲、その艦載四連装バージョンです。ベースとなった傑作機関砲は、彼我含めて多くの国々に採用されました。優れた中～近距離近接対空火器として、米英海軍艦艇にも装備されました。,0,0
174,174,魚雷,53cm連装魚雷,2,3,7,5,0,1,0,3,0,0,0,2,0,0,0,0,1,,2,1,1,1,0,旧式の53cm魚雷の連装発射管です。新型の61cm酸素魚雷と比較すると、射程・威力共に陳腐化は否めませんが、近距離魚雷戦ではまだまだ現役です。やや旧式の艦隊型駆逐艦「神風」型などに装備されました。,0,0
175,175,局地戦闘機,雷電,22,39,54,40,16,1,0,0,6,0,0,2,0,0,5,0,0,,5,3,2,0,7,「十四試局地戦闘機」として開発された、対爆撃機要撃に特化した迎撃戦闘機「雷電」です。零戦などの艦上戦闘機「甲戦」に対して、局地戦闘機「乙戦」として開発・運用されました。格闘戦向きではありませんが、優れた上昇力と大火力を備えています。,2,6
176,176,局地戦闘機,三式戦 飛燕,22,39,54,45,16,1,0,0,8,0,0,3,0,0,1,0,0,,4,1,2,0,6,かの国で開発された液冷エンジンを参考に開発された、液冷エンジンを装備した陸軍戦闘機、三式戦「飛燕」です。残念ながら信頼性に難があり、その実力を十分に発揮できませんでしたが、万全な状態であれば高い潜在力を持っています。,3,7
177,177,局地戦闘機,三式戦 飛燕(飛行第244戦隊),22,39,54,45,16,1,0,0,9,0,0,4,0,0,3,0,0,,6,1,2,0,6,三式戦「飛燕」を駆り、東京調布に展開して首都防空に奮戦した陸軍戦闘機隊、飛行第244戦隊です。戦いの最終局面では、「飛燕」を空冷化した信頼性の高い「五式戦」に機種転換し、敵新型機に対抗していきます。,4,7
178,178,大型飛行艇,PBY-5A Catalina,17,33,49,35,17,4,0,0,0,0,2,0,9,0,2,0,0,,5,8,2,0,18,「カタリナ」の愛称で親しまれた傑作飛行艇です。<br>信頼性の高い水陸両用機で、哨戒から救難まで幅広く運用されました。戦後も活躍した傑作機のひとつです。,10,13
179,179,魚雷,試製61cm六連装(酸素)魚雷,2,3,7,5,0,1,0,14,0,0,0,0,0,0,2,0,1,,5,2,4,2,0,大威力長射程を誇る、秘密兵器「九三式酸素魚雷」。<br>その必殺の酸素魚雷を最大限に詰め込み、一基で旧型駆逐艦一隻分以上の雷装火力を持つ試作六連装【酸素魚雷】発射管です。<br>後期の新型駆逐艦に搭載する計画もありました。,0,0
180,180,陸上攻撃機,一式陸攻 二二型甲,21,38,53,39,15,1,0,11,3,0,2,0,4,0,0,12,0,,4,8,5,0,14,陸上航空基地より発進、敵艦船への対艦攻撃及び敵飛行場等への対地攻撃などを行った海軍の主力陸上攻撃機「一式陸攻」、その性能向上型です。機体の一部を再設計改修、さらに機体上部の旋回機銃と機体側面機銃を強化、性能は限定的ではありましたが機上電探も搭載しました。,10,12
181,181,艦上戦闘機,零式艦戦32型,3,5,8,6,4,1,0,0,5,0,0,2,0,0,0,0,0,,2,1,2,0,2,名機零式艦戦21型の性能向上型、「零式艦上戦闘機32型」です。<br>翼端を角型に変更、エンジン換装により出力向上を図りました。また、搭載機銃の弾数も増やしています。航続距離など不利な点もありましたが、ラバウル航空隊やブイン、そしてソロモン上空の戦いに参加しました。,5,4
182,182,艦上戦闘機,零式艦戦32型(熟練),3,5,8,6,4,1,0,0,8,0,0,4,0,0,1,0,0,,4,1,2,0,2,熟練搭乗員で構成された「零式艦上戦闘機32型」装備の艦戦隊です。<br>翼端を切り落としたスタイルの21型の性能向上型「32型」は、航続距離などに課題もありましたが、精鋭の熟練搭乗員が駆る同機は、ラバウル、そしてソロモン上空の激戦を支えました。,5,4
183,183,大口径主砲,16inch三連装砲 Mk.7+GFCS,1,1,4,3,0,4,24,0,3,1,0,1,0,0,7,0,3,,7,0,20,22,18,Iowa級戦艦の主兵装として米国で開発された強力な新型三連装主砲と、その改良された射撃管制システムです。現在のFCSの先祖ともいえる射撃レーダーと砲射撃指揮装置によるシステムを有しており、その高火力と共に高い射撃精度が期待できます。,0,0
184,184,艦上戦闘機,Re.2001 OR改,3,5,8,6,23,3,3,0,6,0,0,2,0,0,0,0,0,,3,1,2,0,6,パスタの国で開発/配備された液冷エンジン装備の戦闘機の艦載型です。<br>同国の建造していた航空母艦への搭載が計画されていました。,4,6
185,185,局地戦闘機,三式戦 飛燕一型丁,22,39,54,45,16,1,0,0,9,0,0,3,0,0,2,0,0,,5,1,2,0,6,かの国で開発された液冷エンジンを参考に開発された、液冷エンジンを装備した陸軍戦闘機、三式戦「飛燕」、その性能向上型です。エンジンの信頼性に課題を残していますが、武装等を強化、総合的に戦闘力は向上しています。万全な整備状態であれば高い戦闘力を発揮します。,4,7
186,186,陸上攻撃機,一式陸攻 三四型,21,38,53,39,15,1,0,11,4,0,2,0,4,0,1,12,0,,5,8,6,0,15,陸上航空基地より発進、敵艦船への対艦攻撃及び敵飛行場等への対地攻撃などを行った海軍の主力陸上攻撃機「一式陸攻」のさらなる性能向上型です。尾翼形状などを再設計改修、また脆弱性の原因となっていた燃料タンク問題改善にも着手した改良後期型の一式陸攻です。,8,12
187,187,陸上攻撃機,銀河,21,38,53,39,15,1,0,14,3,0,3,0,3,0,1,14,0,,5,9,6,0,17,海軍の主力陸上攻撃機「一式陸攻」の後継機として開発された陸上発進の攻撃機です。優れた機体設計により、高い性能を秘めていました。戦力化された時期が遅かったことや複雑すぎる構造に問題もありましたが、最後まで戦い抜きました。一部は夜間戦闘機に転用されました。,9,13
188,188,艦上攻撃機,Re.2001 G改,3,5,12,8,23,3,3,4,4,0,0,2,0,0,0,0,0,,5,1,3,0,6,パスタの国で開発/配備された液冷エンジン装備の戦闘機の……航空魚雷装備型です。<br>魚雷投下後は制空戦闘で活躍……することもできるかも。艦攻と艦戦の中間的な機体です。,3,6
189,189,艦上戦闘機,Re.2005 改,3,5,8,6,23,3,1,0,11,0,0,3,0,0,0,0,0,,6,2,3,0,10,パスタの国で戦いの後期に開発が進められていた高性能戦闘機です。<br>量産戦力化されることは叶いませんでしたが、高い潜在力を持ち、優れた戦闘力が期待されました。本機はその艦載機バージョンです。,3,6
190,190,大口径主砲,15inch Mk.I連装砲,1,1,4,3,0,5,18,0,1,0,0,0,0,0,1,0,3,,4,0,11,18,0,紅茶の国の戦艦主兵装用に開発された連装大口径主砲です。<br>同国ならでは堅実な作りの主砲ですが、後期にはレーダーシステムの連動した射撃管制装置も開発されました。,0,0
191,191,対空機銃,QF 2ポンド8連装ポンポン砲,4,6,32,17,0,5,1,0,10,0,0,0,0,0,0,0,0,,4,0,6,1,2,紅茶の国の大型艦などに搭載された対空火器で、その個性ある射撃音から通称ポンポン砲と呼ばれました。<br>本装備はその8連装バージョンです。運用性に難があり、故障も多いものの、大火力&有名な近接対空火器です。,0,0
192,192,大口径主砲,15inch Mk.I/N連装砲改,1,1,4,3,0,5,19,0,3,0,0,0,0,0,2,0,3,,5,0,12,19,2,紅茶の国で戦艦主兵装用に開発された連装大口径主砲です。<br>堅実な作りの傑作砲に対して最大仰角を上げる等の近代化改修を行いました。熟成した戦艦主砲の改良版です。,0,0
193,193,上陸用舟艇,特大発動艇,8,14,35,22,0,1,0,0,0,0,0,0,0,0,0,0,0,,3,2,2,0,1,特大発動艇、略して「特大発」。<br>輸送船からの揚陸作業や上陸戦に用いる数多く量産された上陸用舟艇、「大発」。この海上のトラック「大発」を新型中戦車搭載等に対応するためより大型化、搭載力が向上しています。,0,0
194,194,水上爆撃機,Laté 298B,5,43,17,10,25,6,2,4,1,0,2,1,4,0,0,5,0,,4,2,4,0,5,トリコロールの国で開発された水上攻撃機です。<br>日本海軍ではあまり研究されなかった、水上雷撃機としての運用を狙った機体でもあります。本機は同機の水上機母艦艦載機バージョンで、索敵や爆装攻撃を含むマルチロールが期待されていました。,4,7
195,195,艦上爆撃機,SBD,3,5,10,7,24,4,1,0,2,0,3,2,2,0,1,6,0,,3,1,3,0,2,シンプルかつ頑丈な作りの傑作急降下爆撃機です。<br>大戦初期の機体でありながら、旧式化したあとも長く使われました。ドーントレスの愛称で呼ばれた本機は、練度の高いパイロットであれば、ある程度の対空戦闘も可能でした。,4,5
196,196,艦上攻撃機,TBD,3,5,12,8,24,4,1,5,0,0,4,0,2,0,0,0,0,,3,1,4,0,3,九七艦攻のライバルともいえる艦上攻撃機です。<br>速度が遅く、大戦初期の機体で激戦の中でも陳腐化しつつありましたが、その必死の戦いは大きな戦いの勝機をもたらしました。,4,6
197,197,艦上戦闘機,F4F-3,3,5,8,6,24,4,1,0,4,0,0,2,0,0,0,0,0,,3,1,2,0,2,大戦初期の太平洋上で零戦としのぎを削った名艦上戦闘機、その初期部隊配備型です。<br>ワイルドキャットとよばれたF4Fシリーズは、格闘戦闘で劣る零戦隊を相手に果敢に戦いました。,4,5
198,198,艦上戦闘機,F4F-4,3,5,8,6,24,4,1,0,5,0,0,2,1,0,1,0,0,,4,1,3,0,2,大戦初期の太平洋上で零戦としのぎを削った名艦上戦闘機、その改良型です。<br>ワイルドキャットとよばれたF4Fシリーズは、格闘戦闘で劣る零戦隊を相手に果敢に戦いました。本機は火力を強化し、空母艦載に最適化したF4Fの完成形といえるバージョンです。,4,6
199,199,噴式戦闘爆撃機,噴式景雲改,3,40,58,41,19,1,0,0,6,0,0,0,3,0,1,15,3,,6,7,5,12,16,空技廠が開発した最新鋭の高々度試作偵察機「景雲」。新機軸を盛り込んだユニークかつ大型の試作偵察機「景雲」にターボジェット「ネ式エンジン」を搭載、噴式戦闘爆撃機化したのが本機「噴式景雲改」です。※基地航空隊及び装甲甲板＆甲板カタパルトを装備する一部正規空母のみ運用可能です。運用時には鋼材を消費します。,3,14
200,200,噴式戦闘爆撃機,橘花改,3,40,58,41,19,1,0,0,12,0,0,1,0,0,0,11,3,,6,6,4,10,14,潜水艦派遣作戦によりもたらされた海外で実用化されたターボジェット戦闘機の一部の設計図などを参考に開発された国産ジェット戦闘攻撃機です。本機「橘花改」は、爆装及び機首に30mm機銃を2門装備した戦闘爆撃機型として戦力化を図ります。※基地航空隊及び装甲甲板＆甲板カタパルトを装備する一部正規空母のみ運用可能です。運用時には鋼材を消費します。,2,13
203,203,追加装甲(中型),艦本新設計 増設バルジ(中型艦),6,17,26,25,0,1,0,0,0,8,0,-1,0,0,0,0,0,,4,0,0,24,2,新設計された艦艇の防御力を強化する増加装甲の一種です。重巡洋艦以上の中型艦艇の船体側面への増設により防御力を高めることが可能です。<br>(重巡洋艦級・軽空母級・水上機母艦及び特定艦艇に適用可能です),0,0
204,204,追加装甲(大型),艦本新設計 増設バルジ(大型艦),6,17,27,25,0,1,0,0,0,10,0,-2,0,0,0,0,0,,4,0,0,30,3,艦政本部によって新設計された、大型艦艇の防御力を強化する増加装甲の一種です。戦艦・正規空母等の大型艦艇への増設により防御力を高めることが可能です。<br>(戦艦級・正規空母級に適用可能です),0,0
205,205,艦上戦闘機,F6F-3,3,5,8,6,24,4,1,0,8,0,0,2,1,0,1,0,0,,5,1,2,0,3,大戦初期の太平洋上で零戦としのぎを削った米海軍艦上戦闘機F4Fシリーズの後継機、F6Fシリーズの初期量産型です。<br>大出力エンジンを装備した強力な主力艦上戦闘機として、零戦を徐々に圧倒していきました。,5,8
207,207,水上爆撃機,瑞雲(六三一空),5,43,17,10,18,1,0,0,1,0,2,0,4,0,2,7,0,,4,2,3,0,5,急降下爆撃も可能な多用途水上偵察機「瑞雲」。<br>高価かつ高性能潜水艦搭載攻撃機「晴嵐」を運用する潜水艦部隊の航空隊として編成された第六三一海軍航空隊。その六三一空の「瑞雲」による練成部隊です。,5,6
208,208,水上爆撃機,晴嵐(六三一空),5,43,17,10,12,1,0,0,0,0,3,0,6,0,2,12,0,,6,4,5,0,20,カタパルト射出可能な高性能攻撃機「晴嵐」で編成された実戦部隊です。<br>潜水空母による戦略的な運用を目指して開発された、高い攻撃力を秘めたハイスペックな潜水艦搭載水上攻撃機「晴嵐」。同機を集中配備した潜水艦隊部隊運用航空隊「六三一空」の実戦部隊。ぜひ正攻法で活躍させたいところです！,4,10
209,209,輸送機材,彩雲(輸送用分解済),23,41,55,42,0,1,0,0,0,0,0,0,0,0,0,0,0,,4,2,0,0,11,「我ニ追イツク敵機無シ」有名な無電を発した俊足の艦上偵察機「彩雲」。<br>敵戦闘機の追随を許さない高速性能を誇る、高性能な艦上偵察機です。悪化した戦況の中、敵情偵察に海上へと飛び立ちました。その「彩雲」を航空機格納庫を持つ潜水艦空母に格納して輸送できるように分解しました。,0,0
210,210,潜水艦装備,潜水艦搭載電探&水防式望遠鏡,24,42,56,43,0,1,1,0,1,0,0,8,4,0,2,0,0,,3,0,0,12,13,潜水艦に搭載する、索敵及び水上偵察用装備です。<br>艦橋上部に集中装備する多数の優れた水防式望遠鏡と水上電探及び対空電探群によって、脅威の早期発見に努めます。,0,0
211,211,潜水艦装備,潜水艦搭載電探&逆探(E27),24,42,56,43,0,1,1,0,1,0,0,11,5,0,3,0,0,,5,0,0,13,15,潜水艦に搭載する、索敵及び水上偵察用装備です。<br>艦橋上部に集中装備する多数の優れた水防式望遠鏡と水上電探及び対空電探群、さらに有用性の高い電探(E27)によって、脅威や目標の早期発見に努めます。,0,0
212,212,艦上偵察機,彩雲(東カロリン空),5,7,14,9,9,1,1,0,0,0,0,0,10,0,2,0,0,,5,2,0,0,11,「我ニ追イツク敵機無シ」有名な無電を発した俊足の艦上偵察機「彩雲」。<br>敵戦闘機の追随を許さない高速性能を誇る、高性能な艦上偵察機です。伊号潜水艦による「光」作戦でトラック基地に輸送された「彩雲」。東カロリン空の「彩雲」隊は、ウルシー環礁泊地の偵察に活躍します。,8,9
213,213,潜水艦魚雷,後期型艦首魚雷(6門),2,3,42,5,0,1,0,15,0,0,0,1,0,0,3,0,1,,4,2,3,2,1,潜水艦の艦首に装備する潜水艦専用兵装の改良後期型です。<br>水上艦艇に搭載するものよりやや直径の小さい長射程高威力を誇る必殺の酸素魚雷、その無気泡発射管の改良後期型艦首6門です。高い魚雷火力を潜水艦に付与します。,0,0
214,214,潜水艦魚雷,熟練聴音員+後期型艦首魚雷(6門),2,3,42,5,0,1,0,15,0,0,0,4,1,0,5,0,1,,5,2,3,2,2,潜水艦の艦首に装備する潜水艦専用兵装の改良後期型です。<br>水上艦搭載のものよりやや直径の小さい、必殺の潜水艦搭載酸素魚雷。その無気泡発射管の改良後期型艦首6門と熟練の高いソナー員達の組み合わせは、高い攻撃力と生存性を潜水艦に付与します。,0,0
215,215,水上戦闘機,Ro.44水上戦闘機bis,5,36,18,44,23,3,0,0,3,0,1,2,3,0,2,0,0,,5,1,1,0,2,パスタの国で運用された信頼性と運動性に優れた複葉複座の水偵Ro.43を単座に改修した水上戦闘機です。低速なため戦闘機としては限界がありますが、貴重な洋上防空戦力として期待されました。本機は戦訓をフィードバックした同改修機です。,3,4
216,216,水上戦闘機,二式水戦改(熟練),5,36,18,44,13,1,0,0,5,0,1,2,1,0,1,0,0,,5,1,1,0,4,熟練搭乗員によって編成された「二式水戦」装備の水戦隊です。新型水上戦闘機「強風」実戦投入までの繋ぎとして、零式艦上戦闘機をベースに急遽開発/実戦投入された水上戦闘機、二式水戦。元々は艦上運用を考慮した機材ではありませんでしたが、機体及びフロート強度を改良強化して投入です。,4,5
217,217,水上戦闘機,強風改,5,36,18,44,14,1,0,0,5,0,0,3,1,0,0,0,0,,4,1,1,0,6,現代にも系譜を繋ぐ水上機の名門が開発を手掛けた、空戦に特化した水上機「強風」。難航する本機開発の繋ぎとして投入された二式水戦の後継として、その登場が期待されました。期待された性能を発揮することはできませんでしたが、本機をベースに開発された「紫電改」は本土防空等に奮戦します。機体を熟成、各強度を改良強化した「強風改」として登場です！,3,6
219,219,艦上爆撃機,零式艦戦63型(爆戦),3,5,10,7,5,1,0,0,5,0,2,0,0,0,0,5,0,,4,1,4,0,4,零式艦上戦闘機の戦闘爆撃機仕様、通称「爆戦」の改良後期型です。改良型エンジンに換装、燃料タンクを防弾仕様化した零戦の性能向上型、53型。その胴体下に250kgまたは500kg爆弾懸吊架を増設、爆撃機動に耐えられるよう、一部機体強度も強化しています。重巡改装の攻撃型軽空母などで、ぜひ機動部隊運用を！,4,6
220,220,副砲,8cm高角砲改+増設機銃,1,2,6,18,0,1,1,0,7,0,0,1,0,0,2,0,1,,5,0,2,3,2,新開発の長8cm高角砲の改良型です。<br>秋月型に装備された長10cm高角砲の小型軽量化を図った対空用副砲バージョンです。微妙な出来という評価もありますが、新型艦艇装備の防空兵装として期待されていました。本装備は小型軽量に特徴のある超8cm砲を熟成した改良型と単装機銃集中配備の組み合わせによる対空兵装パッケージです。,0,0
221,221,局地戦闘機,一式戦 隼II型,22,39,54,45,21,1,0,0,6,0,0,2,0,0,0,0,0,,3,1,1,0,3,最も量産された陸軍主力戦闘機、一式戦「隼」、<br>その改良二型です。<br>零式艦戦とよく似た機体ですが、防弾性にも留意したその機体はやや旧式ながら各戦線で戦いの最後まで奮戦を続けました。,6,4
222,222,局地戦闘機,一式戦 隼III型甲,22,39,54,45,21,1,1,0,7,0,0,3,0,0,1,0,0,,4,1,1,0,4,最も量産された陸軍主力戦闘機、一式戦「隼」、<br>その最終量産型です。<br>機体の基本設計自体は旧式となりつつありましたが、エンジン等を強化した本機は各戦線で戦いの最終局面まで奮闘を続けました。,6,4
223,223,局地戦闘機,一式戦 隼III型甲(54戦隊),22,39,54,45,21,1,2,0,8,0,0,3,1,0,1,0,0,,5,1,1,0,4,陸軍主力戦闘機、一式戦「隼」を装備する飛行戦隊です。<br>折り鶴の部隊マークの同戦隊は、北海道や北方千島方面などにも展開しました。北千島派遣隊の隼は、占守島の戦いでも奮戦します。,7,4
224,224,局地戦闘機,爆装一式戦 隼III型改(55戦隊),22,39,54,45,21,1,3,0,6,0,0,2,1,0,3,8,0,,5,1,3,0,5,陸軍主力戦闘機、一式戦「隼」、その爆装機を装備する飛行戦隊です。<br>電波欺瞞紙、現代でいうチャフを装備した爆装一式戦などを駆使して、苦しい戦局の中、通常戦闘で奮戦しました。,5,4
225,225,局地戦闘機,一式戦 隼II型(64戦隊),22,39,54,45,21,1,1,0,11,0,0,5,1,0,1,0,0,,6,1,2,0,3,陸軍主力戦闘機、一式戦「隼」を装備する飛行戦隊です。<br>加藤隼戦闘隊とも呼ばれました。<br>加藤名隊長の育てた同戦隊は緒戦の大活躍の後、南方作戦やビルマ方面で苦しい戦局の中奮戦を続け、最後まで隼と共に戦い抜きます。,7,4
226,226,爆雷,九五式爆雷,7,32,24,19,0,1,0,0,0,0,4,0,0,0,0,0,0,,2,1,2,0,1,対潜水艦に使用する増加爆雷装備です。<br>駆逐艦や海防艦などに爆雷投射機やソナー類などの対潜装備ともに装備することで、対潜能力の向上が図れます。,0,0
227,227,爆雷,二式爆雷,7,32,24,19,0,1,0,0,0,0,7,0,0,0,0,0,0,,3,1,3,0,1,対潜水艦に使用する増加爆雷装備です。爆雷は戦訓を踏まえ、改良されています。<br>駆逐艦や海防艦などに爆雷投射機やソナー類などの対潜装備ともに装備することで、対潜能力の向上が図れます。,0,0
228,228,艦上戦闘機,九六式艦戦改,3,5,8,6,3,1,0,0,4,0,0,1,0,0,0,0,0,,2,1,1,0,2,旧式の艦上戦闘機の性能向上タイプです。零戦より前に実戦配備されていた旧型機ですが、優れた格闘戦能力を持っています。<br>武装や速度の点で既に二線級ではありますが、防空戦闘には活用可能です。,4,3
229,229,小口径主砲,12.7cm単装高角砲(後期型),1,1,1,16,0,1,1,0,4,0,1,1,0,0,1,0,1,,2,0,1,2,0,駆逐艦や海防艦などに装備された両用砲です。<br>特筆する高い性能を誇るわけではありませんが、対艦、対地、対空、いずれの戦闘も可能なある程度実用的な両用砲として、後期の小型戦闘艦艇に装備されました。,0,0
230,230,上陸用舟艇,特大発動艇+戦車第11連隊,8,14,35,22,0,1,0,0,0,0,0,0,0,0,0,0,0,,5,2,4,5,1,終戦時、北千島最北端、占守島に布陣していた精鋭、戦車第11連隊。<br>「士魂」部隊とも云われた同精鋭部隊を特大発動艇で輸送、海上機動及び上陸戦闘運用が可能です。,0,0
231,231,大口径主砲,30.5cm/52三連装砲,1,1,4,3,0,7,16,0,0,1,0,0,0,0,1,0,3,,3,0,8,12,0,北の国の戦艦主砲です。<br>戦艦の主砲としては、超弩級戦艦の時代にはスケール的に時代遅れの感もありましたが、三連装主砲として当時新鋭の弩級戦艦に装備されました。,0,0
232,232,大口径主砲,30.5cm/52三連装砲改,1,1,4,3,0,7,17,0,3,1,0,1,0,0,3,0,3,,4,0,9,13,3,北の国の戦艦主砲です。<br>戦艦の主砲としては、超弩級戦艦の時代にはスケール的に時代遅れの感もありましたが、三連装主砲として当時新鋭の弩級戦艦に装備されました。本兵装は同砲を改修した、近代化改装した北の国の戦艦のための改良型装備です。,0,0
236,236,大口径主砲,41cm三連装砲改,1,1,4,3,0,1,22,0,6,1,0,0,0,0,4,0,3,,6,0,18,23,4,呉海軍工廠砲熕部で試作された純国産戦艦主砲の三連装砲、その改修改良型です。<br>if兵装ではありますが、各部及び射撃装置を熟成改良し、砲弾誘爆防止措置も考慮した同砲を装備した改長門型戦艦は、<br>当時世界列強の「ビッグ７」水準を遥かに凌駕した攻防のバランスと高い砲撃精度を実現します。,0,0
1001,1001,戦闘糧食,一包辣条,18,34,50,36,0,8,1,0,0,0,0,0,0,0,0,0,0,,1,2,3,3,3,你的辣条在我手上，再装比我就撕开。,0,0
1002,1002,小口径主砲,15cm TbtsK C/36单装炮,1,1,1,1,0,2,2,0,1,0,0,0,0,0,2,0,2,,2,0,1,1,0,该炮装备了从战巡到驱逐舰的各种舰只，火炮本身弹道性能还算不错，但设计年代较早，作为大型军舰副炮已经不太适应战争环境，用于驱逐舰时又略显笨重。,0,0
1003,1003,副砲,4inch Mk.XVI联装炮,1,2,6,16,0,5,1,0,4,0,0,0,0,0,0,0,1,,2,0,1,1,0,MK.XVI双联4英寸（102毫米）炮是英国战争期间应用最为广泛的高平两用炮，英国及其盟友大量装备使用。尽管性能一般而且自动化程度不高，但是胜在数量足够且可靠耐用。,0,0
1004,1004,小口径主砲,4.7inch Mk.XII联装炮,1,1,1,16,0,5,2,0,4,0,0,1,0,0,1,0,1,,2,0,1,2,0,相比之前的同口径型号，MK.XI型双联4.7英寸（120毫米）炮是真正具备对空能力的高平两用驱逐舰主炮。MK.XI型装备了L级和M级驱逐舰，由于产量问题，该炮实际装备的并不多。,0,0
1005,1005,小口径主砲,5inch联装炮 Mk.38 mod.0,1,1,1,16,0,4,4,0,7,0,0,0,0,0,0,0,1,,4,0,1,3,0,MK.28-30型双联5英寸（127毫米）炮是美国单127炮的双联版本，这种炮使用也非常广泛：战列舰和巡洋舰的副炮，基林级驱逐舰的主炮，该炮同样也有单装型号俯仰快，射速高的优点。MK.38和各种亚型是美军防空火力网的重要部分，在舰队防空中负责中远距离，当然该炮的对海火力也很凶猛。,0,0
1006,1006,小口径主砲,5inch单装炮 Mk.30 mod.0,1,1,1,16,0,4,2,0,4,0,0,0,0,0,0,0,1,,3,0,1,2,0,MK.12单装5英寸（127毫米）炮是一款经典的火炮，使用时间和用户都非常广泛，常见于美国驱逐舰。该炮为便于对空，俯仰和很多操作是自动化的，射速也较高，在搭配VT（无线电近炸）引信后，更是防空利器。同时对海时也有很高射速。,0,0
1007,1007,小口径主砲,138mm M1929单装炮,1,1,1,1,0,6,2,0,0,0,0,0,0,0,1,0,1,,2,0,1,2,0,M1927型138毫米炮部分技术来源于一战德国，该炮装备了不少法国驱逐舰，空想级则使用的是在M1927基础上加长了炮管的M1929型，初速和射程更远。,0,0
1008,1008,小口径主砲,13cm/50单装炮,1,1,1,1,0,7,2,0,0,0,0,0,0,0,0,0,1,,1,0,2,1,0,B-13型火炮是苏联30年代为驱逐舰研制的主炮，比之前的102毫米炮威力大上不少。除了作为海军炮，因为性能不错，130毫米炮还作为坦克炮使用。,0,0
1009,1009,中口径主砲,15cm SK C/25三联装炮,1,1,2,2,0,2,5,0,0,0,0,0,0,0,2,0,2,,2,0,3,4,0,德国在巡洋舰上使用的SKC/25三联150毫米炮比别的150炮身管更长，为60倍径。这是德国在20年代为柯尼斯堡级研制的新主炮，同时之后的德国轻巡洋舰也沿用了这种主炮。,0,0
1010,1010,副砲,5.25inch Mk.I 联装炮,1,2,6,18,0,5,3,0,5,0,0,0,0,0,0,0,2,,4,0,2,2,0,英国于30年代设计的5.25英寸对舰、对空两用炮，封闭炮室提供了良好的保护，不过设计局促对填装作业有一定影响，早期型的提弹效率也存在问题，在前卫使用的改型中得到了很大改善。弹道性能良好，可胜任多种任务。,0,0
1011,1011,中口径主砲,6inch Mk.XXII 联装炮,1,1,2,2,0,5,5,0,1,0,0,0,0,0,0,0,2,,2,0,3,2,0,纳尔逊使用的MK.XXII双联6英寸（152毫米）副炮最初是给G3计划舰准备的，该炮是英国战列舰最早的炮塔式副炮。林仙级轻巡使用的是MK.XXI型炮塔。由于俯仰射速问题，并没实现设计时对空的初衷。,0,0
1012,1012,中口径主砲,6inch联装炮 Mk.8,1,1,2,2,0,4,5,0,0,0,0,0,0,0,1,0,2,,2,0,2,2,0,这个才是奥马哈级的主炮,0,0
1013,1013,中口径主砲,6inch三联装炮 Mk.16,1,1,2,2,0,4,6,0,0,0,0,0,0,0,1,0,2,,3,0,2,3,0,MK.16型三联6英寸（152毫米）火炮是布鲁克林和克里夫兰级的主炮，该炮发射超重弹，威力要超过不少同类炮。该炮射速较快，结合炮管数量，装备该炮的美国巡洋舰都有很强的火力投射能力。,0,0
1014,1014,中口径主砲,8inch三联装炮 Mk.12,1,1,3,2,0,4,9,0,0,0,0,0,0,0,2,0,2,,3,0,4,5,0,美国为条约巡洋舰设计的203毫米火炮，列克星敦级航母也装备了该炮的双联型号。前期重巡洋舰主要使用MK.9型，新奥尔良级使用MK.14型。两者炮塔外形有所不同，MK.14型炮身设计也有变化，射程稍远。总体而言该炮威力对别国并无优势，所以后来美国设计了发射超重弹的203毫米炮。,0,0
1015,1015,大口径主砲,28.3cm SK C/34三联装炮,1,1,4,3,0,2,11,0,1,0,0,0,0,0,3,0,3,,1,0,8,12,0,SKC/28型三联283炮装备于德意志级装甲舰，这种炮比之前的旧283炮身管更长，弹丸稍轻，该炮也是装甲舰的标志之一，目的用于压制对方巡洋舰。沙恩级使用的是SKC/34型，身管比SKC/28更长，穿透力也好一些。,0,0
1016,1016,大口径主砲,40.6cm SK C/34联装炮,1,1,4,3,0,2,21,0,2,0,0,0,0,0,4,0,4,,5,0,16,21,0,该炮是德国海军为H级战列舰准备的，同其他德国舰炮一样也是轻弹设计，有着不错的初速。由于德式设计造成了该型406炮重量较大。该炮也作为岸防炮使用，在挪威的该炮战后被挪威接管，一直使用到了60年代。,0,0
1017,1017,大口径主砲,16inch Mk.I三联装炮,1,1,4,3,0,5,22,0,1,0,0,0,0,0,0,0,3,,4,0,18,21,0,16英寸（406毫米）L45MkI主炮于20年代设计，原计划搭载于G3级战巡上，但最后G3因条约取消，该款主炮经过修改后作为纳尔逊级战列舰的主炮服役。不全面的打靶论证导致该主炮采用了轻弹方案，最初的样炮虽然有不俗的表现，但其寿命被认为太短无法胜任长时间的海上作战，之后对膛线的改良导致其初速的明显下滑。该款主炮是纳尔逊级的象征，在服役之初曾是世界上最强的舰载主炮。,0,0
1018,1018,大口径主砲,14inch Mk.VII四联装炮,1,1,4,3,0,5,19,0,1,0,0,0,0,0,2,0,3,,4,0,12,20,0,MK.VII是皇家海军于30年代末期为条约战列舰设计的新型14英寸主炮，搭载于乔治五世级战列舰上，因签约国先后放弃遵守条约，导致乔治五世级成为条约国口径最小的新锐战列舰。该炮炮身寿命长，弹道安定。但四联装版本在早期的可靠性不佳，威尔士亲王与乔治五世迎击俾斯麦时都发生了不同程度的故障，在之后得到了一定程度的改良。,0,0
1019,1019,大口径主砲,12inch三联装炮 Mk.8,1,1,4,3,0,4,14,0,5,0,0,0,0,0,2,0,3,,4,0,9,13,0,MK.8型三联12英寸（305毫米）炮是在怀俄明使用的MK.7基础上研发的，但是不同于这款老炮，MK.8发射的是重达517千克的超重弹，远超一般12寸火炮。这款火炮只装备于阿拉斯加级大型巡洋舰。,0,0
1020,1020,大口径主砲,14inch三联装炮 Mk.4,1,1,4,3,0,4,16,0,1,0,0,0,0,0,0,0,3,,1,0,10,14,0,45倍径14英寸炮设计最早可以追溯到一战前，从内华达级起，开始装备三联装的炮塔。在30年代，这种火炮被改装以加大仰角。田纳西级使用的14寸三联主炮为50倍径。,0,0
1021,1021,大口径主砲,16inch三联装炮 Mk.6,1,1,4,3,0,4,22,0,2,1,0,0,0,0,2,0,3,,5,0,18,21,1,MK6型三联16英寸（406毫米）炮是美国为北卡等战列舰研制的新型主炮，相比之前的科罗拉多的主炮，该炮发射的是重1.225吨的超重弹，在实战中的表现也证明了这种火炮的威力。,0,0
1022,1022,大口径主砲,305mm/46三联装炮,1,1,4,3,0,3,12,0,0,0,0,0,0,0,3,0,3,,2,0,9,13,0,意大利的M1909三联主炮是世界上最早的一批三联装战列舰主炮，同时弹丸也比一般305炮更重。安德号最初用三联和两联混装了13门该主炮，有着当时来说很不错的火力投射能力。,0,0
1023,1023,小口径主砲,5inch联装炮 Mk.22,1,1,1,1,0,4,4,0,0,0,0,0,0,0,2,0,1,,2,0,2,2,0,MK.22型双联5英寸（127毫米）炮主要用于波特级之类的驱逐舰领舰，虽然是基于单装高平炮，但是由于着重对海能力，MK.22炮塔仰角不高，基本没有防空能力。,0,0
1024,1024,対空機銃,3.7cm SK C/30机炮,4,6,32,15,0,2,0,0,3,0,0,0,0,0,1,0,0,,1,0,1,1,0,这种防空武器由于采用半自动人力装填，射速只有30发每分，作为小口径防空武器效能有限，连剑鱼都打不中。,0,0
1025,1025,対空機銃,QF 2磅四联装砰砰炮,4,6,32,15,0,5,1,0,8,0,0,0,0,0,0,0,0,,3,0,3,1,1,这种40机关炮使用了老式的2磅炮弹药，所以初速不高，而且弹链有可靠性的问题，不过由于火力密度很高，依然是英国主力防空炮之一，和博福斯混用。,0,0
1026,1026,対空機銃,Oerlikon 20mm联装机炮,4,6,32,15,0,4,0,0,5,0,0,1,0,0,2,0,0,,2,0,2,1,1,厄利孔20毫米机炮是一款经典的武器，各种型号被装在各种平台上，一直到今天仍能见到。厄利空机炮于41年开始装备美国海军，实践证明这是一种很有效的近程防空武器，很快就在各种军舰上普及。,0,0
1027,1027,対空機銃,3inch联装高射炮 Mk.22,4,6,32,17,0,4,3,0,12,0,0,0,0,0,3,0,0,,6,0,6,7,0,在战争末期，美海军感觉40博福斯威力依然不足，不足以编制更凶猛的防空网，于是设计了这款带自动上弹系统的3英寸防空炮。尽管口径达到了76毫米，但是射速和博福斯差别不大，而且由于弹丸有VT引信，该炮结合火控雷达之后防空能力惊人。由于进度问题，该炮没有赶上二战，很多冷战早期舰艇都装备了这种防空炮。,0,0
1028,1028,対空機銃,Bofors 40mm联装机炮,4,6,32,17,0,4,1,0,8,0,0,1,0,0,1,0,0,,4,0,5,1,2,博福斯40毫米炮是二战期间最成功的中程防空武器，各个交战国都有装备。美国海军于42年开始装备，之后迅速形成了厄利空+博福斯的组合。这种机关炮使用4发弹夹供弹，并且只要供弹跟上，可以长时间持续射击。,0,0
1029,1029,対空機銃,1.1inch四连装机炮,4,6,32,15,0,4,0,0,5,0,0,0,0,0,1,0,0,,3,0,2,1,1,为了追求射速密度，这种28毫米机关炮采用了4连布置，虽然射速较高，但是该炮的可靠性并不好。所以尽管取得了一定的战果，但还是在42年左右被更好的厄利空和博福斯高炮所取代。,0,0
1030,1030,艦上戦闘機,Seafire,3,5,8,6,26,5,0,0,7,0,0,2,0,0,0,0,0,,2,2,2,0,6,英国海军对其二战早期的舰载战斗机十分不满意，在不列颠空战中喷火表现出色，于是英国海军在喷火VB的基础上改进出了航母用的海喷火战斗机。相比之前的海燕和海斗士，海喷火的性能上了一个台阶。尽管有航程较短和起降性能不佳的缺陷，但是在各个战斗中，海喷火均表现出色。,2,7
1031,1031,艦上戦闘機,Seafang,3,5,8,6,26,5,0,0,10,0,0,2,0,0,0,0,0,,5,2,2,0,12,海毒牙是海喷火/怨仇系列战斗机的终极改进版本。海毒牙使用著名的格里芬系列发动机，而海毒牙MKF32则换装了功率达2350马力的格里芬89液冷发动机，并使用了对转螺旋桨。得益于格里芬发动机的强劲动力，海毒牙的最大速度接近800千米，而这差不多也是活塞螺旋桨战斗机的性能极限。由于喷气时代的到来，海毒牙并没有大规模服役。,4,8
1032,1032,艦上戦闘機,F4U,3,5,8,6,24,4,2,0,9,0,0,1,0,0,1,0,0,,5,1,2,0,4,F4U战斗机是美国最早使用R2800发动机的战斗机，这种超前的动力使得F4U获得了优异的性能，在40年就达到了600以上的时速。F4U海盗尽管性能优异，但是一些缺陷影响了航母使用，于是F4U最早是交付给海军陆战队使用。在瓜岛恶战中陆战队的F4U表现出色。一直到44年，经过改进的F4U才开始走上航母。由于F4U机体坚固功率较大，除了空战优秀外，在轰炸方面也表现出色。同F6F一样，F4U也有携带雷达，进行夜间战斗的型号。英国也获得了F4U，并且早于美国搭载上航母使用。,5,8
1033,1033,艦上爆撃機,Skua,3,5,10,7,26,5,0,0,2,0,3,0,0,0,0,4,0,,1,1,1,0,2,贼鸥是一种多用途的舰载机，除了可以执行俯冲轰炸外，还具备空战能力，英国海军第一个击落战果便是贼鸥创造的。随着轴心国新型飞机的服役，贼鸥速度慢的弱点暴露了出来，之后就被新型飞机取代。,3,5
1034,1034,艦上爆撃機,Fulmar,3,5,10,7,26,5,0,0,4,0,2,0,0,0,0,6,0,,2,2,3,0,3,海燕本身是作为舰载战斗机开发的，但是由于英国海军固执地认为海军飞机必须要有领航员，所以海燕是一架双座飞机。由于体积较大，虽然装备了类似喷火的发动机，但是速度较慢，不过在海喷火服役前，海燕已经是英国海军最好的战斗机。海燕也可以携带炸弹，执行轰炸任务。,4,6
1035,1035,艦上爆撃機,BTD,3,5,10,7,24,4,1,0,2,0,3,0,2,0,1,10,0,,5,2,3,0,6,这种攻击机于1941年开始研制，使用了一台R3350发动机，这款也用于B29的发动机使得BTD1有着出色的性能，可以挂载大量的弹药，最大速度也达到了550KM左右。随着战争临近尾声，BTD-1尽管性能先进，但是并没有大规模生产。,5,7
1036,1036,艦上攻撃機,Swordfish,3,5,12,8,26,5,0,6,0,0,4,0,1,0,2,0,0,,1,2,3,0,3,剑鱼是一款老式的双翼舰载攻击机，但就是这种老爷机屡立奇功，一直服役到二战胜利，甚至计划取代该机的攻击机也比剑鱼更早退役。夜袭塔兰托时，英军使用的就是剑鱼，重创了意大利海军。在围歼俾斯麦中，也正是来自皇家方舟的剑鱼的鱼雷击伤了俾斯麦的方向舵。由于剑鱼可靠耐用，飞行员对剑鱼有着“飞行网线袋”的爱称。剑鱼到后来已经不适应战场环境，但是由于可靠耐用，又被搭载到护航航母上执行反潜任务，一直服役到二战胜利。,4,4
1037,1037,艦上攻撃機,Barracuda,3,5,12,8,26,5,0,8,0,0,5,0,1,0,0,0,0,,3,2,4,0,4,梭鱼也是由英国费利公司研制的舰载攻击机，该公司的攻击机都是“鱼”系列。梭鱼的前辈就是剑鱼和大青花鱼。梭鱼装一台罗罗莫林液冷发动机，整体外形颇具力量感，其襟翼可以兼作轰炸减速板，有着不错的低速性能，深受飞行员好评。梭鱼主要参与了攻击提尔比茨的行动，45年随着英国航母一起来到远东参加对日作战。,5,6
1038,1038,艦上攻撃機,TBF,3,5,12,8,24,4,1,7,1,0,5,0,3,0,1,0,0,,4,2,6,0,10,TBF是美军TBD攻击机的后继型号，由于采用了内置弹仓设计，机腹显得较大，美军飞行员戏称为“怀孕的火鸡”。TBF机体坚固载荷量大，除了雷击外，也可以执行轰炸任务，另外还大量搭载在护航航母上执行反潜任务。TBF最出名的飞行员大概是乔治布什，这位美国总统二战时是一名TBF的飞行员。另外最早的航母预警机也是在TBF基础上改造的。根据租借法案，英国也获得了一些TBF使用。,5,7
1039,1039,水上偵察機,SeaOtter,5,7,16,10,26,5,0,0,1,0,5,0,7,0,1,1,0,,3,1,1,0,3,海水獭是海象式的发展型号，换装了功率更大的发动机。英国海军原打算用于战舰的侦查和校射工作，不过由于服役较晚，海水獭并没有什么值得一提的表现，主要用于辅助任务。,4,7
1040,1040,水上偵察機,Walrus,5,7,16,10,26,5,0,0,1,0,3,0,4,0,1,1,0,,1,1,1,0,2,英国海象式是一种船身式双翼机，由于有机轮，也可以在陆地或者甲板上起降。海象被部署在战舰上执行侦查，校射，巡逻等任务。后期由于电子设备的发展，战舰上的海象逐渐撤装，只留下一些海象在航母上执行搭救落水飞行员的任务,3,5
1041,1041,大型電探,CXAM对空搜索雷达,5,8,20,11,0,4,0,0,7,0,0,0,7,0,7,0,0,,3,0,0,22,23,CXAM长波对空雷达性能优秀，可以实现约100KM距离上的对空警戒，为舰队防空提供保证，在战争初期的海空大战中发挥了重要作用。,0,0
1042,1042,小型電探,271型水面搜索雷达,5,8,19,11,0,5,0,0,0,0,0,0,10,0,8,0,0,,3,0,0,21,18,这种272型（小型）/273型（大型）对海搜索雷达修改了发射和接收天线，并装备了PPI显示器。盟军利用雷达可以在夜战中把握态势，雷达在战争中发挥了重要的作用。,0,0
1043,1043,ソナー,QC主动声纳,7,10,22,20,0,4,0,0,0,0,11,1,0,0,2,0,0,,4,0,0,2,2,增强了精度的被动声纳结合高频测向仪是反潜的利器。,0,0
1044,1044,魚雷,21inch三联装鱼雷,2,3,7,5,0,2,0,3,0,0,0,0,0,0,0,0,1,,1,1,1,1,0,533毫米是各国海军主流的鱼雷口径，三联发射器多见于驱逐舰和轻巡洋舰。,0,0
1045,1045,魚雷,21inch四连装鱼雷,2,3,7,5,0,2,0,4,0,0,0,0,0,0,0,0,1,,1,1,2,2,0,四联533毫米鱼雷发射器有着更高的发射密度，是西方各国驱逐舰的主要鱼雷装备。,0,0
1046,1046,魚雷,21inch五联装鱼雷,2,3,7,5,0,4,0,6,0,0,0,0,0,0,1,0,1,,2,2,2,2,0,强调驱逐舰雷击能力的装备，美国弗莱彻级，基林级等就装备了五连533毫米鱼雷发射器。,0,0
1047,1047,副砲,4inch Mk.IX三联装炮,1,2,6,4,0,5,5,0,0,0,0,0,0,0,1,0,1,,1,0,2,4,0,为了应对小型舰艇，英国海军研制了这种三联的4英寸炮，安装在军舰上层建筑，可以避免风浪的影响，同时射速和密度也比152炮更快。光荣级和声望级都使用这种火炮作为副炮。,0,0
1048,1048,副砲,4.5inch Mk.III联装炮,1,2,6,16,0,5,3,0,6,0,0,0,0,0,2,0,1,,4,0,2,4,0,英国于30年代设计的4.5英寸（114毫米）对舰、对空两用炮，最早设计用于航空母舰，后广为装备于驱逐舰与航母上，部分老舰改造时也用该火炮对其副炮进行了替换。不同型号的该款主炮炮室外观有显著不同。,0,0
1049,1049,大口径主砲,380mm M1935四联装炮,1,1,4,3,0,6,23,0,2,1,0,1,0,0,1,0,3,,5,0,21,22,0,M1935四联380毫米炮是法国最后的战列舰主炮，该炮为了配合黎塞留的设计采用了四联装设计，四门主炮均可以单独俯仰，在炮塔内部中间有一道装甲隔舱以加强生存力。整体威力处于优秀水平，弹重也较大。,0,0
1050,1050,魚雷,G7a 533mm 四连装蒸汽鱼雷,2,3,7,5,0,2,0,8,0,0,3,0,0,0,3,0,1,,4,2,2,3,0,德国水面军舰使用的G7a蒸汽鱼雷可以使用磁性引信，尽管早期可靠性不佳，但是能提升命中率和杀伤效果。,0,0
1051,1051,小型電探,SC对空搜索雷达,5,8,19,11,0,4,0,0,6,0,0,0,7,0,6,0,0,,5,0,0,11,12,SC（小型）/SK（大型）雷达是战争期间的第二代对空搜索雷达，SK雷达装备了PPI显示器，极大方便了操作。这种性能优异的雷达可以提供约200千米左右的对空搜索能力。SK雷达还有一种缩小版本，用于驱逐舰。,0,0
1052,1052,大型電探,SK对空搜索雷达,5,8,20,11,0,4,0,0,9,0,0,0,10,0,9,0,0,,5,0,0,25,25,SC（小型）/SK（大型）雷达是战争期间的第二代对空搜索雷达，SK雷达装备了PPI显示器，极大方便了操作。这种性能优异的雷达可以提供约200千米左右的对空搜索能力。SK雷达还有一种缩小版本，用于驱逐舰。,0,0
1053,1053,小型電探,SG水面搜索雷达,5,8,19,11,0,4,0,0,0,0,0,0,15,0,10,0,0,,5,0,0,26,26,SG对海雷达是一种微波雷达。得益于新型磁控管技术，这种雷达非常有效，甚至在战争胜利后还服役了约20年。这种雷达除了对海搜索，还能发现低空飞机。同样，SG雷达也有PPI显示器。SG雷达是盟军不可缺少的重要装备，装备了各种大小舰艇。,0,0
1054,1054,大型電探,284型水面火控雷达,5,8,20,11,0,5,2,0,0,0,0,0,8,0,10,0,0,,3,0,0,23,27,火控雷达有比搜索雷达更好的精度，可以引导火炮射击。这种284型早期火控雷达波长50厘米，功率25千瓦。由于是早期产品，测距测向精度比较一般。但是由于雷达可以在夜晚使用，所以有很大优势。,0,0
1055,1055,高射装置,Mk.37对空火控系统,14,24,46,32,0,4,3,0,8,0,0,2,0,0,12,0,0,,5,0,0,15,20,这种火控系统是战争期间最好的高平两用火控系统，结合MK.4火控雷达可以更好发挥作用，主要装备在大型战舰上指挥高平两用炮，或者在驱逐舰上指挥主炮。,0,0
1056,1056,大型電探,Mk.8水面火控雷达,5,8,20,11,0,4,3,0,6,0,0,0,15,0,9,0,0,,6,0,0,22,25,这种采用42根棒状天线的Mk.8火控雷达主要用于战列舰等大型军舰，主要配合MK38火控指挥仪使用。在探测大型目标时，可以保证在35千米以上距离时仍有可靠的测距和测定方位能力。火控雷达可以全天候使用，这是相对光学设备的一大优势。,0,0
1057,1057,ソナー,ASDIC主动声纳,7,10,22,20,0,5,0,0,0,0,12,0,0,0,3,0,0,,6,0,0,2,4,主动声纳是主动发射声波的水下探测设备，可以对水下目标进行定位，有时候会因为发射声波暴露自己，但水面反潜军舰不太在乎这种问题。,0,0
1058,1058,爆雷,Squid反潜迫击炮,7,32,24,19,0,5,0,0,0,0,12,0,0,0,3,0,0,,6,0,4,2,4,乌贼弹是一种三联的深弹投掷武器，可以使深弹下落时呈三角覆盖。这种武器同声纳联动时是非常有效的反潜武器，缺点是这种武器系统比较重，占空间也较大。在战后被火箭深弹取代。,0,0
1059,1059,爆雷,Mousetrap反潜火箭弹,7,32,24,19,0,4,0,0,0,0,9,0,0,0,2,0,0,,5,0,3,1,4,捕鼠器实际上是一种轻便的深弹发射器，相比著名的刺猬弹和乌贼弹，捕鼠器因为是火箭式推进所以后坐力很小，对甲板影响较小。占空间也较小，对装备舰艇要求不大。,0,0
1060,1060,爆雷,Hedgehog反潜迫击炮,7,32,24,19,0,5,0,0,0,0,10,0,0,0,0,0,0,,4,0,5,2,3,刺猬弹是一种著名的反潜兵器。这是实际上是一种24连装的深弹投射器，不同的是这种深弹比较小，采用触发引信而不是一般深弹的时间引信。发射的时候刺猬弹入水会呈椭圆形的范围散布，如果1发砸到潜艇就会发生爆炸，并诱爆其他弹。由于使用触发引信，未命中不会爆炸，所以不影响军舰声纳使用，也不像普通深弹容易被潜艇发觉。,0,0
1061,1061,機関部強化,Rateau涡轮发动机,6,31,28,21,0,6,0,0,0,0,0,12,0,0,0,0,0,,4,12,0,15,0,这种高温高压锅炉增加了内受热面，并且有预热，加压等手段，蒸汽温度达到了400℃左右，蒸汽压力也远高普通锅炉。驱逐舰装备这种动力系统之后可以突破40节航速大关。,0,0
1062,1062,追加装甲(小型),附加装甲（小型）,6,17,25,25,0,1,0,0,0,5,0,-1,0,0,0,0,0,,3,0,0,7,0,匀质钢装甲在抵御破片和各种小口径武器方面有自己的长处，很多时候作为小型军舰的装甲带材料使用。,0,0
1063,1063,発煙筒,发烟筒,25,44,61,46,0,1,0,0,0,0,0,20,0,0,-5,0,0,,2,20,0,10,0,驱逐舰装备用以产生烟雾的设备。烟雾可以掩护自己，但是会影响炮击。,0,0
1064,1064,中口径主砲,6inch Mk.XXIII三联装炮,1,1,2,2,0,5,7,0,2,0,0,0,0,0,2,0,2,,3,0,3,5,0,MK.XXIII型三联6英寸（152毫米）火炮是为轻巡洋舰开发的火炮，初期也打算具备对空能力，但是因为射速和俯仰问题而放弃。该炮初期发现有散布过大的缺点，后来装备了射击延迟装置以改善这以问题。该炮主要装备城级轻巡洋舰，今天停泊在伦敦的贝尔法斯特号就使用的这个主炮。,0,0
1065,1065,中口径主砲,8inch Mk.VIII联装炮,1,1,3,2,0,5,10,0,3,0,0,0,0,0,2,0,2,,3,0,3,3,0,MkVIII是E国于20年代设计生产的双联8英寸（203毫米）主炮，为条约时代的产物，考虑到空中威胁被赋予了极高的仰角。早期型号在稳定性上有诸多的问题，在战前得到了矫正。为了保证长期海上航行时的安定性，在性能方面做出了一定的妥协。,0,0
1066,1066,大口径主砲,试制15inch Mk.I三联装炮,1,1,4,3,0,5,20,0,1,0,0,0,0,0,1,0,3,,6,0,16,21,0,该炮最早源自20年代的新战巡计划，有一座炮塔曾制作出来并装到浅水重炮舰上进行测试，在乔治五世设计时，也曾考虑过使用三联15英寸炮，因为各种原因并没实现。,0,0
1067,1067,大口径主砲,16inch联装炮 Mk.1,1,1,4,3,0,4,18,0,1,0,0,0,0,0,1,0,3,,2,0,14,20,0,MK.1型炮是美国海军战列舰上最早的16英寸（406毫米）级别主炮。由于穿深等不太理想，差不多是BIG7中最弱的主炮，于是之后美军改进了该炮的药室和身管，加强了性能。,0,0
1068,1068,副砲,10cm/56联装炮,1,2,6,16,0,7,2,0,7,0,0,0,0,0,0,0,1,,3,0,1,3,0,SM-5-1型双联100毫米高平两用炮定型于47年，是苏联当时最先进的高炮，该炮射速可达20发1分，并且每个炮塔都配备了火控雷达。这种先进的高炮主要装备于恰巴耶夫和斯维德洛夫级巡洋舰。,0,0
1069,1069,中口径主砲,152mm/57三联装炮,1,1,2,2,0,7,6,0,2,0,0,0,0,0,1,0,2,,3,0,3,5,0,B-38型152毫米炮是苏联于战前研制成功的轻巡主炮，该炮装备于MK4型三联炮塔。是苏联恰巴耶夫和斯维德洛夫级巡洋舰的主炮。此外该炮也有其他构型装备其他大型战舰。,0,0
1070,1070,艦上爆撃機,B-25（Doulittle队）,3,5,10,11,24,4,0,0,0,0,3,0,3,0,0,15,0,,6,5,5,3,14,B-25原本是陆基双发轰炸机，并不适合航母使用。美国为对日报复，选择了B25对东京进行轰炸的计划。十六架经过改装的B-25，在杜立特的带领下从大黄蜂号起飞轰炸了东京，并在中国降落。这一行动震动了日军高层，并促使其发动了中途岛战役。,9,13
1071,1071,対空強化弾,VT引信炮弹,4,28,29,12,0,4,0,0,7,0,0,0,0,0,5,0,0,,4,0,6,6,6,VT引信是无线电近炸引信的简称。这种炮弹引信会发射无线电波，利用目标回波来引爆炮弹，即使没有命中目标，也会在目标附近爆炸，大大增加了命中率和杀伤效率。这种炮弹在二战期间主要用于对空，由于被视为高度机密，只限海军使用。美海军127炮装备之后防空效率提升很大，有效起到了远程防空网的作用。,0,0
1072,1072,対艦強化弾,Mk.8超重弹,4,25,30,13,0,4,9,0,0,0,0,0,0,0,3,0,0,,4,0,3,10,0,这种弹丸比普通的弹丸重大概20％以上，以406炮的MK.8炮弹为例，普通的406炮弹丸在1吨左右，而MK6使用的MK.8炮弹重约1.226吨。超重弹有着更强的水平穿深和破坏力，更加适合远距离海战。,0,0
1073,1073,艦上戦闘機,Me155,3,5,8,6,22,2,0,0,9,0,0,2,0,0,2,0,0,,4,2,3,0,8,由于齐柏林的建造重启，而BF109T性能已经落后，G国基于109G型战斗机研制了me-155战斗机。Me-155有着更强的性能，同时还修改了起落架设计，更适合航母使用。该机于1942年接近完成，但是由于齐柏林航母迟迟未服役，这型战机最终搁置并转交给别的公司继续研制。,3,7
1074,1074,艦上戦闘機,XF5U,3,5,9,6,24,4,1,0,10,0,0,-1,0,3,0,0,0,,5,2,2,0,6,XF5U采用了不同寻常的圆形翼身融合设计，飞机整体外形呈饼型。根据设计，XF5U有着很好的起降性能和凶猛的火力，机动也好于常规飞机。不过随着战争的结束和喷气时代的到来，XF5U并没有进一步发展。,6,8
1075,1075,艦上攻撃機,Swordfish Mk.III,3,5,12,8,26,5,0,4,0,0,8,0,1,0,1,0,0,,4,2,4,0,3,剑鱼MKIII是专门的反潜型号，相比普通的剑鱼加强了机翼，可以发射火箭弹，同时机腹加装了雷达以搜索潜艇。由于剑鱼MKIII起降速度慢，所以很适合在小型的护航航母上使用。,3,5
1076,1076,艦上爆撃機,SB2C,3,5,10,7,24,4,1,0,2,0,3,0,2,0,2,8,0,,4,2,4,0,6,SB2C地狱俯冲者是SBD的继任者，然而由于各种原因导致换装工作很缓慢。由于该机垂尾很大加上早期缺陷不少，美飞行员给该机起了“大尾巴怪兽”“Son-of-a-Bitch，2ndClass（碧池养的）”之类的外号，并戏称“尾翼足矣操纵战舰”。随着飞机的改进，SB2C也成为了后期美航的主力轰炸机，在围歼大和的战斗中证明了自己。,5,7
1077,1077,艦上攻撃機,XTB2D,3,5,13,8,24,4,1,16,0,0,3,0,2,0,1,0,0,,6,3,7,0,12,XTB2D空中海盗攻击机是二战美海军最大的舰载攻击机，全副尺寸甚至超过了B-25。这架为新大型航母设计的攻击机有着惊人的载弹量，可以携带4条鱼雷或者类似重量的弹药。该机发动机为B36核轰炸机同款的R4360系列，28缸3000马力。由于战争结束和喷气时代的机种调整，该机遗憾地并未正式服役。,7,9
1078,1078,魚雷,61cm五联装鱼雷,2,3,7,5,0,1,0,9,0,0,0,0,0,0,0,0,1,,2,2,2,3,0,零式五联鱼雷发射器只有岛风使用，这也是专门为岛风研制的装备，有着夸张的雷击能力。,0,0
1079,1079,大口径主砲,16inch Mk.I/N三联装炮改,1,1,4,3,0,5,24,0,1,0,0,0,0,0,0,0,3,,5,0,19,22,0,鉴于旧的16英寸MkI已经落后，英国于30年代末设计并生产了这款16英寸主炮。部分与原MkI混装在罗德尼号上。该款主炮搭载了新型的穿甲弹，各项指标与美制Mk6接近，但Mk6使用超重弹，MkII使用标准弹，表现不同而各有千秋。,0,0
1080,1080,潜水艦魚雷,G7e 53cm电动磁性鱼雷,2,3,42,5,0,2,0,12,0,0,0,0,0,0,4,0,1,,3,2,2,4,0,德国潜艇常使用的G7e系列电动鱼雷可以根据需要选择磁性还是触碰式引信，虽然早期磁性引信不太可靠，但是结合无航迹的电动鱼雷有着很大的威力。,0,0
1081,1081,潜水艦魚雷,21inch潜艇鱼雷 Mk.14,2,3,42,5,0,4,0,12,0,0,0,0,0,0,1,0,1,,3,2,3,3,0,MK.14系列是美国潜艇主力鱼雷，尽管不如电动鱼雷隐蔽，但是MK.14速度较高，装药也足。MK.14鱼雷战果丰硕，被MK.14击沉的J国舰船有大约400万吨。,0,0
1082,1082,対空機銃,Bofors 40mm六联装机炮,4,6,32,17,0,5,1,0,12,1,0,3,0,0,1,0,1,,6,0,7,2,4,mk.VI型六联博福斯炮重达21吨，为了追求火力连装了6门博福斯炮，并且使用更大的36发弹盘以提高持续性，该炮同时和火控系统联动。这种先进的防空武器并没赶上二战，最著名的用户是前卫号战列舰。,0,0
1083,1083,大型電探,274型水面火控雷达,5,8,20,11,0,5,4,0,0,0,0,0,10,0,13,0,0,,5,0,0,28,30,274雷达于43年左右研制，相比之前的284系列雷达进步很大，发射功率是前代产品的几倍。这种采用干酪边型天线的雷达在36KM距离上测距只有20米左右的误差，是英国战争末期最好的火控雷达。,0,0
1084,1084,機関部強化,柴油机,6,31,28,21,0,2,0,0,0,0,0,5,0,3,0,0,0,,3,8,0,8,0,不同于蒸汽轮机和锅炉，柴油机是内燃机。柴油机有着较低的油耗，特别适合需要大航程的军舰。,0,0
1085,1085,小口径主砲,13cm/50联装炮,1,1,1,1,0,7,4,0,1,0,0,0,0,0,0,0,1,,3,0,2,1,0,B-2LM是基于B-13的双联型号，该炮最早的用户是塔什干号驱逐舰，之后也装备了火力级等驱逐舰。该炮强调对海能力，在苏联海军一直服役到战后被新型主炮取代。,0,0
1086,1086,爆雷,БМБ反潜迫击炮,7,32,24,19,0,7,0,0,0,0,8,0,0,0,2,0,1,,4,0,3,2,1,BMB型深弹炮是苏联驱逐舰上常见的反潜武器，冷战早期的很多苏联驱逐舰都有这种武器。另外中国也仿制过BMB深弹炮，装备在037型艇和其他驱护舰上。,0,0
1087,1087,大口径主砲,320mm/44三联装炮,1,1,4,3,0,3,15,0,0,0,0,0,0,0,3,0,3,,4,0,14,18,0,在条约时期意大利为了改造安德号等旧战列舰的火力，直接在原M1909型305炮的基础上扩膛做出这款320毫米的舰炮，由于口径增加，弹丸也从305的452KG提升到了525KG。,0,0
1088,1088,艦上爆撃機,Firefly,3,5,10,7,26,5,0,0,6,0,3,0,0,0,0,7,0,,5,2,3,0,6,43年开始服役的萤火虫虽然是战斗机，但是和海燕一样保留了领航员的设置，双座的结构影响了飞机的速度，即使萤火虫装备了液冷格里芬引擎，速度也只有500KM出头。由于萤火虫载荷不错且是双座飞机，于是萤火虫更多被用于多用途任务。,4,5
1089,1089,艦上戦闘機,Seafire Mk.XV,3,5,8,6,26,5,0,0,9,0,0,1,0,0,1,0,0,,4,2,2,0,9,海喷火MK.XV是换装了格里芬液冷发动机的海喷火。格里芬发动机有着非常强劲的动力，使得海喷火MK.XV有着更好的爬升和速度性能。战争末期用于拦截日本神风特攻飞机。,3,7
1090,1090,中口径主砲,18cm/57三联装炮,1,1,2,2,0,7,8,0,0,1,0,0,0,0,0,0,3,,4,0,3,4,0,B-1-P型三联180毫米炮是在红色高加索级使用的单管B-1-K基础上研制的三联型号，研制中得到了意大利技术的支持。该炮初速接近1000M每秒，最大射程在38千米左右，已经达到了战列舰主炮的水平，这是苏联海军出于海防和对陆的需要。,0,0
1091,1091,小型電探,FuMB信号探测雷达,5,8,19,11,0,2,0,0,0,0,0,7,5,1,0,0,0,,4,0,0,11,11,这种FuMB探测雷达装置设计用于侦探和感知对方雷达发射的无线电波，可以用于预警。,0,0
1092,1092,水上偵察機,Бе-4,5,7,16,10,27,7,0,0,1,0,3,0,5,0,1,2,0,,3,1,1,0,3,为配合斯大林的大舰队计划，苏联别里耶夫设计局接到了研制一款水上侦察机的任务。KOP-2原型机在测试中表现良好并在41年被定型为Бе-4（别-4）。除侦查任务外，该机也可以携带一些炸弹执行其他任务。战争期间Бе-4主要配属于苏联各艘巡洋舰上使用，也配属给了岸基基地执行巡逻任务。,3,6
1093,1093,艦上爆撃機,SBD（McClusky队）,3,5,10,7,24,4,1,0,2,0,4,2,6,0,2,11,0,,6,2,4,0,9,麦克拉斯基是企业号的航空指挥官。他在中途岛之战中扮演了关键角色，美军攻击机群一直未能搜寻到日军航母部队，但是指挥官麦克拉斯基坚持多飞了一会，并发现了日军岚号驱逐舰。麦克拉斯基带队跟着岚号找到了日军航母部队，之后美机群的俯冲轰炸一举击沉了日军3艘航母（麦克拉斯基座机参加了对加贺的投弹）。现在美军每年颁发的优秀攻击机中队奖就叫麦克拉斯基奖。,4,5
1094,1094,艦上戦闘機,F4F（Thach队）,3,5,8,6,24,4,0,0,10,0,0,6,0,0,2,0,0,,6,1,1,0,4,萨奇是VF-3战斗机中队的指挥官，原属萨拉托加号航母，萨拉托加修理时借调给约克城号使用。萨奇少校发明了著名的“萨奇剪刀”战术：利用美机的防护和火网，由一架飞机做诱饵，另一架负责射击，执行交叉航线获得射击机会，总的来说这是一种讲究编队配合的互相掩护战术。这种简单的战术发挥了美机的优势，可以很好地克制日军的零式战斗机。萨奇在中途岛战役中击落了六架日机。,3,4
1095,1095,局地戦闘機,Як-1Б（Лидия机）,22,39,54,40,27,7,0,0,8,0,0,3,0,3,3,0,0,,5,2,2,0,10,莉莉娅是击落战果最高的女性飞行员，有着“斯大林格勒的白百合”之称，她的雅克座机两侧画有白百合花图案。曾有一名被她击落的德军王牌飞行员，根本不相信是被莉莉娅击落的，在之后对话中德军飞行员发现莉莉娅描述的细节和空中情景完全吻合，不得不佩服。莉莉娅外，苏联还有很多女性飞行员在各个岗位战斗。,3,5
1096,1096,局地戦闘機,И-16（柳哲生机）,22,39,54,40,28,8,0,0,7,0,0,5,0,2,3,0,0,,4,2,2,0,9,柳哲生是抗战中国头号王牌。也是少数从37年起就在战斗并最终见证战争胜利的王牌飞行员。在40.41年左右中国空军最困难时期，在重庆，成都，兰州等地，他驾驶的伊-16战斗机在逆境中创造了不少战果。,3,4
1097,1097,局地戦闘機,Hawk-III（高志航机）,22,39,54,40,28,8,0,0,9,0,0,2,0,1,3,0,0,,4,1,1,0,2,高志航是著名的中国抗战王牌飞行员，在37年时任第4大队队长，高志航驾驶过多种飞机，但最辉煌的时候正是驾驶的霍克3。中国空军抗战期间的首个击落战果也是高志航创造的。中国空军在抗战初期，凭借高志航和诸多优秀飞行员，给予了日军痛击。另外高志航在战前曾负责战斗机飞行员训练工作，很多优秀飞行员都受此训练。,2,4
1098,1098,艦上爆撃機,SBD（Best机）,3,5,10,7,24,4,1,0,2,0,4,2,3,1,5,9,0,,6,2,4,0,6,百斯特是企业号VB-6轰炸机中队指挥官，中途岛战役时麦克拉斯基带队找到了日本航母，但是当时情况比较混乱，大部分飞机朝着加贺飞去。百斯特发现漏掉了赤城，带领2架SBD朝着赤城俯冲，百斯特投下的炸弹命中了赤城号，虽然只中一弹，但是赤城号最终还是沉没了。在当天下午，VB-6又对飞龙号进行了攻击，百斯特也被认定命中了飞龙一弹。,4,5
1099,1099,中口径主砲,8inch三联装炮 Mk.15+重弹,1,1,3,2,0,4,12,0,0,0,0,0,0,0,2,0,2,,5,0,5,7,0,相比之前的MK9系列，MK12/15系列舰炮弹丸重量大了4分1，达到了152KG，也大于其他国家的该级别火炮的弹丸重量。,0,0
1100,1100,大口径主砲,16inch Mk.II三联装炮,1,1,4,3,0,5,25,0,1,0,0,0,0,0,1,0,3,,6,0,20,22,0,MK.II/III型主炮是为狮级研制的主炮，该炮同纳尔逊的MK.I相比，为了提升性能使用了更重的炮弹，不过狮级最终没有服役，该炮也只进行了测试没有量产。,0,0
1101,1101,魚雷,21inch五联装鱼雷 Mk.17,2,3,7,5,0,4,0,8,0,0,0,0,0,0,2,0,1,,4,2,2,3,0,美国的热动力鱼雷和93类似，也采用氧气取代空气。美国MK17鱼雷的射程和装药都接近日本93鱼雷，在二战末期进行了小规模生产。,0,0
1102,1102,大口径主砲,16inch联装炮 Mk.5,1,1,4,3,0,4,21,0,0,0,0,0,0,0,1,0,3,,4,0,16,20,0,该款16英寸主炮在30年代进行了改进，改进包括加大了药室，更新身管等，性能相比最初的MKI型有所提高。,0,0
1103,1103,艦上攻撃機,Swordfish（818中队）,3,5,12,8,26,5,0,10,0,0,5,0,2,0,5,0,0,,5,3,5,0,6,服役于皇家方舟号的810中队的剑鱼式鱼雷机完成了对俾斯麦的关键雷击，命中船尾的鱼雷使得俾斯麦转向和机动能力大为受损。,4,5
1104,1104,大型電探,275型对空火控雷达,5,8,20,11,0,5,0,0,7,0,0,0,0,0,6,0,0,,6,0,0,14,14,用于驱逐舰和大型军舰副炮的火控雷达。在前卫上该雷达负责指挥5.25寸副炮射击和防空。,0,0
1105,1105,水上偵察機,R4 Hoverfly,5,7,16,10,26,5,0,0,0,0,3,0,2,1,0,0,0,,4,5,1,0,5,R4是最早投入实战的直升机，皇家海军引进将其称呼为食蚜蝇，前卫搭载的直升机主要执行运输和搜救等任务，必要时候也可以执行反潜巡逻任务。,4,4
1106,1106,水上偵察機,Fl282,5,7,16,10,22,2,0,0,0,0,5,0,1,1,0,0,0,,4,7,5,0,5,由于直升机起降占地面积较小，所以海军很感兴趣，FI-265型在科隆号2号炮塔附近的临时平台上进行了起降测试，尽管早期直升机带不了多少武器，但这无疑是种很有前途的装备。,3,4
1107,1107,司令部施設,联络电台,12,22,44,30,0,2,0,0,8,0,0,0,-1,0,0,0,0,,4,0,0,10,10,只要一通电报就会有几十架飞机赶过来护航。,0,0
1108,1108,航空爆弾,Tallboy航空炸弹,4,45,62,47,0,5,4,0,0,0,0,0,0,0,-3,4,0,,6,0,11,6,30,高脚杯：这是一种特制的超重型航空穿甲炸弹，用于对付各种坚固工事和装甲目标。,0,0
1109,1109,小口径主砲,4.5inch Mk.IV联装炮,1,1,1,18,0,5,3,0,8,0,0,2,0,0,0,0,1,,4,0,1,3,0,相比4.7英寸和5.25英寸口径，4.5寸炮有着更好的防空能力。这种炮被装在新式炮塔里面，结合火控雷达后，是E国战争期间防空能力最强的驱逐舰。,0,0
1110,1110,中口径主砲,155mm M1920联装炮,1,1,2,2,0,6,5,0,0,0,0,0,0,0,1,0,2,,2,0,3,2,0,法国海军M1920型155毫米炮装备了圣女贞德级和迪盖特鲁安级轻巡，也作为炮廓炮装备了贝亚恩号航母。而之后的法国新型轻巡则使用55倍身管的152毫米炮。,0,0
1111,1111,艦上戦闘機,FM-2,3,5,8,6,24,4,1,0,6,0,5,0,1,0,0,0,0,,4,1,3,0,2,由于F6F战斗机重量尺寸较大，U国海军的护航航母更多搭载这种F4F野猫战斗机的改型，相比F4F，FM-2发动机功率更大，武器，结构有所修改，除了执行空优任务外，FM-2也经常配合TBF等反潜机绞杀潜艇。,3,6
1112,1112,艦上攻撃機,TBM-3,3,5,12,8,24,4,0,6,1,0,9,0,2,0,0,0,0,,5,2,6,0,10,由于格鲁曼公司产能问题，通用汽车公司也加入TBF鱼雷机的生产，这种飞机被称为TBM。TBM-3更换了发动机，机翼加强了武器挂载能力，是该系列鱼雷机产量最大的型号。配属于护航航母上的TBM-3是反潜利器。,4,7
1113,1113,潜水艦魚雷,21inch潜艇鱼雷 Mk.16,2,3,42,5,0,4,0,15,0,0,0,0,0,0,3,0,1,,5,3,3,4,0,采用过氧化氢热动力的潜射鱼雷，有着类似氧气鱼雷的射程与航速，这种鱼雷战争末期生产了少量，并且一直服役到冷战时期。,0,0
1114,1114,艦上爆撃機,Wyvern,3,5,10,7,26,5,0,0,7,0,1,0,0,0,0,12,0,,5,5,5,0,19,英国于40年代提出研制的可以携带鱼雷的战斗机计划，研制过程中，韦斯特兰公司决定用涡桨发动机替换活塞发动机。由于各种原因，飞龙一直到战后冷战初期才服役，已经略显落后，但是由于载荷出色，飞龙改为作为多用途攻击机在航母上服役，之后让位于喷气机。,5,8
1115,1115,局地戦闘機,P-39（Покрышкин机）,22,39,54,40,27,7,2,0,10,0,0,2,0,0,6,0,0,,6,3,2,0,13,波克雷什金可能是二战苏联最成功的王牌飞行员，被誉为S国空战战术之父。他最著名的座机是一架P-39，同样，他也是三次英雄称号获得者，除了大量的击落战果外，他还研究和推广了很多空战战术，让许多飞行员受益，并且在战后担任苏军高层领导，最终军衔为元帅。,4,7
1116,1116,艦上戦闘機,F4U（Boyington机）,3,5,8,6,24,4,2,0,12,0,0,3,0,0,3,0,0,,6,1,2,0,4,波音顿少校是一位典型的美国老油条飞行员，他的经历相当丰富且技术高超，在战争期间，他和他指挥的黑羊中队驾驶F4U战斗同日军在太平洋鏖战，取得佳绩。,5,8
1117,1117,艦上爆撃機,SB2U（Fleming机）,3,5,10,7,24,4,0,0,1,0,3,3,1,1,2,9,0,,6,2,4,0,7,来自海军陆战队的理查德·弗莱明在座机被击中后，驾驶飞机撞向三隈号，造成了其发生爆炸。弗莱明被追授荣誉勋章，这也是海军陆战队二战获得的第一枚荣誉勋章,4,5
1118,1118,局地戦闘機,Bf109E（Galland机）,22,39,54,40,22,2,0,0,8,0,0,2,0,3,6,0,0,,5,3,2,0,14,加兰德除了是优秀的王牌飞行员外，还是一位出色的指挥官，德国空军很多行动都是他负责指挥和制订的。战争末期加兰德还担任第一个喷气机中队的指挥官并升空作战。战争结束后，加兰德先是到南美任职，之后回到西德空军任职。,3,5
1119,1119,局地戦闘機,Ла-7（Кожедуб机）,22,39,54,40,27,7,0,0,10,0,0,4,0,3,1,0,0,,6,3,2,0,13,阔日杜布是苏联二战著名王牌飞行员，他主要使用拉沃契金系列战斗机。从中期开始驾驶拉-5，拉7取得了许多击落战绩，最终阔日杜布凭借其战绩，和朱可夫一样获得了3次英雄金星勋章。绘制有3枚金星勋章和62架战绩的拉7目前被保存于列宁格勒。,4,5
1120,1120,大口径主砲,53.3cm Gerät 36联装炮,1,1,5,3,0,2,32,0,0,0,0,-3,0,0,0,0,4,,6,0,31,34,0,在30年代末期德国制造了这个口径惊人的主炮，口径达到了533毫米级别，这也是历史上实际完成的最大口径舰炮，根据记载，该炮只是作为技术测试而试制，由于该炮超大的尺寸，并没有确切作为哪艘军舰的主炮。,0,0
1121,1121,対空機銃,37mm四连装机炮,4,6,32,17,0,6,2,0,9,0,0,0,0,0,3,0,1,,5,0,6,1,2,这种高炮采用了瞄准仪和武器独立的布置方式，并且高度自动化，在30年代是相当先进的设计，然而法国意外战败过快，只有一门样炮生产出来装备在亚眠号巡逻舰上参加了实战，表现出色。,0,0
1122,1122,大口径主砲,18inch联装炮 Mk.A,1,1,5,3,0,4,28,0,0,0,0,0,0,0,1,0,4,,6,0,24,25,0,由于条约限制的消失，美军在40年代改制出了这门18英寸主炮，并研制了配套的超重弹，由于航空兵力的发展，以及海军认为使用18寸过重等原因，该炮实际并未上舰服役，只是进行了测试。,0,0
1123,1123,魚雷,试制61cm七联装氧气鱼雷,2,3,7,5,0,1,0,15,0,0,0,-1,0,0,3,0,1,,6,3,4,3,0,在研制超战舰时，海军提出研制一种为大型战舰配备的巨型鱼雷。由于战舰设计变更，这种鱼雷最终没有装备。,0,0
1124,1124,大口径主砲,试制48cm联装炮,1,1,5,3,0,1,27,0,5,0,0,0,0,0,0,0,4,,6,0,26,26,0,该炮试制于20年代，海军条约签订后，很多战舰计划被停止，该炮则被用于各种测试和实验，并在战后被美军缴获。,0,0
1125,1125,魚雷,550mm三联装氧气鱼雷,2,3,7,5,0,6,0,8,0,0,0,0,0,0,0,0,1,,4,2,2,2,0,法国海军在战争末期研制的一型测试鱼雷，在原550毫米鱼雷基础上增加了氧气动力。,0,0
1126,1126,潜水艦魚雷,G7e T10线导鱼雷,2,3,42,5,0,2,0,12,0,0,0,3,0,0,6,0,1,,5,2,2,4,0,德国研制的线导鱼雷，在普通的电雷基础上加装了线导设备，相比声导鱼雷有更高的速度，由于档案缺失，实际效果没有记载。,0,0
1127,1127,艦上爆撃機,A-2,3,5,11,7,24,4,0,0,0,0,5,0,0,0,-3,19,0,,6,11,8,4,30,野人式攻击机最初设计配备给大型航母执行核威慑任务，该机采用混合动力，机体还装有一台喷气发动机。除了执行核攻击任务外，野人也可以搭载常规武器。随着核威慑任务和环境的变化，野人式攻击机凭借其大载荷，更多被用于常规任务和加油等辅助任务。,10,16
1128,1128,司令部施設,Z字旗,12,22,44,30,0,5,3,3,3,3,3,3,3,3,3,3,3,,6,3,3,3,3,Z字旗是航海旗语中的一面，除了普通的航海时的一些含义外，Z字旗也被赋予了决战，好运之类的含义，诸多战斗中都有过悬挂Z字旗激励士气的例子。,0,0
1129,1129,艦上爆撃機,九七式舰攻（80番）,3,5,10,7,1,1,1,0,0,0,4,0,1,0,-2,8,0,,4,2,3,0,9,九七式舰攻携带特制的80番5号炸弹，这种800千克的炸弹用长门主炮的穿甲弹改装而成，尽管命中率并不高，但是穿透力强过很多炸弹，可以击穿战列舰的水平装甲。,4,4
1130,1130,副砲,15.5cm单装高射炮,1,2,6,16,0,1,3,0,6,0,0,0,0,0,1,0,2,,4,0,1,2,0,原设计装于最上和大和的三年式155毫米炮，一些剩余的火炮身管计划被制成单装高射炮，用于对付重型高空轰炸机。,0,0
1131,1131,艦上攻撃機,Avenger,3,5,12,8,26,5,0,6,0,0,10,0,2,0,0,0,0,,5,2,6,0,10,根据租借法案和同盟关系，皇家海军获得了大量进口飞机，在航母上和自产飞机混装使用。复仇者实际上就是进口的TBF系列。,4,7
1132,1132,噴式攻撃機,天河,3,40,59,41,19,1,0,14,3,0,3,1,3,0,1,16,3,,6,2,5,0,4,空技厂开发的银河双发攻击机有着优异的性能，在美国掌握制空权后也是为数不多能有威胁的攻击机。同景云一样，银河也有换装喷气机的计划，这种改进型被称为天河。,7,14
1133,1133,中口径主砲,8inch三联装速射炮 Mk.16,1,1,3,2,0,4,13,0,0,0,0,0,0,0,4,0,3,,6,0,5,7,2,针对重巡8英寸主炮射速不足的问题，美国开发了这种自动装弹机的203主炮，这种主炮的射速是之前型号的3倍，达到了10发每分钟左右。缺点是由于采用全自动状态，所以炮塔重量很大。,0,0
1134,1134,航空爆弾,TinyTim火箭弹,4,45,62,47,0,4,0,0,0,0,0,0,0,0,0,5,2,,6,9,4,0,18,小提姆是一种重型航空火箭弹，直径为11.75英寸（298毫米）。这种威力巨大的重型火箭弹可以由多种舰载机携带，用于射击军舰或者火力支援。,0,0
1135,1135,艦上爆撃機,He119,3,5,11,7,22,2,0,0,2,0,0,0,3,0,0,10,0,,5,4,5,0,12,亨舍尔公司研制的一种高速侦察轰炸机。为了追求高速，采用了双发并联设计，出于减阻采用了表面蒸汽散热。取消飞行员座舱，改在机头透明。其中，HE-119V3改为了水上飞机，由于各种原因，HE-119并没有服役，其中两架飞机和技术被J国购买，并作为参考，设计了景云。,8,9
1136,1136,噴式戦闘機,F2H,3,40,57,41,24,4,2,0,15,0,0,1,0,0,1,0,0,,6,6,6,13,17,F2H是最早的喷气舰载机FD-1的后继型号，相比FD-1，报丧女妖在保留FD-1布局设计的基础上更换了更强的发动机。除了美国外，加拿大也使用过该机，作为早期比较成功的喷气舰载机，由于航空技术发展迅速，报丧女妖很快就被替换了。,9,16
1137,1137,艦上戦闘機,F7F,3,5,9,6,24,4,1,0,9,0,0,2,1,0,2,8,0,,6,5,3,0,12,格鲁曼公司一直试图研制一种双发的舰载机，在不成功的F5F之后，F7F作为配合大型航母的计划继续采用双发设计。F7F虎猫采用了两台F6F地狱猫的发动机，在空中动力充沛，机动惊人，并且有各种多用途改型。虎猫由于起降问题延迟了进度，以至于没有赶上战争，在战后又迅速被喷气机所代替，这一优秀的舰载机没有多少发挥。,7,11
1138,1138,大口径主砲,14inch三联装炮 Mk.11,1,1,4,3,0,4,19,0,2,0,0,0,0,0,3,0,3,,4,0,13,19,0,美国海军对早期服役的14英寸主炮进行了改进，修改了炮管，炮弹等，以加强精度和威力，实战中的表现证明改造是很有效的，精度提升不少。,0,0
1139,1139,大口径主砲,40.6cm/50三联装炮,1,1,4,3,0,7,24,0,1,0,0,0,0,0,1,0,4,,5,0,17,20,0,为苏联级配套研制的406毫米主炮，和其他苏联海军产品一样，该炮也受到了意大利技术的影响，这种炮有着不错的性能，然而初期配套的弹丸不佳，影响了穿深。,0,0
1140,1140,大型電探,DRBC水面火控雷达,5,8,20,11,0,6,3,0,0,0,0,0,6,0,11,0,0,,6,0,0,25,35,DRBC-10A是法国为战列舰主炮研制的火控雷达，用以取代之前的英制产品，相比之前使用的雷达，这种雷达有着更高的精度。黎塞留级都换装了这种新型火控雷达。,0,0
1141,1141,航空魚雷,РAT-52火箭鱼雷,4,46,63,48,0,7,0,5,0,0,0,0,0,0,8,0,2,,6,0,5,4,10,火箭鱼雷在投放之后使用火箭发动机在空中飞行，距离目标较近时入水运行，这样提高了命中率和载机投放速度，相对传统的航空鱼雷更有优势。PAT-52和仿制型广泛装备了各种喷气攻击机,0,0
1142,1142,艦上攻撃機,Ту-91,3,5,13,8,27,7,0,15,1,0,3,0,2,0,2,0,0,,6,3,6,0,10,图-91是苏联配合航母计划研制的舰载攻击机，为了协调速度和航程需求采用了涡桨动力。尽管图-91性能优秀，但是随着苏军高层变动和战略需求变化，最终并没有服役。,8,8
1143,1143,航空魚雷,FFF动力鱼雷,4,46,63,48,0,3,0,3,0,0,0,0,0,0,13,0,0,,5,4,5,0,6,FFF动力炸弹的名称来源于三位设计者的姓名首字母F。这是一种特殊的航空鱼雷，雷头的螺旋桨会让鱼雷入水后，运行轨迹呈现螺旋形（蚊香型）在水里绕圈，相比普通的直航鱼雷，FFF雷轨迹诡异，对于大型船队和港口有着很大的威胁。,0,0
1144,1144,艦上戦闘機,法国D.790,3,5,8,6,25,6,0,0,6,0,0,0,0,0,0,0,0,,3,1,2,0,3,D.790战斗机是F国D.520战斗机的舰载版本，D.520战斗机是F国战争早期的主力战斗机，具备和BF109对抗的能力。D.790采用一台液冷发动机，武器为一门20毫米轴炮加2挺7.5毫米翼枪。,4,5
1145,1145,艦上攻撃機,法国Br.810,3,5,13,8,25,6,0,7,2,0,2,0,0,0,0,0,0,,4,1,3,0,2,BR.810攻击机是陆基双发战斗轰炸BR.693机的舰载版，由于采用双发设计，载弹性能相比之前F国旧式飞机有着较大提升，还具备一定空战能力。,7,5
1146,1146,艦上爆撃機,法国Ln.401,3,5,10,7,25,6,0,0,1,0,1,0,0,0,0,6,0,,3,1,2,0,2,LN.401轰炸机采用类似JU87的倒鸥机翼，是F国30年代末期为航母研制的新一代舰载轰炸机，受限于发动机功率不足的困扰，性能受到一定困扰，在改进的时候F国又意外战败过早。,4,5
1147,1147,噴式戦闘機,青霜,3,40,57,41,19,1,0,0,11,0,0,4,0,0,1,0,0,,5,6,4,9,11,44年航空本部提出研制一种性能类似ME262，使用一台发动机的喷气机计划。一种方案是常规单座，在流线型机体后部布置发动机，一种方案则采用双垂尾。相同之处都是机头集中布置大口径航炮，单座设计。经过对比，第一种方案被采用。不过最终该型战机由于战争结束而停止研制。,3,10
1148,1148,中口径主砲,试制20.3cm SK L/56三联装炮,1,1,3,2,0,2,11,0,1,0,0,0,0,0,2,0,3,,5,0,6,7,0,G国203毫米炮有着弹道低伸，垂直穿深优秀，初速高等特点。以适应作战环境的需求。在G国重巡洋舰设计早期，也有不同联装和口径的多种方案，不过最终出现的是双联方案。,0,0
1149,1149,艦上攻撃機,英国Firebrand,3,5,12,8,26,5,0,10,6,0,5,0,2,0,0,0,0,,5,2,4,0,7,受限于空军和预算等因素，E国海航一直喜欢多用途战斗机，从早期的贼鸥到后期的萤火虫。火把一开始也是作为多用途战斗机设计的，之后还具备了携带鱼雷的能力，可以作为高速鱼雷机使用。虽然总体而言火把还算一种不错的战斗机，但是起降性能不佳，而且出现的太晚。很快就被其他飞机取代。,5,7
1150,1150,機関部強化,新型Yarrow锅炉,6,31,28,21,0,5,0,0,0,0,0,14,0,0,0,0,0,,5,24,0,26,0,改变了供应燃料和结构的锅炉曾经引起了一场动力系统的变革。从女王级开始，海军开始普及这种效率更高的新型锅炉。,0,0
1151,1151,小口径主砲,12.7cm SK C/41联装高角炮,1,1,1,16,0,2,3,0,5,0,0,0,0,0,1,0,1,,4,0,2,2,0,相比计划给大型军舰使用的KM40高炮，驱逐舰版本的128毫米炮缩短了身管以减轻重量。虽然之前150炮威力更大，但是重量过大，射速较慢，不太适合驱逐舰使用。而这种双联高平两用炮是最适合驱逐舰的主炮。,0,0
1152,1152,陸上攻撃機,B-25,21,38,53,39,24,4,0,0,4,0,3,0,3,0,0,16,0,,3,5,6,3,16,B-25原本是陆基双发轰炸机，并不适合航母使用。美国为对日报复，选择了B25对东京进行轰炸的计划。十六架经过改装的B-25，在杜立特的带领下从大黄蜂号起飞轰炸了东京，并在中国降落。这一行动震动了日军高层，并促使其发动了中途岛战役。,7,15
1153,1153,艦上爆撃機,流星（爆装）,3,5,10,7,2,1,0,0,2,0,4,0,1,0,0,11,0,,3,2,5,0,10,流星是日本爱知公司研制的，同时具备舰攻和舰爆能力的新锐舰载攻击机。为了提高性能，流星使用了中岛“誉”发动机，这也是日军疾风和紫电等末期战斗机使用的发动机。流星性能优异且生产性有所提高，但是由于受地震和美军轰炸影响了生产，服役时间太晚，没有登上过航母。,6,7
1154,1154,艦上爆撃機,流星改（爆装）,3,5,10,7,2,1,0,0,2,0,3,0,2,0,0,14,0,,4,2,6,0,10,流星是日本爱知公司研制的，同时具备舰攻和舰爆能力的新锐舰载攻击机。为了提高性能，流星使用了中岛“誉”发动机，这也是日军疾风和紫电等末期战斗机使用的发动机。流星性能优异且生产性有所提高，但是由于受地震和美军轰炸影响了生产，服役时间太晚，没有登上过航母。,6,7
1155,1155,艦上爆撃機,流星（爆装/六〇一空）,3,5,10,7,2,1,0,0,2,0,5,0,3,0,1,14,0,,5,2,6,0,10,流星是日本爱知公司研制的，同时具备舰攻和舰爆能力的新锐舰载攻击机。为了提高性能，流星使用了中岛“誉”发动机，这也是日军疾风和紫电等末期战斗机使用的发动机。流星性能优异且生产性有所提高，但是由于受地震和美军轰炸影响了生产，服役时间太晚，没有登上过航母。,6,7
1156,1156,小口径主砲,5inch联装炮 Mk.38+GFCS,1,1,1,18,0,4,4,0,9,0,0,1,0,0,2,0,1,,5,0,3,4,2,MK.28-30型双联5英寸（127毫米）炮是美国单127炮的双联版本，这种炮使用也非常广泛：战列舰和巡洋舰的副炮，基林级驱逐舰的主炮，该炮同样也有单装型号俯仰快，射速高的优点。MK.38和各种亚型是美军防空火力网的重要部分，在舰队防空中负责中远距离，当然该炮的对海火力也很凶猛。,0,0
1157,1157,小口径主砲,5inch单装炮 Mk.39,1,1,1,16,0,4,2,0,6,0,0,0,0,0,0,0,1,,4,0,1,3,0,Mk.16型54倍径5英寸炮是38倍径5英寸炮的改进型，搭载于战后的驱逐舰和中途岛级航空母舰上。《高校舰队》中的晴风也搭载过这一主炮。,0,0
1158,1158,小口径主砲,5inch单装炮 Mk.39+GFCS,1,1,1,18,0,4,2,0,8,0,0,0,0,0,2,0,1,,5,0,1,3,2,Mk.16型54倍径5英寸炮是38倍径5英寸炮的改进型，搭载于战后的驱逐舰和中途岛级航空母舰上，与火控系统联动时具有卓越的对空射击能力。,0,0
1159,1159,艦上戦闘機,P-38（CAPCOM机）,3,5,9,6,24,4,3,0,13,0,0,3,0,0,3,0,0,,6,5,5,1,11,知道1942是什么的就会知道是什么东西,7,10
1160,1160,中口径主砲,试制20.3cm（3号）三联装炮,1,1,3,2,0,1,12,0,4,0,0,0,0,0,3,0,2,,5,0,3,5,0,由于丸四和丸五计划中没有建造重巡洋舰的计划，日本海军决定在丸六计划中建造一批新的重巡洋舰，此炮是该类重巡洋舰可能搭载的主炮。由于中途岛海战中日本战败，这一计划最终被废弃。,0,0
9001,0,小口径主砲,5inch単装砲,1,1,1,1,0,0,1,0,0,0,0,0,0,0,0,0,1,,1,0,0,0,0,,0,0
9002,0,小口径主砲,5inch連装砲,1,1,1,1,0,0,2,0,0,0,0,0,0,0,0,0,1,,1,0,0,0,0,,0,0
9003,0,小口径主砲,3inch単装高角砲,1,1,1,16,0,0,1,0,1,0,0,0,0,0,0,0,1,,3,0,0,0,0,,0,0
9004,0,中口径主砲,5inch単装高射砲,1,1,2,2,0,0,2,0,2,0,0,0,0,0,0,0,2,,1,0,0,0,0,,0,0
9005,0,中口径主砲,8inch三連装砲,1,1,2,2,0,0,8,0,2,0,0,0,0,0,0,0,2,,1,0,0,0,0,,0,0
9006,0,中口径主砲,6inch連装速射砲,1,1,2,2,0,0,3,0,3,0,0,0,0,0,0,0,2,,1,0,0,0,0,,0,0
9007,0,大口径主砲,14inch連装砲,1,1,3,3,0,0,10,0,4,0,0,0,0,0,0,0,3,,1,0,0,0,0,,0,0
9008,0,大口径主砲,16inch連装砲,1,1,3,3,0,0,15,0,4,0,0,0,0,0,0,0,3,,2,0,0,0,0,,0,0
9009,0,大口径主砲,16inch三連装砲,1,1,3,3,0,0,20,0,5,0,0,0,0,0,0,0,3,,3,0,0,0,0,,0,0
9010,0,副砲,5inch単装高射砲,1,2,4,16,0,0,1,0,2,0,0,0,0,0,0,0,1,,1,0,0,0,0,,0,0
9011,0,副砲,6inch単装砲,1,2,4,4,0,0,1,0,0,0,0,0,0,0,0,0,2,,1,0,0,0,0,,0,0
9012,0,副砲,5inch連装副砲,1,2,4,4,0,0,7,0,3,0,0,0,0,0,0,0,2,,2,0,0,0,0,,0,0
9013,0,魚雷,21inch魚雷前期型,2,3,5,5,0,0,0,2,0,0,0,0,0,0,0,0,1,,1,0,0,0,0,,0,0
9014,0,魚雷,21inch魚雷後期型,2,3,5,5,0,0,0,5,0,0,0,0,0,0,0,0,1,,1,0,0,0,0,,0,0
9015,0,魚雷,高速深海魚雷,2,3,5,5,0,0,0,10,0,0,0,0,0,0,0,0,1,,2,0,0,0,0,,0,0
9016,0,艦上攻撃機,深海棲艦攻,3,5,8,8,0,0,0,4,0,0,2,0,5,0,0,0,0,,1,0,0,0,0,,0,0
9017,0,艦上攻撃機,深海棲艦攻 Mark.II,3,5,8,8,0,0,0,6,0,0,4,0,5,0,0,0,0,,2,0,0,0,0,,0,0
9018,0,艦上攻撃機,深海棲艦攻 Mark.III,3,5,8,8,0,0,0,11,4,0,7,0,5,0,0,0,0,,3,0,0,0,0,,0,0
9019,0,艦上戦闘機,深海棲艦戦,3,5,6,6,0,0,0,0,2,0,0,0,0,0,0,0,0,,1,0,0,0,0,,0,0
9020,0,艦上戦闘機,深海棲艦戦 Mark.II,3,5,6,6,0,0,0,0,5,0,0,0,0,0,0,0,0,,1,0,0,0,0,,0,0
9021,0,艦上戦闘機,深海棲艦戦 Mark.III,3,5,6,6,0,0,0,0,9,0,0,0,0,0,0,0,0,,2,0,0,0,0,,0,0
9022,0,艦上戦闘機,飛び魚艦戦,3,5,6,6,0,0,0,0,13,0,0,0,0,0,0,0,0,,4,0,0,0,0,,0,0
9023,0,艦上爆撃機,深海棲艦爆,3,5,7,7,0,0,0,0,0,0,1,0,0,0,0,3,0,,1,0,0,0,0,,0,0
9024,0,艦上爆撃機,深海棲艦爆 Mark.II,3,5,7,7,0,0,0,0,0,0,2,0,0,0,0,6,0,,2,0,0,0,0,,0,0
9025,0,水上偵察機,深海棲艦偵察機,5,7,10,10,0,0,0,0,1,0,1,0,5,0,0,1,0,,1,0,0,0,0,,0,0
9026,0,水上偵察機,飛び魚偵察機,5,7,10,10,0,0,0,0,2,0,2,0,10,0,0,4,0,,2,0,0,0,0,,0,0
9027,0,小型電探,対空レーダ― Mark.I,5,8,12,11,0,0,0,0,5,0,0,0,5,0,5,0,0,,2,0,0,0,0,,0,0
9028,0,小型電探,水上レーダ― Mark.I,5,8,12,11,0,0,0,0,0,0,0,0,5,0,10,0,0,,2,0,0,0,0,,0,0
9029,0,小型電探,水上レーダ― Mark.II,5,8,12,11,0,0,0,0,0,0,0,0,10,0,15,0,0,,3,0,0,0,0,,0,0
9030,0,大型電探,対空レーダ― Mark.II,5,8,13,11,0,0,0,0,10,0,0,0,10,0,5,0,0,,3,0,0,0,0,,0,0
9031,0,大型電探,深海水上レーダー,5,8,13,11,0,0,0,0,5,0,5,3,16,0,24,0,0,,4,0,0,0,0,,0,0
9032,0,大型電探,深海対空レーダ―,5,8,13,11,0,0,0,0,18,0,5,2,12,0,16,0,0,,5,0,0,0,0,,0,0
9033,0,機関部強化,改良型深海タービン,6,9,17,19,0,0,0,0,0,0,0,10,0,0,0,0,0,,1,0,0,0,0,,0,0
9034,0,機関部強化,強化型深海缶,6,9,17,19,0,0,0,0,0,0,0,15,0,0,0,0,0,,2,0,0,0,0,,0,0
9035,0,対空強化弾,対空散弾,4,6,18,12,0,0,0,0,10,0,0,0,0,0,0,0,0,,1,0,0,0,0,,0,0
9036,0,対艦強化弾,劣化徹甲弾,4,25,19,13,0,0,15,0,0,0,0,0,0,0,5,0,0,,2,0,0,0,0,,0,0
9037,0,対空機銃,12.7mm機銃,4,6,21,15,0,0,0,0,2,0,0,0,0,0,0,0,0,,1,0,0,0,0,,0,0
9038,0,対空機銃,20mm機銃,4,6,21,15,0,0,0,0,4,0,0,0,0,0,0,0,0,,1,0,0,0,0,,0,0
9039,0,対空機銃,40mm二連装機関砲,4,6,21,15,0,0,0,0,8,0,0,0,0,0,0,0,0,,2,0,0,0,0,,0,0
9040,0,対空機銃,40mm四連装機関砲,4,6,21,15,0,0,0,0,12,0,0,0,0,0,0,0,0,,3,0,0,0,0,,0,0
9041,0,特殊潜航艇,深海烏賊魚雷,2,3,22,5,0,0,0,18,0,0,0,0,0,0,5,0,1,,5,0,0,0,0,,0,0
9042,0,爆雷,深海爆雷投射機,7,9,15,17,0,0,0,0,0,0,7,0,0,0,0,0,0,,3,0,0,0,0,,0,0
9043,0,ソナー,深海ソナー,7,10,14,18,0,0,0,0,0,0,9,0,0,0,0,0,0,,3,0,0,0,0,,0,0
9044,0,爆雷,深海爆雷投射機 Mk.II,7,9,15,17,0,0,0,0,0,0,13,0,0,0,0,0,0,,4,0,0,0,0,,0,0
9045,0,ソナー,深海ソナー Mk.II,7,10,14,18,0,0,0,0,0,0,16,0,0,0,0,0,0,,4,0,0,0,0,,0,0
9046,0,艦上爆撃機,飛び魚艦爆,3,5,7,7,0,0,0,0,8,0,7,0,0,0,0,10,0,,4,0,0,0,0,,0,0
9047,0,艦上戦闘機,深海猫艦戦,3,5,6,6,0,0,0,0,10,0,0,0,0,0,1,0,0,,4,0,0,0,0,,0,0
9048,0,艦上爆撃機,深海地獄艦爆,3,5,7,7,0,0,0,0,0,0,4,0,3,0,3,11,0,,4,0,0,0,0,,0,0
9049,0,艦上攻撃機,深海復讐艦攻,3,5,8,8,0,0,0,13,4,0,5,0,5,0,2,0,0,,4,0,0,0,0,,0,0
9050,0,小口径主砲,5inch連装両用莢砲,1,1,1,16,0,0,2,0,9,0,0,0,0,0,3,0,2,,4,0,0,0,0,,0,0
9051,0,大口径主砲,20inch連装砲,1,1,3,3,0,0,27,0,4,0,0,0,0,0,3,0,3,,5,0,0,0,0,,0,0
9052,0,大口径主砲,15inch要塞砲,1,1,3,3,0,0,13,0,0,3,0,0,0,0,4,0,3,,3,0,0,0,0,,0,0
9053,0,小口径主砲,4inch連装両用砲+CIC,1,1,1,16,0,0,5,0,15,0,0,0,0,0,5,0,2,,5,0,0,0,0,,0,0
9054,0,水上爆撃機,深海水上攻撃機,5,7,11,10,0,0,0,0,4,0,8,0,6,0,1,8,0,,3,0,0,0,0,,0,0
9055,0,水上爆撃機,深海水上攻撃機改,5,7,11,10,0,0,0,0,9,0,10,0,7,0,3,13,0,,5,0,0,0,0,,0,0
9056,0,艦上戦闘機,深海猫艦戦改,3,5,6,6,0,0,0,0,12,0,0,2,0,0,2,0,0,,5,0,0,0,0,,0,0
9057,0,艦上爆撃機,深海地獄艦爆改,3,5,7,7,0,0,0,0,0,0,8,0,5,0,4,15,0,,5,0,0,0,0,,0,0
9058,0,艦上攻撃機,深海復讐艦攻改,3,5,8,8,0,0,0,16,5,0,9,0,6,0,3,0,0,,5,0,0,0,0,,0,0
9059,0,ソナー,深海FCS+CIC,7,10,14,18,0,0,0,0,6,0,20,3,3,0,5,0,0,,4,0,0,0,0,,0,0
9060,0,探照灯,深海探照灯,8,18,29,24,0,0,2,0,0,0,0,0,2,0,0,0,0,,2,0,0,0,0,,0,0
9061,0,艦上爆撃機,深海解放陸爆,3,5,7,7,0,0,0,0,3,0,5,0,3,0,1,11,0,,3,0,0,0,0,,0,0
9062,0,艦上爆撃機,深海解放陸爆Ace,3,5,7,7,0,0,0,0,5,0,7,0,4,0,2,16,0,,4,0,0,0,0,,0,0
9063,0,中口径主砲,8inch長射程連装砲,1,1,2,2,0,0,8,0,1,0,0,0,0,0,-1,0,3,,5,0,0,0,0,,0,0
9064,0,水上偵察機,深海水上偵察観測機,5,7,10,10,0,0,0,0,2,0,2,0,5,0,5,0,0,,4,0,0,0,0,,0,0
9065,0,小口径主砲,5inch沿岸設置砲,1,1,1,1,0,0,3,0,0,2,0,0,0,0,3,0,2,,3,0,0,0,0,,0,0
9066,0,艦上爆撃機,深海猫艦戦(爆装),3,5,7,7,0,0,0,0,7,0,2,0,0,0,2,8,0,,4,0,0,0,0,,0,0
9067,0,大型電探,沿岸設置レーダー,5,8,13,11,0,0,0,0,4,0,0,0,8,0,16,0,0,,4,0,0,0,0,,0,0
9068,0,大口径主砲,16inch三連装砲,1,1,3,3,0,0,24,0,3,1,0,0,0,0,4,0,3,,6,0,0,0,0,,0,0
9069,0,水上偵察機,深海偵察飛行艇,5,7,10,10,0,0,3,0,1,0,2,0,9,0,8,0,0,,5,0,0,0,0,,0,0
9070,0,特殊潜航艇,高速深海魚雷 mod.2,2,3,22,5,0,0,0,13,0,0,0,0,0,0,3,0,1,,5,0,0,0,0,,0,0
9071,0,水上爆撃機,深海水母小鬼機,5,7,11,10,0,0,4,0,11,4,15,0,8,0,8,15,4,,6,0,0,0,0,,0,0
9072,0,艦上戦闘機,深海熊猫艦戦,3,5,6,6,0,0,8,0,18,8,0,8,0,0,8,0,0,,6,0,0,0,0,,0,0
9073,0,水上爆撃機,深海潜水下駄履き,5,7,11,10,0,0,6,0,6,3,9,6,3,0,12,18,4,,6,0,0,0,0,,0,0
9074,0,艦上攻撃機,深海攻撃哨戒鷹,3,5,8,8,0,0,3,0,8,3,22,3,3,0,8,14,4,,6,0,0,0,0,,0,0
9075,0,艦上攻撃機,深海攻撃哨戒鷹改,3,5,8,8,0,0,5,0,9,3,27,4,3,0,9,18,4,,6,0,0,0,0,,0,0
9076,0,大口径主砲,深海12inch三連装砲,1,1,3,3,0,0,16,0,3,2,0,2,0,0,9,0,3,,5,0,0,0,0,,0,0
