			[0]：大分類
				 1=砲
				 2=魚雷
				 3=艦載機
				 4=機銃・特殊弾(対空系)
				 5=水上機・電探(索敵系)
				 6=強化
				 7=対潜装備
				 8=大発動艇・探照灯
				 9=簡易輸送部材
				10=艦艇修理施設
				11=照明弾
				12=司令部施設
				13=航空要員
				14=高射装置
				15=対地装備
				16=水上艦要員
				17=大型飛行艇
				18=戦闘糧食
				19=補給物資
				20=特型内火艇
				21=陸上攻撃機
				22=局地戦闘機
				23=輸送機材
				24=潜水艦装備
				25=発煙筒

			[1]：図鑑表示
				 1=Primary Armament
				 2=Secondary Armament
				 3=Torpedo
				 4=Midget Submarine
				 5=Carrier-Based Aircraft
				 6=AA Gun
				 7=Reconnaissance
				 8=Radar
				 9=Upgrades
				10=Sonar
				14=Daihatsu
				15=Autogyro
				16=AntiSubmarine Patrol
				17=Extension Armor
				18=Searchlight
				19=Supply
				20=Machine Tools
				21=Flare
				22=Fleet Command
				23=Maintenance Team
				24=AA Director
				25=AP Shell
				26=Rocket Artillery
				27=Picket Crew
				28=AA Shell
				29=AA Rocket
				30=Damage Control
				31=Engine Upgrades
				32=Depth Charge
				33=Flying Boat
				34=Ration
				35=Supply
				36=Multi-purpose Seaplane
				37=Amphibious Vehicle
				38=Land Attacker
				39=Interceptor
				40=Jet Fighting Bomber
				41=Transport Materials
				42=Submarine Equipment
				43=Multi-purpose Seaplane
				44=Smoke Track
				45=Aerial Bomb
				46=Aerial Torpedo

				 1=主砲
				 2=副砲
				 3=魚雷
				 4=特殊潜航艇
				 5=艦上機
				 6=対空機銃
				 7=偵察機
				 8=電探
				 9=強化
				10=ソナー
				14=上陸用舟艇
				15=オートジャイロ
				16=対潜哨戒機
				17=追加装甲
				18=探照灯
				19=簡易輸送部材
				20=艦艇修理施設
				21=照明弾
				22=司令部施設
				23=航空要員
				24=高射装置
				25=対艦強化弾
				26=対地装備
				27=水上艦要員
				28=対空強化弾
				29=対空ロケットランチャー
				30=応急修理要員
				31=機関部強化
				32=爆雷
				33=大型飛行艇
				34=戦闘糧食
				35=補給物資
				36=水上戦闘機
				37=特型内火艇
				38=陸上攻撃機
				39=局地戦闘機
				40=噴式機
				41=輸送機材
				42=潜水艦装備
				43=水上爆撃機
				44=発煙筒
				45=航空爆弾
				46=航空魚雷

			[2]：カテゴリ
				(api_mst_slotitem_equiptype を参照)
				 1=小口径主砲
				 2=中口径主砲
				 3=中口径主砲(II)
				 4=大口径主砲
				 5=大口径主砲(II)
				 6=副砲
				 7=魚雷
				 8=艦上戦闘機
				 9=艦上戦闘機(II)
				10=艦上爆撃機
				11=艦上爆撃機(II)
				12=艦上攻撃機
				13=艦上攻撃機(II)
				14=艦上偵察機
				15=艦上偵察機(II)
				16=水上偵察機
				17=水上爆撃機
				18=水上戦闘機
				19=小型電探
				20=大型電探
				21=大型電探(II)
				22=ソナー
				23=大型ソナー
				24=爆雷
				25=追加装甲(小型)
				26=追加装甲(中型)
				27=追加装甲(大型)
				28=機関部強化
				29=対空強化弾
				30=対艦強化弾
				31=VT信管
				32=対空機銃
				33=特殊潜航艇
				34=応急修理要員
				35=上陸用舟艇
				36=オートジャイロ
				37=対潜哨戒機
				38=探照灯
				39=大型探照灯
				40=簡易輸送部材
				41=艦艇修理施設
				42=潜水艦魚雷
				43=照明弾
				44=司令部施設
				45=航空要員
				46=高射装置
				47=対地装備
				48=水上艦要員
				49=大型飛行艇
				50=戦闘糧食
				51=補給物資
				52=特型内火艇
				53=陸上攻撃機
				54=局地戦闘機
				55=輸送機材
				56=潜水艦装備
				57=噴式戦闘機
				58=噴式戦闘爆撃機
				59=噴式攻撃機
				60=噴式偵察機
				61=発煙筒
				62=航空爆弾
				63=航空魚雷
				

			[3]：アイコンID
				 1=小口径主砲
				 2=中口径主砲
				 3=大口径主砲
				 4=副砲
				 5=魚雷
				 6=艦上戦闘機
				 7=艦上爆撃機
				 8=艦上攻撃機
				 9=艦上偵察機
				10=水上機
				11=電探
				12=対空強化弾
				13=対艦強化弾
				14=応急修理要員
				15=対空機銃
				16=高角砲
				17=対空機銃(強化)
				18=高角砲(高射装置)
				19=爆雷
				20=ソナー
				21=機関部強化
				22=上陸用舟艇
				23=オートジャイロ
				24=対潜哨戒機
				25=追加装甲
				26=探照灯
				27=簡易輸送部材
				28=艦艇修理施設
				29=照明弾
				30=司令部施設
				31=航空要員
				32=高射装置
				33=対地装備
				34=水上艦要員
				35=大型飛行艇
				36=戦闘糧食
				37=補給物資
				38=特型内火艇
				39=陸上攻撃機
				40=局地戦闘機
				41=噴式機
				42=輸送機材
				43=潜水艦装備
				44=水上戦闘機
				45=陸軍戦闘機
				46=発煙筒
				47=航空爆弾
				48=航空魚雷
				

			[4]: 航空機カテゴリ
				 0=非航空機
				 1=九七式艦攻/天山
				 2=流星
				 3=九六式艦戦
				 4=零戦前期型
				 5=零戦後期型
				 6=烈風
				 7=九九式艦爆
				 8=彗星/二式艦上偵察機
				 9=彩雲
				10=紫電
				11=震電改
				12=水上偵察機/水上爆撃機
				13=水上戦闘機
				14=強風改
				15=陸上攻撃機
				16=局地戦闘機
				17=大型飛行艇
				18=試作機
				19=噴式機
				20=陸軍対潜機
				21=一式戦
				22=独飛行機
				23=伊飛行機
				24=米飛行機
				25=仏飛行機
				26=英飛行機
				27=ソ飛行機
				28=中飛行機
				

			[5]: 国籍カテゴリ
				 1=日本
				 2=ドイツ
				 3=イタリア
				 4=米国
				 5=英国
				 6=フランス
				 7=ソ連
				 8=中国
