====================================================================
[  1] 零式舰战52型 x2 + 流星 + 烈风 + 钢1500 -> 喷气发动机
[  2] 試制景云(舰侦型) + 流星 + 烈风 + 喷气发动机 -> 景云改
[  3] 紫电改二 x3 + 喷气发动机 + 钢1100 + 铝500 -> 橘花改
[  4] 银河 + 喷气发动机 + 钢1350 + 铝800 -> 天河
[  5] F4F-4野猫 九四式爆雷投射机 + 弹300 + 铝200 -> FM-2
[  6] TBF复仇者 三式爆雷投射机 + 弹250 + 铝350 -> TBM-3 复仇者
[  7] TBF复仇者 三式爆雷投射机 + 弹350 + 铝250 -> 复仇者
[  8] 流星 + 弹250 + 铝100 -> 流星（爆装）
[  9] 流星改 + 弹350 + 铝250 -> 流星改（爆装）
[ 10] 流星(六〇一空) + 弹250 + 铝100 -> 流星(六〇一空)（爆装）
[ 11] 流星（爆装） + 弹250 + 铝100 -> 流星
[ 12] 流星改（爆装） + 弹350 + 铝250 -> 流星改
[ 13] 流星(六〇一空)（爆装） + 弹250 + 铝100 -> 流星(六〇一空)
====================================================================
[  1] 12.7cm连装炮 x3 -> 12.7cm连装炮B型改二
[  2] 12.7cm连装炮 x3 -> 12.7cm连装高角炮
[  3] 12.7cm连装炮 x3 -> 12.7cm连装高角炮（後期型）
[  4] 12.7cm连装高角炮 x2 + 94式高射装置 -> 12.7cm高角炮＋高射装置
[  5] 10cm连装高角炮 x2 + 94式高射装置 -> 10cm高角炮＋高射装置
[  6] 14cm单装炮 x3 -> 14cm连装炮
[  7] 15.2cm单装炮 x3 -> 15.2cm连装炮
[  8] 15.2cm连装炮 x2 + 22号对水上电探 -> 15.2cm连装炮改
[  9] 20.3cm连装炮 x3 -> 20.3cm(2号)连装炮
[ 10] 20.3cm(2号)连装炮 x3 -> 20.3cm(3号)连装炮
[ 11] 35.6cm连装炮 x3 -> 试制35.6cm三连装炮
[ 12] 35.6cm连装炮 x3 -> 35.6cm连装炮(眩晕迷彩)
[ 13] 38cm SK C/34 连装炮 + 35.6cm连装炮 x 2 -> 38cm SK C/34 连装炮改
[ 14] OTO/Ansaldo 381mm/50 Mod.1934 三连装炮 + 25mm连装机枪 x 2 -> OTO/Ansaldo 381mm/50 Mod.1934 三连装炮改
[ 15] 41cm连装炮 x 3 -> 试制41cm三连装炮
[ 16] 试制46cm连装炮 + 41cm连装炮 x 2 -> 46cm三连装炮
[ 17] 46cm三连装炮 x 3 -> 试制51cm连装炮
[ 18] 25mm连装机枪 x 3 -> 25mm三连装机枪
[ 19] 25mm三连装机枪 x 3 -> 25mm三连装机枪 集中配备
[ 20] 91式高射装置 + 12.7cm连装高角炮 x 2 -> 94式高射装置
[ 21] 61cm三连装鱼雷 x 3 -> 61cm三连装酸素鱼雷
[ 22] 61cm三连装酸素鱼雷 x 2 + 61cm四连装鱼雷-> 61cm四连装酸素鱼雷
[ 23] 61cm四连装鱼雷 x 3 -> 61cm四连装酸素鱼雷
[ 24] 61cm四连装酸素鱼雷 x 3 -> 61cm五连装酸素鱼雷
[ 25] 13号对空电探 x 2 + 21号对空电探 -> 13号对空电探改
[ 26] 22号对水上电探 x 4 -> 22号对水上电探改四
[ 27] 21号对空电探 x 3 -> 21号对空电探改
[ 28] 32号对水上电探 x 3 -> 32号対水上电探改
[ 29] 九三式水中听音机 x 3 -> 三式水中探信仪
[ 30] 九三式水中听音机 x 2 + 三式水中探信仪 -> 四式水中听音机
[ 31] 九四式爆雷投射机 x 2 -> 三式爆雷投射机
[ 32] 大发动艇 + 油桶（运输用） + 7.7mm机枪 + 12.7mm单装机枪 -> 大发动艇 (八九式中战车＆陆战队)
[ 33] 大发动艇 (八九式中战车＆陆战队) + 25mm单装机枪 + 12cm30连装喷进炮 + 7.7mm机枪 -> 特二式内火艇
[ 34] 大发动艇 (八九式中战车＆陆战队) + 7.7mm机枪 x2 + 12.7mm单装机枪 x2 -> 特二式内火艇
[ 35] 九一式穿甲弹 x2 -> 一式穿甲弹
[ 36] 探照灯 x2 + 熟练见张员 -> 96式150cm探照灯
[ 37] 九七式舰攻 x3 -> 九七式舰攻(熟练)
[ 38] 九九式舰爆 x3 -> 九九式舰爆(熟练)
[ 39] 流星 x3 -> 流星改
[ 40] 烈风 x3 -> 烈风改
[ 41] 彗星 x3 -> 彗星一二型甲
[ 42] 九七式舰攻(友永队) + 天山 x2 -> 天山一二型(友永队)
[ 43] 九九式舰爆(江草队) + 彗星 x2 -> 彗星(江草队)
[ 44] 九七式舰攻(熟练) + 九七式舰攻 x2 -> 九七式舰攻(村田队)
[ 45] 九七式舰攻(熟练) + 九七式舰攻 x2 -> 天山一二型(友永队)
[ 46] 九九式舰爆(熟练) + 九九式舰爆 x2 -> 九九式舰爆(江草队)
[ 47] 九七式舰攻(村田队) + 天山 x2 -> 天山(村田队)
[ 48] 九六式舰战 + 零式舰战21型 x2 -> 零式舰战21型(熟练)
[ 49] 九六式舰战 x2 + 7.7mm机枪 -> 零式舰战21型
[ 50] 零式舰战52型丙(六〇一空) + 烈风 x2 -> 烈风(六〇一空)
[ 51] 零式舰战52型丙(六〇一空) + 零战52型(熟练) x2 -> 零战52型丙(付岩井小队)
[ 52] 零战52型丙(付岩井小队) + 零式舰战62型(爆战) x2 -> 零战62型(爆战/岩井队)
[ 53] 零式舰战21型(熟练) + 零式舰战21型 x2 -> 零战21型(付岩本小队)
[ 54] 零战21型(付岩本小队) + 零式舰战52型 x2 -> 零战52型甲(付岩本小队)
[ 55] 零战52型甲(付岩本小队) + 彩云 x2 -> 零战53型(岩本队)
[ 56] 零式水上侦察机 x3 -> 二式水战改
[ 57] 零式水上侦察机 x2 + 零式舰战21型 -> 二式水战改
[ 58] Ro.43水侦 + 零式水上侦察机 x2 -> Ro.44水上战斗机
[ 59] Ro.43水侦 + 瑞云 x2 -> Ro.44水上战斗机
[ 60] 瑞云 x3 -> 瑞云12型
[ 61] 瑞云(六三四空) + 瑞云12型 x2 -> 瑞云12型(六三四空)
[ 62] 零式舰战21型 x2 + 7.7mm机枪 -> 零式舰战32型
[ 63] 零式舰战32型 x3 -> 零式舰战52型
[ 64] 零式舰战21型(熟练) + 零式舰战32型 x2 -> 零式舰战32型(熟练)
[ 65] 零式舰战32型(熟练) + 零式舰战52型 x2 -> 零战52型(熟练)
[ 66] Ro.43水侦 + 零式水上侦察机 + 瑞云 -> Ro.44水上战斗机
[ 67] 61cm五连装酸素鱼雷 x3 -> 试制61cm六连装酸素鱼雷
[ 68] 16”/50 Mk7 三连装炮 + 41cm连装炮 + 32号对水上电探 -> 16”/50 Mk7 三连装炮＋GFCS
[ 69] 九六式舰战 + 7.7mm机枪 x2 + 油桶（运输用） x2 -> 九六式陆攻
[ 70] 九九式舰爆 x2 + 7.7mm机枪 x2 -> 九六式陆攻
[ 71] 九六式陆攻 + 九七式舰攻 x2 + 零式舰战21型 x2 -> 一式陆攻
[ 72] 一式陆攻 + 天山 x2 -> 一式陆攻 二二型甲
[ 73] 大发动艇 x4 -> 特大发动艇
[ 74] F2A水牛 + 九六式舰战 x2 -> F4F-3野猫
[ 75] F4F-3野猫 + 九六式舰战 + 12.7mm单装机枪 x2 -> F4F-4野猫
[ 76] F4F-4野猫 + 零式舰战21型 + 零式舰战32型 + 零式舰战52型 -> F6F-3地狱猫
[ 77] F6F-3地狱猫 + 零式舰战52型 + 零式舰战62型(爆战) -> F7F虎猫
[ 78] 零式水上侦察机 x3 + 一式陆攻 + 彩云 -> 試制景云(舰侦型)
[ 79] 九七式舰攻(九三一空) + 天山 x2 -> 天山(九三一空)
[ 80] 九七式舰攻(熟练) + 九一式穿甲弹 -> 九七式舰攻（80番）
[ 81] Ar196 + 零式水上侦察机 x2 -> Ar196改
[ 82] 增设突出部(大型舰) x2 -> 舰本新设计 增设突出部(大型舰)
[ 83] 强化型ロ号舰本式锅炉 x2 -> 新型高温高压ロ号锅炉
[ 84] 流星（爆装） x3 -> 流星改（爆装）
[ 85] 天山(六〇一空) + 流星 x2 -> 流星(六〇一空)
[ 86] 彗星(六〇一空) + 流星（爆装） x2 -> 流星(六〇一空)（爆装）
[ 87] 瑞云(六三一空) + 试制晴岚 -> 晴岚(六三一空)
[ 88] 增设突出部(中型舰) x2 -> 舰本新设计 增设突出部(中型舰)
[ 89] 22号对水上电探改四 + 13号对空电探 x2 -> 潜水艇用电探&防水望远镜
[ 90] 潜水艇用电探&防水望远镜 + 22号对水上电探 + 熟练见张员 -> 潜水艇用电探&逆探(E27)
[ 91] 潜水艇用电探&防水望远镜 + FuMB雷达告警装置 -> 潜水艇用电探&逆探(E27)
[ 92] 61cm三连装鱼雷 x 2 + 61cm四连装酸素鱼雷 x 2 + 九三式水中听音机 -> 后期型舰首鱼雷(6门)
[ 93] 潜水艇53cm舰首鱼雷 + 九三式水中听音机 x2 -> 后期型舰首鱼雷(6门)
[ 94] 后期型舰首鱼雷(6门) + 四式水中听音机 -> 后期型舰首鱼雷(6门) + 熟练听音员
[ 95] 12.7cm连装高角炮 x 3 -> 8cm连装高角炮
[ 96] 8cm连装高角炮 + 10cm连装高角炮 x 2 25mm单装机枪 x 2 -> 8cm连装高角炮改+增设机枪
[ 97] 8cm连装高角炮 + 10cm连装高角炮 x 2 25mm连装机枪 -> 8cm连装高角炮改+增设机枪
[ 98] 8cm连装高角炮 + 10cm连装高角炮 x 2 25mm三连装机枪 -> 8cm连装高角炮改+增设机枪
[ 99] 二式水战改 + 零式舰战21型 x 2 + 瑞云 x 2 -> 二式水战改(熟练)
[100] 二式水战改(熟练) + 零式舰战32型 + 瑞云 x 2 -> 强风改
[101] Ro.44水上战斗机 + 瑞云 x 2 -> Ro.44水上战斗机bis
[103] 零式舰战62型(爆战) + 零式舰战52型 x 2 + 彗星 x 2 -> 零式舰战63型(爆战)
[701] 38cm SK C/34 连装炮改 + 35.6cm连装炮 x2 -> 40.6cm SK C/34 连装炮
[702] 380mm/45 Modèle 1935 四连装炮(炸膛) + 35.6cm连装炮 -> 380mm/45 Modèle 1935 四连装炮
[703] 16” BL Mk.I 三连装炮 + 41cm连装炮 -> 16” BL Mk.I/N 三连装炮改
[704] 16” BL Mk.I/N 三连装炮改 + 35.6cm连装炮 + 41cm连装炮 -> 16” BL Mk.II 三连装炮
[705] 6” BL Mk.XII 单装炮 + 15.2cm连装炮 x2 -> 6” BL Mk.XII 连装炮
[706] 15” BL MK.I 连装炮 + 35.6cm连装炮 -> 15” BL Mk.I/N 连装炮改
[707] 15” BL Mk.I/N 连装炮改 + 35.6cm连装炮 + 41cm连装炮 -> 试制15” BL Mk.I 三连装炮
[708] 5”/38 Mk12 单装平高两用炮 Mk.30 + 12cm单装炮 x2 -> 5”/38 Mk12 连装平高两用炮 Mk.38
[709] 8”/55 Mk14 三连装炮 + 超重弹 -> 8”/55 Mk12 三连装炮 (重弹)
[710] 16”/45 Mk1 连装炮 + 35.6cm连装炮 -> 16”/45 Mk5 连装炮
[711] 16”/45 Mk5 连装炮 + 35.6cm连装炮 + 41cm连装炮 -> 16”/45 Mk6 三连装炮
[712] 16”/45 Mk6 三连装炮 + 41cm连装炮 x2 -> 16”/50 Mk7 三连装炮
[713] 21”三连装鱼雷 x3 -> 21”四连装鱼雷
[714] 21”四连装鱼雷 x3 -> 21”五连装鱼雷
[715] 21”五连装鱼雷 + 21”四连装鱼雷 x2 -> 21” Mk17 五连装鱼雷
[716] 海喷火 x3 -> 海喷火MKXV
[717] 2pd. QF 四连装砰砰炮 x3 -> 2pd. QF八连装砰砰炮
[718] Bofors 40mm二连装机关炮 x3 -> Bofors 40mm四连装机关炮
[719] Bofors 40mm四连装机关炮 x2 -> Bofors 40mm六连装机关炮
[720] Bofors 40mm四连装机关炮 + Bofors 40mm二连装机关炮 x2 -> Bofors 40mm六连装机关炮
[721] 8”/55 Mk14 三连装炮 +20.3cm连装炮 +22号对水上电探 -> 8”/55 Mk16 三连装自动炮
[722] 15.5cm单装高角炮 x 3 -> 15.5cm三连装炮
[723] 15.5cm单装高角炮 x 3 -> 15.5cm三连装副炮
[724] 15.5cm三连装炮 -> 15.5cm单装高角炮
[725] 15.5cm三连装副炮 -> 15.5cm单装高角炮
[726] 14”/50 Mk4 三连装炮 + 35.6cm连装炮 + 试制35.6cm三连装炮 -> 14”/50 Mk11 三连装炮
[727] 5”/38 Mk12 连装平高两用炮 Mk.38 + 94式高射装置 -> 5”/38 Mk12 连装平高两用炮 Mk.28 mod.2
[728] 5”/38 Mk12 连装平高两用炮 Mk.38 + MK37 火控系统 -> 5”/38 Mk12 连装平高两用炮 Mk.28 mod.2
[729] 5”/38 Mk12 连装平高两用炮 Mk.38 + 94式高射装置 -> 5”/38 Mk12 连装平高两用炮 Mk.38 + GFCS
[730] 5”/38 Mk12 连装平高两用炮 Mk.38 + MK37 火控系统 -> 5”/38 Mk12 连装平高两用炮 Mk.38 + GFCS
[731] 试制61cm六连装酸素鱼雷 x3 -> 试制72cm三连装酸素鱼雷
[732] 21”五连装鱼雷 x3 -> 21” Mk17 五连装鱼雷
[733] 21” Mk14 鱼雷(潜艇) + 21”五连装鱼雷 x2 -> 21” Mk16 鱼雷(潜艇)
====================================================================